Date,Open,High,Low,Close,Adj Close,Volume
2020-10-30,124.2699966430664,125.80999755859375,122.91999816894531,124.37000274658203,123.09922790527344,286300
2020-11-02,125.5,130.27000427246094,125.29000091552734,129.92999267578125,128.6024169921875,881800
2020-11-03,130.49000549316406,131.3000030517578,124.56999969482422,126.30999755859375,125.01940155029297,961400
2020-11-04,123.77999877929688,130.0500030517578,123.77999877929688,125.88999938964844,124.60369110107422,438500
2020-11-05,126.87000274658203,128.08999633789062,125.2699966430664,127.36000061035156,126.05867004394531,324700
2020-11-06,128.4600067138672,129.39999389648438,126.7300033569336,127.08999633789062,125.79142761230469,259400
2020-11-09,136.44000244140625,136.8699951171875,130.6199951171875,131.8000030517578,130.45330810546875,716100
2020-11-10,133.49000549316406,134.17999267578125,131.5800018310547,134.16000366210938,132.7891845703125,719000
2020-11-11,134.2100067138672,134.9600067138672,130.6699981689453,131.58999633789062,130.24545288085938,638800
2020-11-12,130.86000061035156,131.86000061035156,129.38999938964844,130.82000732421875,129.4833221435547,344900
2020-11-13,131.89999389648438,133.91000366210938,131.72000122070312,133.50999450683594,132.1458282470703,428300
2020-11-16,136.52000427246094,137.82000732421875,135.24000549316406,137.11000061035156,135.70904541015625,466100
2020-11-17,135.75999450683594,138.77999877929688,134.5500030517578,138.58999633789062,137.17391967773438,558900
2020-11-18,138.74000549316406,139.67999267578125,135.52000427246094,135.6199951171875,134.23426818847656,342500
2020-11-19,134.6300048828125,135.08999633789062,133.19000244140625,134.9199981689453,133.54141235351562,284700
2020-11-20,134.50999450683594,135.25999450683594,133.52999877929688,133.88999938964844,132.52194213867188,423800
2020-11-23,135.5800018310547,135.8800048828125,134.6300048828125,135.3300018310547,133.94723510742188,379100
2020-11-24,136.66000366210938,136.88999938964844,135.17999267578125,136.0800018310547,134.6895751953125,517200
2020-11-25,135.27999877929688,136.08999633789062,134.19000244140625,135.5800018310547,134.19468688964844,377500
2020-11-27,134.5399932861328,134.97999572753906,133.5,133.7899932861328,133.0707550048828,158300
2020-11-30,132.8800048828125,133.77000427246094,129.0399932861328,129.1199951171875,128.4258575439453,504500
2020-12-01,131.38999938964844,132.6699981689453,130.72999572753906,131.36000061035156,130.65382385253906,455700
2020-12-02,130.39999389648438,132.11000061035156,130.2100067138672,131.5800018310547,130.8726348876953,619000
2020-12-03,131.19000244140625,132.74000549316406,131.19000244140625,132.17999267578125,131.4694061279297,604900
2020-12-04,132.89999389648438,133.32000732421875,131.72000122070312,132.5800018310547,131.8672637939453,338700
2020-12-07,131.5399932861328,132.00999450683594,130.63999938964844,131.3300018310547,130.6239776611328,476900
2020-12-08,130.36000061035156,132.8800048828125,130.36000061035156,131.92999267578125,131.2207489013672,395900
2020-12-09,132.3000030517578,132.57000732421875,130.9499969482422,131.17999267578125,130.4747772216797,376000
2020-12-10,130.8000030517578,132.99000549316406,130.5800018310547,132.52000427246094,131.80758666992188,379500
2020-12-11,131.99000549316406,133.35000610351562,131.47999572753906,132.22000122070312,131.5092010498047,257000
2020-12-14,133.75,134.3699951171875,131.60000610351562,131.64999389648438,130.9422607421875,244600
2020-12-15,132.32000732421875,133.94000244140625,131.72000122070312,132.38999938964844,131.67828369140625,473700
2020-12-16,133.13999938964844,134.80999755859375,132.77999877929688,134.2100067138672,133.48851013183594,310900
2020-12-17,134.64999389648438,135.1999969482422,132.1699981689453,132.3699951171875,131.65838623046875,434200
2020-12-18,132.25,133.61000061035156,130.25,131.2899932861328,130.5841827392578,915100
2020-12-21,130.9199981689453,131.6199951171875,128.97999572753906,130.82000732421875,130.11672973632812,370300
2020-12-22,131.16000366210938,132.52000427246094,131.0800018310547,131.49000549316406,130.7831268310547,334200
2020-12-23,131.57000732421875,133.4499969482422,131.57000732421875,132.44000244140625,131.72801208496094,260600
2020-12-24,132.5500030517578,132.85000610351562,131.85000610351562,132.6199951171875,131.90704345703125,86700
2020-12-28,132.99000549316406,134.0399932861328,132.5,133.3800048828125,132.6629638671875,188300
2020-12-29,133.88999938964844,133.88999938964844,132.00999450683594,132.52999877929688,131.81753540039062,204500
2020-12-30,132.42999267578125,134.52999877929688,132.42999267578125,134.02999877929688,133.30946350097656,210900
2020-12-31,134.4600067138672,136.39999389648438,133.8699951171875,136.22000122070312,135.48768615722656,233100
2021-01-04,136.2100067138672,136.58999633789062,131.0500030517578,132.11000061035156,131.3997802734375,395700
2021-01-05,132.36000061035156,133.4499969482422,131.0,132.14999389648438,131.43955993652344,258700
2021-01-06,133.64999389648438,138.88999938964844,133.1999969482422,137.9499969482422,137.20838928222656,371300
2021-01-07,138.47999572753906,140.75,138.22000122070312,139.33999633789062,138.59091186523438,381000
2021-01-08,139.38999938964844,139.38999938964844,136.52999877929688,138.61000061035156,137.86483764648438,188700
2021-01-11,137.3300018310547,138.89999389648438,137.27999877929688,137.80999755859375,137.0691375732422,183200
2021-01-12,139.24000549316406,141.32000732421875,138.8699951171875,141.1699981689453,140.41107177734375,353400
2021-01-13,140.7100067138672,141.47999572753906,139.75,140.35000610351562,139.59548950195312,333800
2021-01-14,140.3000030517578,141.16000366210938,138.58999633789062,139.1300048828125,138.38204956054688,328100
2021-01-15,138.00999450683594,140.19000244140625,137.52999877929688,140.1699981689453,139.4164581298828,306100
2021-01-19,141.38999938964844,143.3699951171875,140.17999267578125,142.97999572753906,142.2113494873047,321400
2021-01-20,142.44000244140625,143.6699981689453,141.9600067138672,142.00999450683594,141.24656677246094,277200
2021-01-21,141.66000366210938,142.60000610351562,137.1300048828125,137.7100067138672,136.96969604492188,262100
2021-01-22,136.8800048828125,137.47000122070312,134.72000122070312,134.89999389648438,134.17478942871094,305300
2021-01-25,133.69000244140625,134.8800048828125,132.4600067138672,132.72999572753906,132.01644897460938,340100
2021-01-26,133.47000122070312,133.8300018310547,129.25999450683594,130.47000122070312,129.7686004638672,455900
2021-01-27,129.64999389648438,131.39999389648438,128.0,130.7899932861328,130.08688354492188,626100
2021-01-28,131.9600067138672,134.97999572753906,131.5399932861328,133.5,132.78231811523438,452900
2021-01-29,132.94000244140625,136.0399932861328,132.4199981689453,135.47000122070312,134.74172973632812,632600
2021-02-01,135.8300018310547,136.1300048828125,130.25999450683594,134.49000549316406,133.76699829101562,673100
2021-02-02,136.0500030517578,136.2899932861328,133.3800048828125,133.50999450683594,132.79225158691406,697200
2021-02-03,133.5,134.5,131.58999633789062,133.25,132.53366088867188,409300
2021-02-04,134.0800018310547,136.05999755859375,131.07000732421875,131.8800048828125,131.17103576660156,783300
2021-02-05,132.72999572753906,134.6199951171875,131.57000732421875,134.36000061035156,133.6376953125,558600
2021-02-08,134.80999755859375,135.75999450683594,134.10000610351562,135.44000244140625,134.71188354492188,392200
2021-02-09,134.80999755859375,136.13999938964844,133.57000732421875,136.1300048828125,135.39817810058594,695800
2021-02-10,135.05999755859375,135.05999755859375,128.27999877929688,128.42999267578125,127.73956298828125,1373500
2021-02-11,128.00999450683594,131.2100067138672,126.7699966430664,130.47999572753906,129.77854919433594,984900
2021-02-12,129.42999267578125,130.22999572753906,126.7699966430664,128.1300048828125,127.4411849975586,605900
2021-02-16,129.0800018310547,129.0800018310547,125.37999725341797,125.94999694824219,125.27289581298828,690900
2021-02-17,125.44000244140625,126.5199966430664,124.93000030517578,125.72000122070312,125.04414367675781,901000
2021-02-18,125.44000244140625,125.80999755859375,122.48999786376953,122.7699966430664,122.10999298095703,607300
2021-02-19,122.5,123.87999725341797,121.55000305175781,123.30999755859375,123.30999755859375,817200
2021-02-22,122.72000122070312,127.02999877929688,122.23999786376953,126.88999938964844,126.88999938964844,857000
2021-02-23,127.4000015258789,128.39999389648438,126.0199966430664,127.66999816894531,127.66999816894531,572100
2021-02-24,128.05999755859375,130.0800018310547,128.05999755859375,128.1300048828125,128.1300048828125,420700
2021-02-25,128.5,128.75,124.97000122070312,125.16999816894531,125.16999816894531,326400
2021-02-26,124.9800033569336,125.72000122070312,122.47000122070312,123.22000122070312,123.22000122070312,746400
2021-03-01,124.43000030517578,127.72000122070312,124.43000030517578,126.30000305175781,126.30000305175781,519800
2021-03-02,125.9800033569336,126.87000274658203,125.06999969482422,126.63999938964844,126.63999938964844,378300
2021-03-03,126.9000015258789,129.7100067138672,126.2699966430664,128.0399932861328,128.0399932861328,470000
2021-03-04,128.6699981689453,129.9600067138672,127.05999755859375,128.0800018310547,128.0800018310547,695200
2021-03-05,128.99000549316406,132.22999572753906,128.60000610351562,131.9199981689453,131.9199981689453,375600
2021-03-08,132.60000610351562,136.1199951171875,132.1699981689453,133.8000030517578,133.8000030517578,371200
2021-03-09,135.49000549316406,138.30999755859375,134.72000122070312,134.9199981689453,134.9199981689453,677900
2021-03-10,134.91000366210938,138.8699951171875,134.10000610351562,138.74000549316406,138.74000549316406,569100
2021-03-11,137.52999877929688,138.6699981689453,136.33999633789062,136.47000122070312,136.47000122070312,495100
2021-03-12,137.35000610351562,138.89999389648438,135.99000549316406,136.27999877929688,136.27999877929688,457100
2021-03-15,136.3000030517578,138.3000030517578,135.07000732421875,138.16000366210938,138.16000366210938,374400
2021-03-16,137.4499969482422,137.99000549316406,136.02999877929688,137.38999938964844,137.38999938964844,366100
2021-03-17,138.50999450683594,139.5,137.00999450683594,138.63999938964844,138.63999938964844,545900
2021-03-18,139.8800048828125,144.6300048828125,139.47000122070312,142.61000061035156,142.61000061035156,673900
2021-03-19,143.16000366210938,144.5800018310547,141.2100067138672,143.7100067138672,143.7100067138672,1448100
2021-03-22,143.25,143.60000610351562,139.8000030517578,140.75,140.75,560500
2021-03-23,139.7100067138672,142.50999450683594,139.7100067138672,140.6199951171875,140.6199951171875,332800
2021-03-24,141.27999877929688,143.6699981689453,140.6199951171875,142.0,142.0,402500
2021-03-25,142.36000061035156,143.85000610351562,140.75999450683594,143.5399932861328,143.5399932861328,319800
2021-03-26,144.1199951171875,144.85000610351562,142.8699951171875,144.64999389648438,144.64999389648438,320500
2021-03-29,143.0800018310547,144.72000122070312,142.77000427246094,143.77000427246094,143.77000427246094,287900
2021-03-30,143.5,144.92999267578125,142.8000030517578,144.7100067138672,144.7100067138672,371900
2021-03-31,143.63999938964844,144.8000030517578,141.6999969482422,141.77000427246094,141.77000427246094,434400
2021-04-01,141.14999389648438,142.36000061035156,139.88999938964844,142.3000030517578,142.3000030517578,263400
2021-04-05,142.5,143.57000732421875,141.8000030517578,142.7899932861328,142.7899932861328,267100
2021-04-06,142.85000610351562,144.1699981689453,141.77999877929688,143.39999389648438,143.39999389648438,228400
2021-04-07,143.74000549316406,145.85000610351562,142.99000549316406,145.5800018310547,145.5800018310547,339100
2021-04-08,144.92999267578125,146.27000427246094,144.75999450683594,145.32000732421875,145.32000732421875,390800
2021-04-09,146.10000610351562,147.14999389648438,145.11000061035156,146.9600067138672,146.9600067138672,242400
2021-04-12,147.30999755859375,148.1300048828125,146.64999389648438,147.91000366210938,147.91000366210938,313800
2021-04-13,146.9499969482422,148.74000549316406,146.30999755859375,148.2899932861328,148.2899932861328,329000
2021-04-14,148.52999877929688,150.14999389648438,148.41000366210938,149.5,149.5,416300
2021-04-15,149.64999389648438,150.7899932861328,149.6300048828125,150.07000732421875,150.07000732421875,408300
2021-04-16,151.7899932861328,152.97999572753906,151.69000244140625,152.5,152.5,377500
2021-04-19,153.52000427246094,154.19000244140625,152.69000244140625,153.24000549316406,153.24000549316406,253400
2021-04-20,153.19000244140625,154.94000244140625,152.1199951171875,154.02999877929688,154.02999877929688,258700
2021-04-21,154.4499969482422,156.02999877929688,153.9499969482422,155.74000549316406,155.74000549316406,291700
2021-04-22,155.22000122070312,155.4600067138672,153.19000244140625,153.85000610351562,153.85000610351562,227800
2021-04-23,154.38999938964844,156.25,154.17999267578125,155.7899932861328,155.7899932861328,166400
2021-04-26,156.10000610351562,157.39999389648438,155.0800018310547,155.1699981689453,155.1699981689453,189200
2021-04-27,155.6300048828125,156.4499969482422,154.2899932861328,156.33999633789062,156.33999633789062,243200
2021-04-28,156.33999633789062,156.47999572753906,154.3699951171875,154.58999633789062,154.58999633789062,246400
2021-04-29,154.6699981689453,156.72000122070312,154.6699981689453,156.49000549316406,156.49000549316406,229500
