Date,Open,High,Low,Close,Adj Close,Volume
2020-10-30,34.15999984741211,34.380001068115234,33.63999938964844,34.36000061035156,33.878509521484375,5521500
2020-11-02,35.02000045776367,35.279998779296875,34.52000045776367,35.099998474121094,34.60813903808594,5640000
2020-11-03,35.83000183105469,36.33000183105469,35.61000061035156,35.9900016784668,35.48567199707031,6011500
2020-11-04,35.130001068115234,35.650001525878906,34.38999938964844,34.70000076293945,34.213748931884766,7630300
2020-11-05,34.88999938964844,35.93000030517578,34.86000061035156,35.599998474121094,35.10113525390625,6184300
2020-11-06,35.75,35.849998474121094,34.91999816894531,35.06999969482422,34.57855987548828,4336500
2020-11-09,38.439998626708984,40.060001373291016,38.40999984741211,39.15999984741211,38.61124801635742,9647200
2020-11-10,39.16999816894531,39.52000045776367,38.43000030517578,39.220001220703125,38.67041015625,6627700
2020-11-11,39.70000076293945,39.70000076293945,38.22999954223633,38.599998474121094,38.0590934753418,6169500
2020-11-12,38.130001068115234,38.38999938964844,37.33000183105469,37.72999954223633,37.20128631591797,4461000
2020-11-13,38.20000076293945,38.959999084472656,38.040000915527344,38.709999084472656,38.16755294799805,3872500
2020-11-16,39.77000045776367,39.939998626708984,39.220001220703125,39.709999084472656,39.15353775024414,4664800
2020-11-17,39.029998779296875,39.689998626708984,38.84000015258789,39.439998626708984,38.88732147216797,3870900
2020-11-18,39.650001525878906,40.209999084472656,38.720001220703125,38.7400016784668,38.19713592529297,7207400
2020-11-19,37.86000061035156,38.599998474121094,37.7599983215332,38.4900016784668,37.95063781738281,4173100
2020-11-20,37.72999954223633,38.099998474121094,37.52000045776367,37.880001068115234,37.349185943603516,6106300
2020-11-23,38.33000183105469,38.83000183105469,38.119998931884766,38.54999923706055,38.009796142578125,4093500
2020-11-24,39.20000076293945,40.84000015258789,39.150001525878906,40.689998626708984,40.119808197021484,6188900
2020-11-25,40.45000076293945,40.650001525878906,39.83000183105469,40.369998931884766,39.804290771484375,5737400
2020-11-27,40.79999923706055,40.79999923706055,39.86000061035156,39.95000076293945,39.39017868041992,2259200
2020-11-30,40.02000045776367,40.060001373291016,38.939998626708984,39.119998931884766,38.571807861328125,6200700
2020-12-01,39.79999923706055,40.099998474121094,39.34000015258789,39.459999084472656,38.90704345703125,6028400
2020-12-02,39.45000076293945,40.150001525878906,39.290000915527344,39.9900016784668,39.42961883544922,4778800
2020-12-03,40.02000045776367,40.279998779296875,39.61000061035156,40.119998931884766,39.557796478271484,5286700
2020-12-04,40.2400016784668,40.79999923706055,40.2400016784668,40.650001525878906,40.08036804199219,5224300
2020-12-07,40.279998779296875,40.56999969482422,39.869998931884766,40.34000015258789,39.77471160888672,4652300
2020-12-08,40.029998779296875,40.849998474121094,40.0099983215332,40.779998779296875,40.20854568481445,4657900
2020-12-09,41.04999923706055,41.5099983215332,40.70000076293945,40.790000915527344,40.218406677246094,5833300
2020-12-10,40.36000061035156,41.5,40.279998779296875,41.36000061035156,40.780418395996094,6598400
2020-12-11,40.72999954223633,40.900001525878906,40.13999938964844,40.2400016784668,39.676116943359375,6298400
2020-12-14,40.83000183105469,40.97999954223633,39.79999923706055,39.83000183105469,39.2718620300293,4456200
2020-12-15,40.369998931884766,40.5099983215332,39.720001220703125,40.189998626708984,39.62681198120117,4741400
2020-12-16,40.290000915527344,40.66999816894531,40.099998474121094,40.45000076293945,39.88317108154297,4771000
2020-12-17,40.59000015258789,40.689998626708984,40.15999984741211,40.40999984741211,39.84373092651367,4896500
2020-12-18,40.33000183105469,40.90999984741211,40.22999954223633,40.790000915527344,40.218406677246094,10343600
2020-12-21,41.529998779296875,42.13999938964844,40.400001525878906,41.41999816894531,40.839576721191406,7362300
2020-12-22,41.349998474121094,41.36000061035156,40.25,40.279998779296875,39.71554946899414,4172700
2020-12-23,40.540000915527344,41.31999969482422,40.43000030517578,40.97999954223633,40.40574264526367,3833900
2020-12-24,41.150001525878906,41.20000076293945,40.619998931884766,41.040000915527344,40.46490478515625,1254800
2020-12-28,41.34000015258789,41.88999938964844,41.06999969482422,41.439998626708984,40.85929489135742,3294400
2020-12-29,41.58000183105469,41.68000030517578,41.209999084472656,41.439998626708984,40.85929489135742,3244700
2020-12-30,41.47999954223633,41.869998931884766,41.38999938964844,41.689998626708984,41.10579299926758,2824900
2020-12-31,41.689998626708984,42.4900016784668,41.58000183105469,42.439998626708984,41.84528350830078,2956600
2021-01-04,42.5,42.63999938964844,41.22999954223633,41.689998626708984,41.10579299926758,5710200
2021-01-05,41.689998626708984,42.43000030517578,41.34000015258789,42.15999984741211,41.569210052490234,4592400
2021-01-06,43.52000045776367,45.41999816894531,43.43000030517578,45.0099983215332,44.3792724609375,8467200
2021-01-07,45.59000015258789,46.040000915527344,45.2400016784668,45.279998779296875,44.64548873901367,5079000
2021-01-08,45.349998474121094,45.459999084472656,44.43000030517578,44.79999923706055,44.17221450805664,3621000
2021-01-11,44.43000030517578,45.56999969482422,44.099998474121094,45.560001373291016,44.921566009521484,4590200
2021-01-12,45.90999984741211,46.66999816894531,45.849998474121094,46.560001373291016,45.907554626464844,4933700
2021-01-13,46.52000045776367,46.84000015258789,46.189998626708984,46.31999969482422,45.67091369628906,4343300
2021-01-14,46.36000061035156,46.84000015258789,45.810001373291016,46.529998779296875,45.877967834472656,3362300
2021-01-15,45.959999084472656,46.130001068115234,45.31999969482422,45.56999969482422,44.93142318725586,4330800
2021-01-19,45.75,46.33000183105469,45.22999954223633,45.81999969482422,45.177921295166016,6427800
2021-01-20,43.720001220703125,44.0,42.2599983215332,42.4900016784668,41.89458465576172,10494500
2021-01-21,42.529998779296875,42.790000915527344,41.70000076293945,42.2599983215332,41.66780471801758,8672300
2021-01-22,41.810001373291016,42.279998779296875,41.470001220703125,41.93000030517578,41.342430114746094,5509000
2021-01-25,41.5,41.70000076293945,41.11000061035156,41.29999923706055,40.721256256103516,8239300
2021-01-26,41.47999954223633,41.66999816894531,40.880001068115234,41.34000015258789,40.76070022583008,5936700
2021-01-27,40.7599983215332,40.84000015258789,39.58000183105469,39.81999969482422,39.26199722290039,8475500
2021-01-28,40.08000183105469,41.060001373291016,40.040000915527344,40.689998626708984,40.119808197021484,7315500
2021-01-29,40.209999084472656,40.599998474121094,39.459999084472656,39.83000183105469,39.57335662841797,7392700
2021-02-01,40.130001068115234,41.06999969482422,40.02000045776367,40.470001220703125,40.209228515625,7013600
2021-02-02,40.75,41.630001068115234,40.529998779296875,40.849998474121094,40.5867805480957,8285500
2021-02-03,40.720001220703125,41.31999969482422,40.560001373291016,41.060001373291016,40.79542922973633,5403200
2021-02-04,41.290000915527344,42.29999923706055,41.16999816894531,42.22999954223633,41.957889556884766,5019600
2021-02-05,42.529998779296875,42.58000183105469,41.88999938964844,42.029998779296875,41.75917434692383,3505000
2021-02-08,42.150001525878906,42.439998626708984,41.790000915527344,41.95000076293945,41.67969512939453,3988300
2021-02-09,41.849998474121094,42.150001525878906,41.400001525878906,41.959999084472656,41.68962860107422,4202800
2021-02-10,42.11000061035156,42.38999938964844,41.709999084472656,41.7400016784668,41.471046447753906,4574500
2021-02-11,43.0,43.84000015258789,42.029998779296875,42.130001068115234,41.85853576660156,10915600
2021-02-12,41.88999938964844,42.540000915527344,41.58000183105469,41.93000030517578,41.659820556640625,8843800
2021-02-16,42.189998626708984,43.349998474121094,42.11000061035156,42.75,42.47453689575195,8707400
2021-02-17,42.779998779296875,43.29999923706055,42.43000030517578,42.900001525878906,42.623573303222656,4602200
2021-02-18,42.560001373291016,42.79999923706055,41.900001525878906,42.18000030517578,41.90821075439453,3715800
2021-02-19,42.41999816894531,42.88999938964844,42.2400016784668,42.31999969482422,42.04730987548828,5899900
2021-02-22,42.099998474121094,43.97999954223633,42.08000183105469,43.72999954223633,43.44822311401367,9732700
2021-02-23,43.97999954223633,44.540000915527344,43.650001525878906,43.83000183105469,43.54758071899414,8004600
2021-02-24,43.970001220703125,44.56999969482422,43.83000183105469,44.2599983215332,43.97480773925781,7416800
2021-02-25,44.61000061035156,44.95000076293945,43.25,43.41999816894531,43.140220642089844,7042100
2021-02-26,43.040000915527344,43.20000076293945,41.97999954223633,42.15999984741211,41.88833999633789,6966900
2021-03-01,42.86000061035156,43.869998931884766,42.689998626708984,43.68000030517578,43.39854431152344,6377000
2021-03-02,43.709999084472656,44.31999969482422,43.58000183105469,43.599998474121094,43.31905746459961,4494600
2021-03-03,43.779998779296875,45.560001373291016,43.779998779296875,44.529998779296875,44.24306869506836,7398000
2021-03-04,44.529998779296875,45.349998474121094,44.040000915527344,44.7599983215332,44.47158432006836,6865100
2021-03-05,45.400001525878906,45.720001220703125,44.400001525878906,45.029998779296875,44.739845275878906,5828700
2021-03-08,45.56999969482422,46.15999984741211,45.150001525878906,45.630001068115234,45.33598327636719,4341700
2021-03-09,45.029998779296875,45.939998626708984,44.349998474121094,44.939998626708984,44.65042495727539,6057800
2021-03-10,45.11000061035156,46.27000045776367,44.900001525878906,45.900001525878906,45.60424041748047,5011900
2021-03-11,45.560001373291016,46.0,45.20000076293945,45.72999954223633,45.43533706665039,3696800
2021-03-12,46.540000915527344,46.900001525878906,46.20000076293945,46.65999984741211,46.359344482421875,4741500
2021-03-15,46.689998626708984,46.779998779296875,46.02000045776367,46.689998626708984,46.3891487121582,3676000
2021-03-16,46.40999984741211,46.630001068115234,45.91999816894531,46.2400016784668,45.94205093383789,3723300
2021-03-17,46.66999816894531,46.81999969482422,45.880001068115234,46.5099983215332,46.21030807495117,4903800
2021-03-18,47.029998779296875,47.7599983215332,46.529998779296875,46.70000076293945,46.399085998535156,6300100
2021-03-19,46.189998626708984,46.709999084472656,45.61000061035156,46.349998474121094,46.05133819580078,14538700
2021-03-22,45.369998931884766,45.79999923706055,44.880001068115234,45.209999084472656,44.91868591308594,6265600
2021-03-23,44.939998626708984,45.34000015258789,44.20000076293945,44.369998931884766,44.08409881591797,3727700
2021-03-24,45.4900016784668,46.040000915527344,45.25,45.25,44.95842742919922,5262300
2021-03-25,45.34000015258789,46.369998931884766,44.70000076293945,46.33000183105469,46.031471252441406,6261700
2021-03-26,46.81999969482422,47.560001373291016,46.7599983215332,47.4900016784668,47.183998107910156,7321300
2021-03-29,46.630001068115234,47.90999984741211,46.459999084472656,47.52000045776367,47.213802337646484,4829200
2021-03-30,47.79999923706055,48.150001525878906,47.5,47.86000061035156,47.551612854003906,4451200
2021-03-31,47.630001068115234,47.880001068115234,47.220001220703125,47.290000915527344,46.985286712646484,4847400
2021-04-01,47.2400016784668,47.52000045776367,46.849998474121094,47.470001220703125,47.16412353515625,4046100
2021-04-05,47.97999954223633,48.5,47.68000030517578,48.130001068115234,47.81987380981445,3655600
2021-04-06,48.040000915527344,48.130001068115234,47.40999984741211,47.779998779296875,47.47212600708008,3120400
2021-04-07,48.029998779296875,48.290000915527344,47.599998474121094,47.84000015258789,47.531742095947266,3351600
2021-04-08,47.630001068115234,48.04999923706055,47.38999938964844,48.0,47.69070816040039,3119400
2021-04-09,48.29999923706055,48.70000076293945,48.16999816894531,48.619998931884766,48.30671310424805,3172400
2021-04-12,48.619998931884766,49.130001068115234,48.529998779296875,49.09000015258789,48.773685455322266,2843600
2021-04-13,48.810001373291016,48.91999816894531,48.2599983215332,48.34000015258789,48.02851867675781,3233100
2021-04-14,48.29999923706055,48.970001220703125,48.09000015258789,48.63999938964844,48.32658386230469,4219000
2021-04-15,48.72999954223633,48.79999923706055,47.95000076293945,48.0099983215332,47.70064163208008,7748100
2021-04-16,47.04999923706055,47.5,45.79999923706055,46.06999969482422,45.77314376831055,9952700
2021-04-19,46.27000045776367,46.93000030517578,46.130001068115234,46.810001373291016,46.50837707519531,6314000
2021-04-20,46.63999938964844,47.209999084472656,46.279998779296875,46.58000183105469,46.27986145019531,7287800
2021-04-21,46.310001373291016,47.40999984741211,46.189998626708984,47.189998626708984,46.88592529296875,4994400
2021-04-22,46.869998931884766,47.22999954223633,46.380001068115234,46.54999923706055,46.25005340576172,5367400
2021-04-23,46.54999923706055,47.88999938964844,46.25,47.599998474121094,47.29328536987305,4502700
2021-04-26,47.84000015258789,48.540000915527344,47.75,48.11000061035156,47.79999923706055,5555900
2021-04-27,47.869998931884766,48.65999984741211,47.58000183105469,48.54999923706055,48.54999923706055,5566600
2021-04-28,48.61000061035156,49.2400016784668,48.61000061035156,49.18000030517578,49.18000030517578,5937900
2021-04-29,49.5,50.2599983215332,49.43000030517578,50.08000183105469,50.08000183105469,6958400
