Date,Open,High,Low,Close,Adj Close,Volume
2020-10-30,14.260000228881836,14.789999961853027,14.180000305175781,14.770000457763672,14.481956481933594,10456400
2020-11-02,15.0,15.930000305175781,14.800000190734863,15.710000038146973,15.403624534606934,10397600
2020-11-03,15.979999542236328,16.170000076293945,15.59000015258789,15.880000114440918,15.570308685302734,8610800
2020-11-04,15.739999771118164,16.049999237060547,15.239999771118164,15.65999984741211,15.354598999023438,7658400
2020-11-05,15.59000015258789,15.989999771118164,15.550000190734863,15.729999542236328,15.423233985900879,6399700
2020-11-06,15.520000457763672,15.9399995803833,15.359999656677246,15.569999694824219,15.443070411682129,7022600
2020-11-09,17.40999984741211,18.440000534057617,16.920000076293945,17.670000076293945,17.525951385498047,14116800
2020-11-10,17.700000762939453,18.219999313354492,17.06999969482422,17.600000381469727,17.45652198791504,9989900
2020-11-11,17.850000381469727,17.899999618530273,17.170000076293945,17.559999465942383,17.416847229003906,5727700
2020-11-12,17.219999313354492,17.510000228881836,16.950000762939453,17.25,17.109375,7570400
2020-11-13,17.510000228881836,17.940000534057617,17.3799991607666,17.8700008392334,17.724321365356445,4629500
2020-11-16,18.670000076293945,19.09000015258789,18.18000030517578,18.790000915527344,18.636821746826172,8335200
2020-11-17,18.440000534057617,19.399999618530273,18.31999969482422,19.260000228881836,19.102989196777344,11196400
2020-11-18,19.360000610351562,19.360000610351562,18.56999969482422,18.579999923706055,18.428531646728516,8241800
2020-11-19,18.389999389648438,18.579999923706055,18.010000228881836,18.309999465942383,18.16073226928711,9324300
2020-11-20,18.15999984741211,18.270000457763672,17.979999542236328,18.209999084472656,18.061548233032227,7444500
2020-11-23,18.489999771118164,19.389999389648438,18.329999923706055,19.260000228881836,19.102989196777344,8670200
2020-11-24,20.0,20.420000076293945,19.700000762939453,20.260000228881836,20.094837188720703,8996500
2020-11-25,19.809999465942383,19.899999618530273,19.489999771118164,19.780000686645508,19.618749618530273,8643700
2020-11-27,19.729999542236328,19.850000381469727,19.600000381469727,19.780000686645508,19.618749618530273,2415200
2020-11-30,19.520000457763672,19.700000762939453,18.700000762939453,18.719999313354492,18.56739044189453,12001800
2020-12-01,19.389999389648438,19.520000457763672,19.149999618530273,19.229999542236328,19.073232650756836,6501300
2020-12-02,19.040000915527344,20.010000228881836,18.90999984741211,19.670000076293945,19.509647369384766,6720200
2020-12-03,19.8700008392334,20.6200008392334,19.690000534057617,20.420000076293945,20.25353240966797,6883700
2020-12-04,20.81999969482422,21.790000915527344,20.739999771118164,21.790000915527344,21.612363815307617,11665500
2020-12-07,21.559999465942383,22.06999969482422,21.360000610351562,22.020000457763672,21.84048843383789,7006700
2020-12-08,21.559999465942383,22.479999542236328,21.510000228881836,22.420000076293945,22.237228393554688,6728100
2020-12-09,22.649999618530273,23.290000915527344,22.399999618530273,22.729999542236328,22.544700622558594,7427000
2020-12-10,22.329999923706055,23.489999771118164,22.25,23.1200008392334,22.931522369384766,5463800
2020-12-11,22.850000381469727,23.049999237060547,22.420000076293945,22.670000076293945,22.48518943786621,6101800
2020-12-14,22.950000762939453,23.0,21.540000915527344,21.68000030517578,21.50326156616211,8371500
2020-12-15,21.770000457763672,22.190000534057617,21.479999542236328,22.010000228881836,21.830570220947266,6023300
2020-12-16,21.850000381469727,21.850000381469727,21.190000534057617,21.5,21.32472801208496,5950600
2020-12-17,21.670000076293945,21.860000610351562,21.139999389648438,21.5,21.32472801208496,4765600
2020-12-18,21.40999984741211,21.68000030517578,20.93000030517578,21.170000076293945,20.997417449951172,12639200
2020-12-21,20.299999237060547,21.420000076293945,20.290000915527344,21.25,21.076766967773438,5381800
2020-12-22,21.219999313354492,21.6200008392334,21.110000610351562,21.190000534057617,21.017255783081055,5431400
2020-12-23,21.3799991607666,21.59000015258789,21.040000915527344,21.1299991607666,20.95774269104004,3898600
2020-12-24,21.200000762939453,21.239999771118164,20.850000381469727,21.010000228881836,20.838722229003906,1213400
2020-12-28,21.190000534057617,21.190000534057617,20.75,20.8799991607666,20.709781646728516,3207900
2020-12-29,21.100000381469727,21.219999313354492,20.610000610351562,20.75,20.580842971801758,3775200
2020-12-30,20.739999771118164,21.329999923706055,20.729999542236328,21.209999084472656,21.037090301513672,3582200
2020-12-31,21.170000076293945,21.170000076293945,20.760000228881836,20.850000381469727,20.68002700805664,2799300
2021-01-04,21.219999313354492,21.489999771118164,20.81999969482422,21.020000457763672,20.848642349243164,4973500
2021-01-05,21.360000610351562,22.049999237060547,21.239999771118164,21.260000228881836,21.086685180664062,7773900
2021-01-06,21.729999542236328,22.459999084472656,21.479999542236328,22.15999984741211,21.979347229003906,8205500
2021-01-07,22.209999084472656,22.729999542236328,22.209999084472656,22.670000076293945,22.48518943786621,5536700
2021-01-08,22.790000915527344,22.90999984741211,22.260000228881836,22.469999313354492,22.286819458007812,5298400
2021-01-11,21.799999237060547,22.719999313354492,21.559999465942383,22.649999618530273,22.46535301208496,4140000
2021-01-12,22.829999923706055,23.5,22.670000076293945,23.040000915527344,22.852174758911133,5394600
2021-01-13,23.0,23.229999542236328,22.639999389648438,23.0,22.8125,4843400
2021-01-14,23.09000015258789,24.040000915527344,23.040000915527344,23.709999084472656,23.51671028137207,7846000
2021-01-15,23.15999984741211,23.3799991607666,22.3700008392334,22.8700008392334,22.68355941772461,6391600
2021-01-19,23.010000228881836,23.1200008392334,22.600000381469727,22.8700008392334,22.68355941772461,12059900
2021-01-20,23.059999465942383,23.139999389648438,22.540000915527344,22.889999389648438,22.70339584350586,7008500
2021-01-21,22.43000030517578,23.8799991607666,22.18000030517578,22.549999237060547,22.366167068481445,10725400
2021-01-22,22.18000030517578,22.3799991607666,21.68000030517578,22.170000076293945,21.98926544189453,7016000
2021-01-25,21.90999984741211,21.90999984741211,20.709999084472656,21.049999237060547,20.878395080566406,8287300
2021-01-26,21.3799991607666,21.709999084472656,20.540000915527344,20.610000610351562,20.441984176635742,7515700
2021-01-27,20.360000610351562,21.149999618530273,19.65999984741211,20.40999984741211,20.243614196777344,7279200
2021-01-28,20.690000534057617,20.790000915527344,20.09000015258789,20.600000381469727,20.432065963745117,5261100
2021-01-29,20.3799991607666,20.809999465942383,19.93000030517578,20.09000015258789,19.92622184753418,7079100
2021-02-01,20.3700008392334,20.5,19.950000762939453,20.309999465942383,20.144428253173828,3956500
2021-02-02,20.809999465942383,20.979999542236328,20.309999465942383,20.389999389648438,20.22377586364746,4098500
2021-02-03,20.40999984741211,21.459999084472656,20.40999984741211,21.399999618530273,21.225542068481445,4688300
2021-02-04,21.5,22.3799991607666,21.190000534057617,22.360000610351562,22.177717208862305,7338200
2021-02-05,22.780000686645508,22.81999969482422,21.8799991607666,22.079999923706055,21.899999618530273,4782400
2021-02-08,22.170000076293945,22.81999969482422,22.09000015258789,22.549999237060547,22.549999237060547,4331200
2021-02-09,22.350000381469727,22.520000457763672,22.079999923706055,22.270000457763672,22.270000457763672,4252400
2021-02-10,22.40999984741211,23.059999465942383,22.200000762939453,23.010000228881836,23.010000228881836,6245200
2021-02-11,22.81999969482422,22.850000381469727,22.020000457763672,22.530000686645508,22.530000686645508,5500600
2021-02-12,22.329999923706055,22.84000015258789,22.229999542236328,22.700000762939453,22.700000762939453,4895800
2021-02-16,23.190000534057617,23.610000610351562,23.049999237060547,23.229999542236328,23.229999542236328,7240700
2021-02-17,23.40999984741211,23.6200008392334,23.18000030517578,23.549999237060547,23.549999237060547,5462700
2021-02-18,23.459999084472656,23.479999542236328,23.030000686645508,23.079999923706055,23.079999923706055,5053000
2021-02-19,23.06999969482422,23.65999984741211,23.06999969482422,23.399999618530273,23.399999618530273,4616800
2021-02-22,23.43000030517578,24.639999389648438,23.25,24.1299991607666,24.1299991607666,6767800
2021-02-23,24.209999084472656,24.440000534057617,23.270000457763672,23.90999984741211,23.90999984741211,6420700
2021-02-24,24.0,25.31999969482422,23.940000534057617,25.149999618530273,25.149999618530273,7150300
2021-02-25,25.459999084472656,25.639999389648438,24.43000030517578,24.729999542236328,24.729999542236328,6680300
2021-02-26,24.34000015258789,24.729999542236328,23.5,24.479999542236328,24.479999542236328,10833100
2021-03-01,24.75,25.440000534057617,24.65999984741211,24.979999542236328,24.979999542236328,11466200
2021-03-02,24.8700008392334,25.399999618530273,24.270000457763672,24.3700008392334,24.3700008392334,10530300
2021-03-03,24.549999237060547,24.719999313354492,24.290000915527344,24.459999084472656,24.459999084472656,11263200
2021-03-04,24.389999389648438,24.690000534057617,23.0,24.030000686645508,24.030000686645508,12809300
2021-03-05,24.510000228881836,24.780000686645508,22.549999237060547,24.350000381469727,24.350000381469727,13361500
2021-03-08,24.5,24.549999237060547,23.559999465942383,24.329999923706055,24.329999923706055,9541000
2021-03-09,24.229999542236328,24.719999313354492,23.670000076293945,23.950000762939453,23.950000762939453,8402900
2021-03-10,23.90999984741211,24.520000457763672,23.799999237060547,24.3799991607666,24.3799991607666,7699100
2021-03-11,24.399999618530273,24.90999984741211,24.1200008392334,24.15999984741211,24.15999984741211,8986000
2021-03-12,24.270000457763672,24.440000534057617,24.040000915527344,24.3700008392334,24.3700008392334,7763100
2021-03-15,24.579999923706055,24.850000381469727,24.09000015258789,24.219999313354492,24.219999313354492,5931300
2021-03-16,23.75,23.989999771118164,22.989999771118164,23.020000457763672,23.020000457763672,9124900
2021-03-17,22.920000076293945,24.030000686645508,22.8799991607666,23.979999542236328,23.979999542236328,9393000
2021-03-18,23.81999969482422,24.360000610351562,22.799999237060547,22.979999542236328,22.979999542236328,9264800
2021-03-19,22.6299991607666,23.25,22.360000610351562,22.6200008392334,22.6200008392334,21919700
2021-03-22,22.440000534057617,22.56999969482422,22.010000228881836,22.309999465942383,22.309999465942383,9762600
2021-03-23,21.90999984741211,22.239999771118164,21.520000457763672,21.690000534057617,21.690000534057617,8149000
2021-03-24,22.0,22.25,21.889999389648438,22.06999969482422,22.06999969482422,7478900
2021-03-25,21.639999389648438,21.770000457763672,20.709999084472656,21.530000686645508,21.530000686645508,9500900
2021-03-26,21.950000762939453,22.360000610351562,21.739999771118164,22.34000015258789,22.34000015258789,6040400
2021-03-29,22.190000534057617,22.540000915527344,21.90999984741211,22.15999984741211,22.15999984741211,6771200
2021-03-30,21.8700008392334,22.239999771118164,21.65999984741211,21.729999542236328,21.729999542236328,5138800
2021-03-31,21.700000762939453,21.829999923706055,21.469999313354492,21.610000610351562,21.610000610351562,5308500
2021-04-01,21.6200008392334,21.729999542236328,21.1299991607666,21.729999542236328,21.729999542236328,9454000
2021-04-05,21.729999542236328,21.729999542236328,21.18000030517578,21.40999984741211,21.40999984741211,5387800
2021-04-06,21.489999771118164,21.860000610351562,21.219999313354492,21.25,21.25,8315300
2021-04-07,21.329999923706055,21.68000030517578,21.149999618530273,21.43000030517578,21.43000030517578,6556900
2021-04-08,21.149999618530273,21.25,20.280000686645508,20.709999084472656,20.709999084472656,13464400
2021-04-09,20.739999771118164,20.75,19.860000610351562,20.110000610351562,20.110000610351562,11896400
2021-04-12,20.329999923706055,20.479999542236328,19.93000030517578,20.09000015258789,20.09000015258789,8244000
2021-04-13,19.8700008392334,20.209999084472656,19.68000030517578,19.8799991607666,19.8799991607666,8779000
2021-04-14,20.079999923706055,20.729999542236328,20.059999465942383,20.350000381469727,20.350000381469727,10735900
2021-04-15,20.299999237060547,20.3700008392334,19.799999237060547,19.899999618530273,19.899999618530273,7231000
2021-04-16,20.110000610351562,20.270000457763672,19.860000610351562,20.100000381469727,20.100000381469727,7861500
2021-04-19,20.3799991607666,20.510000228881836,19.950000762939453,20.030000686645508,20.030000686645508,6892800
2021-04-20,19.809999465942383,19.959999084472656,19.25,19.510000228881836,19.510000228881836,13491800
2021-04-21,18.979999542236328,19.610000610351562,18.75,19.549999237060547,19.549999237060547,11208100
2021-04-22,19.530000686645508,20.100000381469727,19.530000686645508,19.81999969482422,19.81999969482422,9291700
2021-04-23,19.850000381469727,20.229999542236328,19.610000610351562,20.010000228881836,20.010000228881836,8240500
2021-04-26,20.209999084472656,20.40999984741211,20.020000457763672,20.139999389648438,20.139999389648438,8211100
2021-04-27,20.329999923706055,20.350000381469727,19.56999969482422,19.920000076293945,19.920000076293945,8295100
2021-04-28,20.09000015258789,20.440000534057617,19.950000762939453,20.25,20.25,9709500
2021-04-29,20.469999313354492,20.649999618530273,20.09000015258789,20.540000915527344,20.540000915527344,12228000
