Date,Open,High,Low,Close,Adj Close,Volume
2020-10-30,153.9600067138672,157.2899932861328,153.0399932861328,157.0500030517578,155.51585388183594,4373500
2020-11-02,159.1999969482422,163.85000610351562,157.64999389648438,163.27000427246094,161.6750946044922,4072400
2020-11-03,165.0,169.0,163.07000732421875,167.69000244140625,166.0519256591797,4843600
2020-11-04,159.17999267578125,162.3800048828125,155.22999572753906,155.22999572753906,153.713623046875,9081700
2020-11-05,157.6699981689453,164.9600067138672,157.60000610351562,163.08999633789062,161.49684143066406,4821600
2020-11-06,163.94000244140625,165.5399932861328,160.75999450683594,161.2899932861328,159.7144317626953,2983000
2020-11-09,174.02999877929688,176.3699951171875,170.1199951171875,170.82000732421875,169.15133666992188,5969600
2020-11-10,171.89999389648438,174.99000549316406,170.77000427246094,172.3000030517578,170.61688232421875,3499100
2020-11-11,172.3800048828125,172.74000549316406,167.47000122070312,169.4600067138672,167.8046417236328,2345500
2020-11-12,168.8300018310547,171.10000610351562,167.64999389648438,169.1300048828125,167.4778594970703,2185500
2020-11-13,170.3000030517578,172.22000122070312,169.19000244140625,171.7100067138672,170.03265380859375,2120200
2020-11-16,175.0,175.0,171.8300018310547,173.19000244140625,171.49819946289062,3902400
2020-11-17,172.1699981689453,172.47999572753906,170.19000244140625,171.91000366210938,170.23069763183594,2110800
2020-11-18,172.0399932861328,175.3800048828125,172.0399932861328,172.74000549316406,171.05258178710938,3165100
2020-11-19,172.5,173.25,170.7100067138672,172.89999389648438,171.2110137939453,2012100
2020-11-20,172.4499969482422,173.1199951171875,171.30999755859375,172.22999572753906,170.54757690429688,2449800
2020-11-23,173.75999450683594,175.5,173.24000549316406,174.77999877929688,173.07266235351562,2403500
2020-11-24,176.25,178.32000732421875,175.27000427246094,176.89999389648438,175.17193603515625,3447000
2020-11-25,176.4600067138672,176.47999572753906,172.77999877929688,174.6300048828125,172.92413330078125,2506400
2020-11-27,174.41000366210938,175.9199981689453,173.8800048828125,175.0800018310547,173.36973571777344,976900
2020-11-30,173.61000061035156,174.8800048828125,172.42999267578125,173.58999633789062,171.894287109375,2382600
2020-12-01,175.38999938964844,176.57000732421875,172.94000244140625,173.25999450683594,171.5675048828125,2710200
2020-12-02,173.25999450683594,174.4199981689453,172.27999877929688,173.8699951171875,172.17153930664062,1971000
2020-12-03,173.8699951171875,175.0800018310547,173.27999877929688,174.6300048828125,172.92413330078125,2903900
2020-12-04,175.9199981689453,183.80999755859375,175.6199951171875,182.2100067138672,180.43008422851562,6086200
2020-12-07,180.38999938964844,180.38999938964844,176.55999755859375,178.7100067138672,176.9642791748047,4587400
2020-12-08,177.66000366210938,180.74000549316406,177.5,178.83999633789062,177.09298706054688,2001600
2020-12-09,179.6199951171875,180.47999572753906,177.0,180.07000732421875,178.31100463867188,2915500
2020-12-10,179.24000549316406,179.52999877929688,177.13999938964844,178.85000610351562,177.1029052734375,3109400
2020-12-11,176.99000549316406,179.77999877929688,176.22999572753906,179.2899932861328,177.53860473632812,2673400
2020-12-14,180.60000610351562,183.3300018310547,177.77999877929688,178.0500030517578,176.3107147216797,2533600
2020-12-15,179.92999267578125,182.75999450683594,179.02000427246094,181.74000549316406,179.9646759033203,2360800
2020-12-16,180.85000610351562,181.27000427246094,178.36000061035156,179.5,177.74655151367188,2031800
2020-12-17,180.6699981689453,180.72999572753906,178.5800018310547,179.1699981689453,177.41976928710938,2296500
2020-12-18,180.07000732421875,181.3000030517578,177.47000122070312,180.9600067138672,179.19229125976562,5262700
2020-12-21,176.94000244140625,180.88999938964844,176.32000732421875,180.16000366210938,178.40011596679688,2071000
2020-12-22,179.2899932861328,180.16000366210938,176.47999572753906,176.5800018310547,174.85508728027344,2493300
2020-12-23,177.4499969482422,179.2899932861328,177.00999450683594,178.4199981689453,176.67709350585938,1862500
2020-12-24,179.4499969482422,179.85000610351562,178.35000610351562,179.55999755859375,177.80596923828125,585700
2020-12-28,180.47999572753906,181.1199951171875,178.30999755859375,178.3699951171875,176.62759399414062,1508800
2020-12-29,179.1699981689453,179.3800048828125,175.11000061035156,176.64999389648438,174.92437744140625,1490300
2020-12-30,179.77000427246094,182.22999572753906,178.69000244140625,180.0399932861328,178.28126525878906,2720600
2020-12-31,180.25,182.10000610351562,178.75,182.02000427246094,180.24192810058594,1717800
2021-01-04,183.0,185.97999572753906,180.25,182.14999389648438,180.3706512451172,4078300
2021-01-05,181.2100067138672,185.8000030517578,181.2100067138672,183.63999938964844,181.8461151123047,2933700
2021-01-06,187.14999389648438,197.27999877929688,186.14999389648438,193.86000061035156,191.96627807617188,8034700
2021-01-07,196.85000610351562,197.3699951171875,192.1999969482422,194.22999572753906,192.33265686035156,5297500
2021-01-08,193.85000610351562,195.25999450683594,191.32000732421875,194.25999450683594,192.36236572265625,3186600
2021-01-11,191.55999755859375,195.4600067138672,190.30999755859375,193.86000061035156,191.96627807617188,2541300
2021-01-12,194.67999267578125,198.0,193.30999755859375,197.5399932861328,195.61032104492188,2466100
2021-01-13,198.7899932861328,200.1699981689453,195.8000030517578,195.88999938964844,193.9764404296875,3154700
2021-01-14,196.10000610351562,197.91000366210938,195.36000061035156,197.39999389648438,195.47169494628906,2486600
2021-01-15,195.66000366210938,195.7100067138672,190.8800048828125,194.6199951171875,192.71885681152344,3317100
2021-01-19,194.2899932861328,196.11000061035156,193.44000244140625,194.05999755859375,193.18673706054688,2361200
2021-01-20,192.66000366210938,193.89999389648438,190.4199981689453,192.33999633789062,191.47447204589844,2501100
2021-01-21,192.35000610351562,193.72000122070312,190.0500030517578,192.19000244140625,191.3251495361328,1951200
2021-01-22,190.85000610351562,192.82000732421875,189.30999755859375,191.94000244140625,191.07627868652344,2027000
2021-01-25,190.55999755859375,191.3699951171875,186.97000122070312,187.33999633789062,186.49697875976562,3837100
2021-01-26,187.60000610351562,189.41000366210938,186.8300018310547,187.2100067138672,186.36756896972656,2506000
2021-01-27,184.1999969482422,185.5500030517578,179.33999633789062,180.6300048828125,179.81716918945312,4095300
2021-01-28,182.25999450683594,187.61000061035156,181.30999755859375,184.33999633789062,183.51046752929688,3445400
2021-01-29,183.5,188.82000732421875,180.72999572753906,182.83999633789062,182.01722717285156,4540100
2021-02-01,185.9600067138672,186.8000030517578,182.02000427246094,184.72000122070312,183.88876342773438,2738200
2021-02-02,186.5,192.77999877929688,185.63999938964844,192.5,191.63375854492188,5265400
2021-02-03,190.91000366210938,191.52999877929688,189.05999755859375,191.4499969482422,190.58847045898438,2979000
2021-02-04,192.0,192.61000061035156,190.1999969482422,191.64999389648438,190.78756713867188,2253800
2021-02-05,192.52000427246094,194.3300018310547,190.00999450683594,193.0,192.13150024414062,2240000
2021-02-08,195.0,197.5399932861328,194.6699981689453,197.4499969482422,196.5614776611328,2725700
2021-02-09,197.5399932861328,198.66000366210938,194.88999938964844,197.27999877929688,196.39224243164062,2331600
2021-02-10,198.5,199.7100067138672,196.25999450683594,197.72000122070312,196.83026123046875,2816400
2021-02-11,197.58999633789062,198.4199981689453,194.38999938964844,198.35000610351562,197.4574432373047,2177200
2021-02-12,197.97999572753906,198.75999450683594,196.75999450683594,197.99000549316406,197.09906005859375,1804200
2021-02-16,199.75,205.17999267578125,199.24000549316406,202.3800048828125,201.46929931640625,3722700
2021-02-17,202.38999938964844,202.89999389648438,199.7899932861328,202.3000030517578,201.38966369628906,2290400
2021-02-18,201.5500030517578,202.8800048828125,198.5800018310547,199.9199981689453,199.02037048339844,2345800
2021-02-19,203.25,211.4600067138672,202.6999969482422,209.91000366210938,208.9654083251953,4937300
2021-02-22,209.6300048828125,218.8699951171875,209.33999633789062,218.05999755859375,217.0787353515625,4578300
2021-02-23,219.52999877929688,220.74000549316406,213.27999877929688,220.17999267578125,219.18919372558594,4125100
2021-02-24,220.41000366210938,226.6699981689453,219.8800048828125,222.47000122070312,221.46888732910156,4925000
2021-02-25,223.6199951171875,224.39999389648438,219.72000122070312,221.82000732421875,220.8218231201172,4313000
2021-02-26,220.75,222.39999389648438,215.82000732421875,215.8800048828125,214.90855407714844,4460400
2021-03-01,219.30999755859375,222.5800018310547,218.89999389648438,219.75999450683594,218.77108764648438,2871200
2021-03-02,218.69000244140625,219.33999633789062,215.00999450683594,215.82000732421875,214.84881591796875,2851700
2021-03-03,212.13999938964844,217.5500030517578,212.00999450683594,214.91000366210938,213.9429168701172,2661900
2021-03-04,214.47999572753906,216.6699981689453,208.47000122070312,212.77000427246094,211.8125457763672,3562400
2021-03-05,214.33999633789062,220.77999877929688,211.5,220.16000366210938,219.16929626464844,3600800
2021-03-08,220.97000122070312,224.3000030517578,218.2100067138672,221.5800018310547,220.58290100097656,3047900
2021-03-09,221.3800048828125,222.3300018310547,216.13999938964844,216.8000030517578,215.82440185546875,2900300
2021-03-10,217.72999572753906,222.0500030517578,217.19000244140625,221.05999755859375,220.0652313232422,2433500
2021-03-11,223.0,223.60000610351562,219.14999389648438,219.75999450683594,218.77108764648438,2952200
2021-03-12,219.0,229.02000427246094,218.1199951171875,229.0,227.96951293945312,4750600
2021-03-15,228.8699951171875,231.8000030517578,225.8300018310547,230.74000549316406,229.70167541503906,4215300
2021-03-16,227.72000122070312,231.2100067138672,224.77000427246094,226.4600067138672,225.44094848632812,3534700
2021-03-17,228.1300048828125,234.3000030517578,227.1300048828125,233.6300048828125,232.57867431640625,3428600
2021-03-18,234.0,237.77999877929688,229.74000549316406,230.67999267578125,229.64193725585938,4334300
2021-03-19,228.75,229.64999389648438,224.0500030517578,225.2899932861328,224.2761993408203,7463100
2021-03-22,226.6199951171875,227.17999267578125,223.57000732421875,226.02000427246094,225.00291442871094,2211600
2021-03-23,222.05999755859375,225.24000549316406,216.64999389648438,218.25,217.26788330078125,4017600
2021-03-24,220.50999450683594,227.11000061035156,220.50999450683594,221.22999572753906,220.23446655273438,4258000
2021-03-25,219.22999572753906,224.97000122070312,216.0399932861328,224.25,223.24087524414062,2901800
2021-03-26,226.35000610351562,229.83999633789062,225.2100067138672,229.5,228.46725463867188,3039200
2021-03-29,228.10000610351562,231.85000610351562,227.7100067138672,230.22000122070312,229.18402099609375,3003200
2021-03-30,231.1999969482422,234.72000122070312,231.13999938964844,233.0800018310547,232.03114318847656,3139100
2021-03-31,234.35000610351562,237.00999450683594,228.85000610351562,231.8699951171875,230.8265838623047,4512300
2021-04-01,231.3000030517578,235.0,227.58999633789062,232.74000549316406,231.69268798828125,3782600
2021-04-05,235.0,235.66000366210938,232.3699951171875,233.7100067138672,232.6583251953125,2323400
2021-04-06,232.5,236.67999267578125,230.22999572753906,230.63999938964844,229.6021270751953,2614500
2021-04-07,231.9600067138672,234.19000244140625,229.35000610351562,230.41000366210938,229.3731689453125,2449600
2021-04-08,230.1300048828125,231.0500030517578,227.1699981689453,230.47999572753906,229.44284057617188,2158900
2021-04-09,231.3000030517578,232.1999969482422,227.5399932861328,230.75,229.7116241455078,2482100
2021-04-12,230.3000030517578,231.3000030517578,228.92999267578125,230.92999267578125,229.89080810546875,1688200
2021-04-13,233.41000366210938,233.5,228.0500030517578,229.35000610351562,228.31793212890625,2286400
2021-04-14,229.60000610351562,234.22000122070312,229.5500030517578,232.5800018310547,231.5334014892578,2491000
2021-04-15,233.14999389648438,233.44000244140625,230.74000549316406,232.52000427246094,231.47366333007812,1860200
2021-04-16,234.6199951171875,235.94000244140625,232.27000427246094,233.36000061035156,232.3098907470703,2126400
2021-04-19,232.89999389648438,233.10000610351562,229.91000366210938,232.38999938964844,231.34425354003906,1712600
2021-04-20,230.89999389648438,231.3000030517578,225.60000610351562,227.6300048828125,226.60568237304688,2815800
2021-04-21,227.32000732421875,232.61000061035156,226.02000427246094,232.4600067138672,231.4139404296875,1977700
2021-04-22,233.25,233.42999267578125,228.77000427246094,228.88999938964844,227.86000061035156,2410700
2021-04-23,229.36000061035156,231.64999389648438,227.8800048828125,230.11000061035156,230.11000061035156,3458300
2021-04-26,230.57000732421875,232.85000610351562,229.9600067138672,230.55999755859375,230.55999755859375,1864800
2021-04-27,230.2899932861328,230.86000061035156,228.0800018310547,230.33999633789062,230.33999633789062,1959300
2021-04-28,230.0500030517578,233.72000122070312,229.3800048828125,232.3000030517578,232.3000030517578,2965300
2021-04-29,235.0,235.1999969482422,223.1999969482422,227.47000122070312,227.47000122070312,5438400
