Date,Open,High,Low,Close,Adj Close,Volume
2020-10-30,323.9700012207031,327.3599853515625,314.2900085449219,319.04998779296875,319.0251159667969,353000
2020-11-02,323.8299865722656,329.07000732421875,319.510009765625,320.5199890136719,320.4949951171875,263000
2020-11-03,325.3999938964844,332.05999755859375,323.8299865722656,323.9599914550781,323.9347229003906,158400
2020-11-04,328.7099914550781,336.0400085449219,325.2900085449219,331.4200134277344,331.3941650390625,204600
2020-11-05,335.0400085449219,337.6600036621094,331.67999267578125,332.0,331.97412109375,180200
2020-11-06,333.4700012207031,336.8800048828125,333.3900146484375,333.9100036621094,333.88397216796875,113800
2020-11-09,344.7099914550781,371.5899963378906,344.7099914550781,351.739990234375,351.7125549316406,410100
2020-11-10,351.17999267578125,352.55999755859375,341.42999267578125,346.3900146484375,346.3630065917969,261500
2020-11-11,348.3599853515625,349.4700012207031,340.6400146484375,343.29998779296875,343.2732238769531,246700
2020-11-12,342.2799987792969,343.29998779296875,332.6199951171875,336.989990234375,336.9637145996094,252300
2020-11-13,338.6400146484375,342.4200134277344,338.6400146484375,341.3500061035156,341.3233947753906,206500
2020-11-16,345.6300048828125,347.489990234375,338.67999267578125,340.70001220703125,340.6734619140625,186400
2020-11-17,338.25,338.25,331.7200012207031,332.45001220703125,332.4241027832031,226900
2020-11-18,332.7099914550781,334.3900146484375,327.8299865722656,329.5899963378906,329.5643005371094,344900
2020-11-19,329.0299987792969,333.0400085449219,328.8299865722656,332.2300109863281,332.2041015625,425400
2020-11-20,332.92999267578125,339.4200134277344,331.1700134277344,331.3699951171875,331.3441467285156,450800
2020-11-23,334.05999755859375,337.7799987792969,327.6700134277344,329.8900146484375,329.8642883300781,274900
2020-11-24,331.32000732421875,333.6700134277344,324.7099914550781,325.4599914550781,325.43463134765625,305500
2020-11-25,325.6300048828125,333.0899963378906,324.3399963378906,329.010009765625,328.9843444824219,252900
2020-11-27,331.4700012207031,340.7200012207031,330.260009765625,340.7099914550781,340.6834411621094,182500
2020-11-30,339.6199951171875,339.7200012207031,329.30999755859375,335.2200012207031,335.1938781738281,566400
2020-12-01,338.3699951171875,339.32000732421875,333.7900085449219,334.0400085449219,334.01397705078125,223700
2020-12-02,332.739990234375,335.7900085449219,331.1199951171875,334.6099853515625,334.5838928222656,206600
2020-12-03,336.3800048828125,344.3999938964844,332.2300109863281,337.9800109863281,337.95367431640625,308200
2020-12-04,335.0,346.67999267578125,327.44000244140625,345.7099914550781,345.68304443359375,454700
2020-12-07,345.7099914550781,348.0,340.9700012207031,342.05999755859375,342.0333251953125,215000
2020-12-08,341.82000732421875,346.1099853515625,340.760009765625,345.739990234375,345.7130432128906,228300
2020-12-09,344.8599853515625,348.1099853515625,341.6000061035156,342.5799865722656,342.55328369140625,256800
2020-12-10,342.30999755859375,348.6099853515625,341.5,347.79998779296875,347.7728576660156,289200
2020-12-11,347.2099914550781,347.2099914550781,338.5199890136719,339.1600036621094,339.1335754394531,214300
2020-12-14,342.2799987792969,349.19000244140625,341.05999755859375,342.8500061035156,342.8232727050781,245600
2020-12-15,343.4800109863281,346.30999755859375,341.75,342.45001220703125,342.4233093261719,223700
2020-12-16,341.4100036621094,344.8699951171875,339.4599914550781,343.94000244140625,343.9131774902344,177500
2020-12-17,344.760009765625,352.5299987792969,343.44000244140625,351.5199890136719,351.4925842285156,305600
2020-12-18,352.8399963378906,354.0899963378906,346.6099853515625,349.6300048828125,349.6027526855469,496100
2020-12-21,345.6000061035156,349.239990234375,337.3999938964844,348.55999755859375,348.5328369140625,185500
2020-12-22,350.20001220703125,356.3399963378906,346.760009765625,352.69000244140625,352.6625061035156,248400
2020-12-23,354.95001220703125,357.7200012207031,353.4599914550781,356.0,355.9722595214844,159300
2020-12-24,358.6099853515625,360.42999267578125,356.2099914550781,358.3699951171875,358.342041015625,77100
2020-12-28,360.79998779296875,363.3999938964844,358.3399963378906,359.9599914550781,359.9319152832031,122000
2020-12-29,361.260009765625,361.45001220703125,355.6000061035156,357.2699890136719,357.24212646484375,105100
2020-12-30,357.2099914550781,360.6400146484375,355.4100036621094,356.45001220703125,356.4222106933594,113100
2020-12-31,357.2699890136719,363.5,354.4700012207031,363.32000732421875,363.29168701171875,158500
2021-01-04,365.0,367.0299987792969,353.0199890136719,357.260009765625,357.2321472167969,283100
2021-01-05,357.7300109863281,363.6499938964844,356.57000732421875,361.4700012207031,361.44183349609375,170400
2021-01-06,361.54998779296875,367.3900146484375,361.20001220703125,366.30999755859375,366.28143310546875,207900
2021-01-07,366.8299865722656,371.2900085449219,362.92999267578125,365.05999755859375,365.0315246582031,218100
2021-01-08,364.8800048828125,369.2099914550781,359.4100036621094,363.2300109863281,363.2016906738281,349400
2021-01-11,361.7300109863281,362.67999267578125,358.5299987792969,359.6499938964844,359.6219482421875,321700
2021-01-12,358.3599853515625,360.70001220703125,354.07000732421875,358.010009765625,357.9820861816406,367200
2021-01-13,360.7300109863281,382.5400085449219,360.010009765625,381.760009765625,381.7302551269531,485600
2021-01-14,381.5299987792969,381.70001220703125,374.1499938964844,375.1499938964844,375.1207580566406,222000
2021-01-15,375.4800109863281,378.6099853515625,371.3299865722656,376.8900146484375,376.8606262207031,248800
2021-01-19,381.45001220703125,389.2699890136719,378.55999755859375,387.4200134277344,387.3898010253906,477200
2021-01-20,387.0,389.44000244140625,381.05999755859375,384.760009765625,384.7300109863281,255100
2021-01-21,383.07000732421875,383.3999938964844,372.4700012207031,376.8900146484375,376.8900146484375,225900
2021-01-22,377.4100036621094,387.0799865722656,377.4100036621094,380.0,380.0,282500
2021-01-25,380.67999267578125,383.9599914550781,377.5299987792969,383.6499938964844,383.6499938964844,192700
2021-01-26,385.0,385.6600036621094,376.9800109863281,377.4200134277344,377.4200134277344,239600
2021-01-27,368.5,372.32000732421875,359.8399963378906,360.7099914550781,360.7099914550781,395500
2021-01-28,362.239990234375,369.2099914550781,360.4200134277344,364.70001220703125,364.70001220703125,236100
2021-01-29,363.0899963378906,368.0899963378906,361.3299865722656,364.0400085449219,364.0400085449219,258000
2021-02-01,367.45001220703125,368.1400146484375,360.8800048828125,365.1099853515625,365.1099853515625,210700
2021-02-02,366.1700134277344,379.7300109863281,366.1700134277344,375.1199951171875,375.1199951171875,355100
2021-02-03,376.2300109863281,377.760009765625,373.2200012207031,375.44000244140625,375.44000244140625,160800
2021-02-04,378.42999267578125,386.19000244140625,376.67999267578125,384.1099853515625,384.1099853515625,304600
2021-02-05,386.8999938964844,391.9599914550781,384.5799865722656,386.9700012207031,386.9700012207031,293500
2021-02-08,386.1600036621094,388.57000732421875,383.54998779296875,384.9200134277344,384.9200134277344,140400
2021-02-09,383.8900146484375,385.29998779296875,379.0799865722656,380.7300109863281,380.7300109863281,226000
2021-02-10,382.2300109863281,385.489990234375,377.9599914550781,378.989990234375,378.989990234375,198200
2021-02-11,381.95001220703125,385.4800109863281,381.1199951171875,385.0,385.0,192500
2021-02-12,382.1099853515625,386.5,380.6499938964844,385.3999938964844,385.3999938964844,142100
2021-02-16,388.3299865722656,391.8599853515625,385.4100036621094,386.4599914550781,386.4599914550781,258500
2021-02-17,384.5299987792969,387.3299865722656,380.25,384.6499938964844,384.6499938964844,153700
2021-02-18,383.82000732421875,389.6099853515625,381.1099853515625,388.75,388.75,259600
2021-02-19,389.8599853515625,393.42999267578125,383.0400085449219,388.510009765625,388.510009765625,337000
2021-02-22,387.6499938964844,391.6600036621094,385.6199951171875,390.6700134277344,390.6700134277344,216500
2021-02-23,391.6700134277344,394.4100036621094,388.75,391.44000244140625,391.44000244140625,307100
2021-02-24,391.5899963378906,396.8599853515625,391.30999755859375,392.57000732421875,392.57000732421875,230500
2021-02-25,392.9100036621094,394.8599853515625,387.7099914550781,392.1300048828125,392.1300048828125,319300
2021-02-26,393.8900146484375,393.8900146484375,385.7099914550781,386.1300048828125,386.1300048828125,297200
2021-03-01,387.760009765625,396.04998779296875,386.5,390.8500061035156,390.8500061035156,311500
2021-03-02,389.7900085449219,389.7900085449219,384.5299987792969,387.9200134277344,387.9200134277344,188900
2021-03-03,386.1300048828125,387.5199890136719,380.2200012207031,381.1099853515625,381.1099853515625,255800
2021-03-04,384.80999755859375,384.80999755859375,368.04998779296875,371.55999755859375,371.55999755859375,461600
2021-03-05,393.8599853515625,401.9200134277344,376.54998779296875,388.1700134277344,388.1700134277344,699600
2021-03-08,386.0,394.489990234375,383.79998779296875,385.4800109863281,385.4800109863281,569100
2021-03-09,386.0,391.69000244140625,382.1199951171875,382.3800048828125,382.3800048828125,314900
2021-03-10,383.7099914550781,386.75,381.44000244140625,382.95001220703125,382.95001220703125,236000
2021-03-11,383.5,390.989990234375,378.79998779296875,379.6199951171875,379.6199951171875,232500
2021-03-12,379.54998779296875,381.1600036621094,374.0899963378906,376.3900146484375,376.3900146484375,261300
2021-03-15,376.29998779296875,387.5400085449219,376.29998779296875,387.0299987792969,387.0299987792969,309300
2021-03-16,386.55999755859375,393.3299865722656,380.8900146484375,382.19000244140625,382.19000244140625,241500
2021-03-17,379.1400146484375,381.5400085449219,374.489990234375,375.7200012207031,375.7200012207031,305800
2021-03-18,375.5899963378906,385.44000244140625,375.5899963378906,378.7799987792969,378.7799987792969,368100
2021-03-19,377.67999267578125,386.2900085449219,377.67999267578125,384.0199890136719,384.0199890136719,474500
2021-03-22,384.0199890136719,388.2300109863281,380.1099853515625,386.3699951171875,386.3699951171875,355200
2021-03-23,387.260009765625,389.8399963378906,382.1300048828125,383.3399963378906,383.3399963378906,303400
2021-03-24,383.3399963378906,385.42999267578125,378.07000732421875,380.30999755859375,380.30999755859375,295200
2021-03-25,378.6300048828125,383.04998779296875,375.67999267578125,382.4200134277344,382.4200134277344,207700
2021-03-26,382.9800109863281,383.8900146484375,379.4800109863281,383.8500061035156,383.8500061035156,247000
2021-03-29,381.2799987792969,386.45001220703125,379.5,384.6199951171875,384.6199951171875,233100
2021-03-30,382.489990234375,386.04998779296875,382.2300109863281,384.8900146484375,384.8900146484375,182100
2021-03-31,386.0899963378906,390.1400146484375,381.0199890136719,384.0899963378906,384.0899963378906,274300
2021-04-01,383.5799865722656,387.4100036621094,381.0,385.489990234375,385.489990234375,251800
2021-04-05,388.7300109863281,389.32000732421875,386.19000244140625,387.739990234375,387.739990234375,241400
2021-04-06,388.9200134277344,390.8500061035156,387.2099914550781,389.2900085449219,389.2900085449219,368400
2021-04-07,386.44000244140625,388.9599914550781,381.07000732421875,382.69000244140625,382.69000244140625,354700
2021-04-08,384.0899963378906,387.8999938964844,380.4599914550781,381.0199890136719,381.0199890136719,324900
2021-04-09,382.8800048828125,386.04998779296875,380.1099853515625,386.04998779296875,386.04998779296875,277300
2021-04-12,386.05999755859375,388.7900085449219,385.6700134277344,388.0199890136719,388.0199890136719,228000
2021-04-13,387.1099853515625,392.0,385.6400146484375,390.8900146484375,390.8900146484375,177200
2021-04-14,390.54998779296875,393.8900146484375,387.75,391.04998779296875,391.04998779296875,188700
2021-04-15,391.8999938964844,400.6499938964844,391.3900146484375,400.0,400.0,345800
2021-04-16,400.7300109863281,403.19000244140625,396.75,399.5199890136719,399.5199890136719,320900
2021-04-19,398.5,401.4800109863281,397.20001220703125,399.3299865722656,399.3299865722656,287400
2021-04-20,399.0400085449219,403.45001220703125,396.92999267578125,400.4800109863281,400.4800109863281,316800
2021-04-21,402.19000244140625,405.45001220703125,399.2300109863281,404.0199890136719,404.0199890136719,320400
2021-04-22,405.5899963378906,410.760009765625,403.6199951171875,405.2799987792969,405.2799987792969,328300
2021-04-23,407.69000244140625,414.3699951171875,406.1000061035156,411.30999755859375,411.30999755859375,220700
2021-04-26,411.19000244140625,414.0899963378906,408.260009765625,409.6499938964844,409.6499938964844,207500
2021-04-27,408.0,412.44000244140625,404.760009765625,407.4200134277344,407.4200134277344,182400
2021-04-28,407.989990234375,410.7300109863281,403.510009765625,407.05999755859375,407.05999755859375,205900
2021-04-29,409.19000244140625,410.1300048828125,405.010009765625,407.5899963378906,407.5899963378906,147200
