Date,Open,High,Low,Close,Adj Close,Volume
2020-10-30,229.0,230.86000061035156,225.39999389648438,229.5399932861328,229.1332244873047,2598300
2020-11-02,232.3800048828125,235.22999572753906,229.83999633789062,232.44000244140625,232.02809143066406,2510300
2020-11-03,235.1199951171875,236.67999267578125,232.83999633789062,234.75999450683594,234.34397888183594,1659300
2020-11-04,239.4600067138672,245.49000549316406,238.60000610351562,240.52000427246094,240.09378051757812,3032700
2020-11-05,247.0399932861328,247.0399932861328,239.74000549316406,240.33999633789062,239.91409301757812,3389300
2020-11-06,242.47999572753906,247.75,239.77000427246094,245.4600067138672,245.0250244140625,2343300
2020-11-09,245.6999969482422,248.32000732421875,233.4600067138672,233.77999877929688,233.36570739746094,3883800
2020-11-10,233.1699981689453,234.25,224.80999755859375,225.8800048828125,225.47972106933594,6233200
2020-11-11,227.97000122070312,234.88999938964844,226.13999938964844,233.13999938964844,232.72683715820312,3898000
2020-11-12,233.00999450683594,235.49000549316406,231.5500030517578,232.99000549316406,232.57713317871094,2316000
2020-11-13,235.0,236.27999877929688,233.89999389648438,234.67999267578125,234.2641143798828,2486000
2020-11-16,236.33999633789062,236.33999633789062,228.82000732421875,229.64999389648438,229.24302673339844,2150800
2020-11-17,228.6300048828125,232.07000732421875,227.77000427246094,229.35000610351562,228.94357299804688,2400100
2020-11-18,229.72999572753906,230.3699951171875,223.1199951171875,224.6999969482422,224.3018035888672,2873800
2020-11-19,224.1300048828125,227.2100067138672,221.22000122070312,225.8300018310547,225.4298095703125,2770500
2020-11-20,225.6699981689453,227.5399932861328,224.1199951171875,225.75999450683594,225.35992431640625,2353100
2020-11-23,227.0,227.80999755859375,218.77000427246094,221.0800018310547,220.688232421875,2794900
2020-11-24,222.35000610351562,222.39999389648438,216.7100067138672,218.25999450683594,217.87322998046875,3940900
2020-11-25,214.63999938964844,217.3800048828125,212.4199981689453,217.22000122070312,216.83506774902344,3205900
2020-11-27,218.1999969482422,218.5500030517578,215.00999450683594,216.77999877929688,216.39584350585938,1407200
2020-11-30,219.50999450683594,224.80999755859375,219.00999450683594,224.6300048828125,224.23193359375,3319500
2020-12-01,226.00999450683594,228.0,223.0,225.0,224.6012725830078,3879600
2020-12-02,225.10000610351562,226.02000427246094,223.24000549316406,224.8000030517578,224.40162658691406,2126500
2020-12-03,224.6199951171875,226.2100067138672,222.4499969482422,223.33999633789062,222.9442138671875,3198000
2020-12-04,222.25999450683594,224.69000244140625,219.82000732421875,224.42999267578125,224.03228759765625,2521100
2020-12-07,225.41000366210938,228.0,225.02999877929688,226.14999389648438,225.74923706054688,1845500
2020-12-08,225.3000030517578,226.88999938964844,223.25,223.5,223.10394287109375,2032300
2020-12-09,223.52000427246094,224.30999755859375,221.02000427246094,222.83999633789062,222.44509887695312,2500200
2020-12-10,223.00999450683594,226.3000030517578,221.94000244140625,223.2100067138672,222.814453125,3264500
2020-12-11,223.67999267578125,226.0500030517578,221.42999267578125,223.75,223.35348510742188,1468400
2020-12-14,223.72000122070312,225.61000061035156,220.91000366210938,221.10000610351562,220.70819091796875,1925000
2020-12-15,221.8699951171875,224.72000122070312,220.8300018310547,223.1699981689453,222.77452087402344,2093000
2020-12-16,222.83999633789062,223.58999633789062,220.5500030517578,221.89999389648438,221.5067596435547,1781900
2020-12-17,222.8300018310547,225.10000610351562,222.44000244140625,224.49000549316406,224.09219360351562,1613300
2020-12-18,224.63999938964844,227.41000366210938,222.10000610351562,226.11000061035156,225.7093048095703,4221400
2020-12-21,223.47000122070312,226.5800018310547,220.30999755859375,226.16000366210938,225.75921630859375,2482700
2020-12-22,225.30999755859375,226.07000732421875,222.63999938964844,222.92999267578125,222.53494262695312,1824100
2020-12-23,223.4600067138672,224.9199981689453,220.47000122070312,220.57000732421875,220.17913818359375,1753300
2020-12-24,220.75,223.57000732421875,220.57000732421875,221.49000549316406,221.278076171875,611000
2020-12-28,223.27999877929688,225.35000610351562,221.4600067138672,222.75,222.536865234375,2115100
2020-12-29,225.38999938964844,225.64999389648438,222.66000366210938,222.86000061035156,222.64675903320312,1733600
2020-12-30,223.8000030517578,224.85000610351562,220.2899932861328,220.67999267578125,220.46884155273438,1427200
2020-12-31,220.8300018310547,222.35000610351562,219.6699981689453,222.13999938964844,221.9274444580078,1835500
2021-01-04,224.99000549316406,225.66000366210938,219.67999267578125,223.22999572753906,223.0164031982422,3192500
2021-01-05,222.72999572753906,229.3699951171875,222.72999572753906,228.77000427246094,228.55111694335938,3711900
2021-01-06,223.8800048828125,237.63999938964844,222.4600067138672,236.35000610351562,236.1238555908203,3965400
2021-01-07,238.4499969482422,243.0500030517578,237.88999938964844,239.7100067138672,239.4806365966797,3695200
2021-01-08,241.0399932861328,244.9600067138672,240.5,243.49000549316406,243.25701904296875,2297400
2021-01-11,243.00999450683594,244.22000122070312,241.83999633789062,244.1199951171875,243.88641357421875,1541200
2021-01-12,244.57000732421875,245.25,239.25999450683594,240.69000244140625,240.45970153808594,2216000
2021-01-13,239.97000122070312,241.30999755859375,235.7100067138672,239.83999633789062,239.61050415039062,3257700
2021-01-14,240.32000732421875,241.3699951171875,236.3300018310547,236.6999969482422,236.4735107421875,2068700
2021-01-15,236.6999969482422,238.97999572753906,234.94000244140625,236.75,236.52346801757812,2599500
2021-01-19,239.16000366210938,239.64999389648438,235.4499969482422,236.11000061035156,235.8840789794922,2255900
2021-01-20,235.8699951171875,237.5399932861328,234.61000061035156,237.0500030517578,236.82318115234375,2051200
2021-01-21,236.75,238.52999877929688,232.7100067138672,233.10000610351562,232.87696838378906,2379800
2021-01-22,234.35000610351562,239.4499969482422,233.85000610351562,238.0399932861328,237.81222534179688,2710500
2021-01-25,237.91000366210938,239.3000030517578,233.57000732421875,238.14999389648438,237.922119140625,2168400
2021-01-26,238.86000061035156,238.86000061035156,233.97999572753906,233.97999572753906,233.75611877441406,1643200
2021-01-27,230.39999389648438,230.39999389648438,217.8300018310547,222.1999969482422,221.9873809814453,4670800
2021-01-28,225.60000610351562,232.0,225.24000549316406,228.57000732421875,228.35130310058594,2621500
2021-01-29,227.94000244140625,239.10000610351562,225.9499969482422,237.83999633789062,237.6124267578125,5747700
2021-02-01,239.5,244.44000244140625,239.05999755859375,241.75,241.51869201660156,3584200
2021-02-02,244.75,246.1199951171875,242.83999633789062,245.08999633789062,244.85548400878906,3655800
2021-02-03,244.02000427246094,244.5,238.1199951171875,238.22999572753906,238.00204467773438,2836100
2021-02-04,237.6199951171875,239.8800048828125,234.61000061035156,235.52999877929688,235.3046417236328,2464200
2021-02-05,236.25,238.35000610351562,234.55999755859375,235.58999633789062,235.3645782470703,1470900
2021-02-08,236.16000366210938,238.75999450683594,234.0800018310547,235.64999389648438,235.4245147705078,1549300
2021-02-09,236.50999450683594,238.42999267578125,234.75,237.0,236.77322387695312,1871900
2021-02-10,238.85000610351562,238.85000610351562,236.22000122070312,237.49000549316406,237.2627716064453,1406300
2021-02-11,239.27000427246094,240.9499969482422,237.41000366210938,240.66000366210938,240.4297332763672,1849300
2021-02-12,240.24000549316406,247.0800018310547,240.19000244140625,245.89999389648438,245.66470336914062,2103500
2021-02-16,247.82000732421875,248.86000061035156,241.60000610351562,242.27000427246094,242.03819274902344,1637200
2021-02-17,241.05999755859375,242.57000732421875,239.3000030517578,239.91000366210938,239.68045043945312,1951800
2021-02-18,238.07000732421875,238.60000610351562,235.5,237.39999389648438,237.17283630371094,1563800
2021-02-19,237.32000732421875,238.5399932861328,231.1199951171875,231.24000549316406,231.0187530517578,3080600
2021-02-22,231.6999969482422,231.6999969482422,225.0,225.5,225.28424072265625,3433400
2021-02-23,225.35000610351562,226.63999938964844,222.86000061035156,223.85000610351562,223.6358184814453,2184400
2021-02-24,224.5,226.24000549316406,222.5,223.0,222.78662109375,2880600
2021-02-25,222.0,224.1300048828125,218.07000732421875,219.25999450683594,219.05020141601562,2923400
2021-02-26,222.1300048828125,222.8000030517578,219.55999755859375,219.6699981689453,219.45980834960938,3129400
2021-03-01,220.9199981689453,226.72999572753906,220.9199981689453,225.6699981689453,225.45407104492188,1987800
2021-03-02,225.0800018310547,226.74000549316406,222.1300048828125,224.08999633789062,223.87557983398438,2066000
2021-03-03,225.0,225.9600067138672,219.4600067138672,219.67999267578125,219.4698028564453,2415500
2021-03-04,218.75999450683594,220.07000732421875,212.66000366210938,214.41000366210938,214.20484924316406,3559400
2021-03-05,216.0,219.32000732421875,212.5500030517578,218.35000610351562,218.14108276367188,2432300
2021-03-08,218.00999450683594,219.38999938964844,212.08999633789062,212.3800048828125,212.17678833007812,2872400
2021-03-09,216.17999267578125,219.0,215.6999969482422,216.33999633789062,216.13299560546875,4729100
2021-03-10,216.8699951171875,219.27000427246094,211.22000122070312,212.92999267578125,212.72625732421875,3285600
2021-03-11,215.83999633789062,220.0,214.57000732421875,219.22000122070312,219.01023864746094,2423300
2021-03-12,217.6300048828125,218.60000610351562,213.83999633789062,214.67999267578125,214.47457885742188,2288300
2021-03-15,215.1999969482422,218.42999267578125,214.60000610351562,217.0,216.79237365722656,1782700
2021-03-16,217.22999572753906,218.0399932861328,214.66000366210938,215.89999389648438,215.69342041015625,3921900
2021-03-17,214.42999267578125,215.77999877929688,212.8000030517578,214.13999938964844,213.9351043701172,2955300
2021-03-18,214.19000244140625,218.36000061035156,212.7100067138672,215.9499969482422,215.7433624267578,3482100
2021-03-19,216.8000030517578,221.50999450683594,216.0500030517578,221.05999755859375,220.84848022460938,4697000
2021-03-22,220.41000366210938,223.91000366210938,218.72999572753906,223.5500030517578,223.3361053466797,2713400
2021-03-23,222.9199981689453,224.5399932861328,219.25999450683594,220.32000732421875,220.10919189453125,2436700
2021-03-24,219.11000061035156,220.61000061035156,217.88999938964844,219.47000122070312,219.260009765625,1792100
2021-03-25,220.4499969482422,220.4499969482422,215.3800048828125,218.69000244140625,218.69000244140625,2355700
2021-03-26,219.88999938964844,226.5,217.99000549316406,226.27000427246094,226.27000427246094,2639400
2021-03-29,224.8300018310547,228.39999389648438,222.3000030517578,226.8800048828125,226.8800048828125,2350100
2021-03-30,225.66000366210938,225.94000244140625,222.22000122070312,223.0,223.0,2458700
2021-03-31,224.5,227.36000061035156,223.7899932861328,225.0800018310547,225.0800018310547,2669300
2021-04-01,225.52000427246094,227.13999938964844,224.13999938964844,225.0800018310547,225.0800018310547,1744400
2021-04-05,227.6300048828125,228.14999389648438,225.58999633789062,226.52999877929688,226.52999877929688,2553500
2021-04-06,229.33999633789062,230.91000366210938,226.1300048828125,227.0500030517578,227.0500030517578,2658900
2021-04-07,226.1199951171875,227.91000366210938,224.77000427246094,226.07000732421875,226.07000732421875,1614300
2021-04-08,227.92999267578125,231.25,227.72000122070312,229.94000244140625,229.94000244140625,2019500
2021-04-09,230.13999938964844,232.3699951171875,229.02999877929688,232.36000061035156,232.36000061035156,1502000
2021-04-12,231.55999755859375,235.22999572753906,231.08999633789062,234.83999633789062,234.83999633789062,2576900
2021-04-13,238.4199981689453,247.89999389648438,237.1999969482422,242.83999633789062,242.83999633789062,6157000
2021-04-14,241.6699981689453,242.0,236.89999389648438,237.3000030517578,237.3000030517578,2611000
2021-04-15,238.1199951171875,243.36000061035156,237.00999450683594,242.58999633789062,242.58999633789062,2300000
2021-04-16,243.3800048828125,243.8800048828125,241.52000427246094,243.05999755859375,243.05999755859375,1840200
2021-04-19,241.83999633789062,242.72000122070312,239.9499969482422,241.99000549316406,241.99000549316406,2020000
2021-04-20,240.1699981689453,243.1699981689453,240.1699981689453,241.85000610351562,241.85000610351562,1323200
2021-04-21,242.5500030517578,245.32000732421875,240.9600067138672,244.39999389648438,244.39999389648438,1845000
2021-04-22,248.0500030517578,256.1000061035156,248.0500030517578,252.9199981689453,252.9199981689453,3993600
2021-04-23,252.97000122070312,259.9800109863281,252.72000122070312,259.7799987792969,259.7799987792969,3563100
2021-04-26,259.54998779296875,260.3699951171875,257.7300109863281,258.1000061035156,258.1000061035156,2077400
2021-04-27,257.79998779296875,259.3800048828125,255.3000030517578,258.0199890136719,258.0199890136719,1910000
2021-04-28,255.8000030517578,258.94000244140625,255.30999755859375,258.3900146484375,258.3900146484375,1430700
2021-04-29,259.760009765625,259.8399963378906,255.61000061035156,256.5799865722656,256.5799865722656,1711200
