Date,Open,High,Low,Close,Adj Close,Volume
2020-10-30,17.799999237060547,18.329999923706055,17.799999237060547,18.31999969482422,18.31999969482422,2155800
2020-11-02,18.479999542236328,19.290000915527344,18.110000610351562,19.1299991607666,19.1299991607666,2567200
2020-11-03,19.40999984741211,19.809999465942383,19.09000015258789,19.200000762939453,19.200000762939453,2193500
2020-11-04,19.040000915527344,19.040000915527344,18.440000534057617,18.68000030517578,18.68000030517578,2154400
2020-11-05,18.899999618530273,19.68000030517578,18.84000015258789,19.360000610351562,19.360000610351562,2367800
2020-11-06,19.559999465942383,19.75,18.489999771118164,18.8799991607666,18.8799991607666,3443500
2020-11-09,19.8799991607666,21.0,19.75,20.110000610351562,20.110000610351562,3068200
2020-11-10,19.959999084472656,20.799999237060547,19.8799991607666,20.729999542236328,20.729999542236328,4109300
2020-11-11,20.68000030517578,20.809999465942383,20.25,20.31999969482422,20.31999969482422,2343300
2020-11-12,20.31999969482422,20.5,19.520000457763672,19.690000534057617,19.690000534057617,1792200
2020-11-13,19.920000076293945,21.270000457763672,19.899999618530273,20.899999618530273,20.899999618530273,3293700
2020-11-16,21.43000030517578,22.09000015258789,21.40999984741211,21.81999969482422,21.81999969482422,2250500
2020-11-17,21.469999313354492,22.280000686645508,21.1200008392334,22.0,22.0,2830000
2020-11-18,22.040000915527344,22.579999923706055,21.850000381469727,22.030000686645508,22.030000686645508,3406600
2020-11-19,21.829999923706055,22.690000534057617,21.780000686645508,22.530000686645508,22.530000686645508,2474900
2020-11-20,22.43000030517578,23.0,22.309999465942383,22.889999389648438,22.889999389648438,2732400
2020-11-23,23.18000030517578,23.899999618530273,23.030000686645508,23.790000915527344,23.790000915527344,3187000
2020-11-24,24.149999618530273,24.579999923706055,24.020000457763672,24.469999313354492,24.469999313354492,1934600
2020-11-25,24.209999084472656,24.520000457763672,23.969999313354492,24.40999984741211,24.40999984741211,3137900
2020-11-27,24.200000762939453,24.770000457763672,24.200000762939453,24.549999237060547,24.549999237060547,1582000
2020-11-30,24.3700008392334,24.520000457763672,23.920000076293945,24.020000457763672,24.020000457763672,3442800
2020-12-01,24.469999313354492,25.190000534057617,24.270000457763672,24.65999984741211,24.65999984741211,3254900
2020-12-02,26.049999237060547,26.06999969482422,24.329999923706055,25.239999771118164,25.239999771118164,3038800
2020-12-03,25.6299991607666,25.979999542236328,24.979999542236328,25.1200008392334,25.1200008392334,2984600
2020-12-04,25.209999084472656,25.59000015258789,25.059999465942383,25.219999313354492,25.219999313354492,3837300
2020-12-07,25.09000015258789,25.43000030517578,24.860000610351562,25.420000076293945,25.420000076293945,2679600
2020-12-08,25.1299991607666,25.559999465942383,24.670000076293945,24.829999923706055,24.829999923706055,2417900
2020-12-09,24.989999771118164,25.329999923706055,24.739999771118164,25.18000030517578,25.18000030517578,1987400
2020-12-10,25.059999465942383,25.6299991607666,24.75,25.479999542236328,25.479999542236328,2250200
2020-12-11,25.209999084472656,25.540000915527344,25.1200008392334,25.479999542236328,25.479999542236328,1691700
2020-12-14,25.8799991607666,25.889999389648438,25.110000610351562,25.209999084472656,25.209999084472656,1798000
2020-12-15,25.399999618530273,25.399999618530273,24.6299991607666,25.360000610351562,25.360000610351562,1305900
2020-12-16,25.440000534057617,25.579999923706055,25.030000686645508,25.31999969482422,25.31999969482422,2585900
2020-12-17,25.43000030517578,25.43000030517578,24.799999237060547,25.309999465942383,25.309999465942383,3010000
2020-12-18,24.889999389648438,25.170000076293945,24.270000457763672,24.520000457763672,24.520000457763672,7229000
2020-12-21,24.040000915527344,24.3700008392334,23.75,24.020000457763672,24.020000457763672,2764100
2020-12-22,24.200000762939453,24.309999465942383,23.670000076293945,23.860000610351562,23.860000610351562,1545100
2020-12-23,23.969999313354492,24.979999542236328,23.93000030517578,24.850000381469727,24.850000381469727,1719000
2020-12-24,24.899999618530273,25.229999542236328,24.59000015258789,25.139999389648438,25.139999389648438,600700
2020-12-28,25.260000228881836,25.889999389648438,24.969999313354492,25.81999969482422,25.81999969482422,1732500
2020-12-29,25.959999084472656,26.09000015258789,25.59000015258789,25.959999084472656,25.959999084472656,1286100
2020-12-30,26.1200008392334,26.229999542236328,25.81999969482422,25.979999542236328,25.979999542236328,1616100
2020-12-31,26.059999465942383,26.399999618530273,25.6200008392334,26.190000534057617,26.190000534057617,2037800
2021-01-04,26.489999771118164,26.770000457763672,25.81999969482422,26.389999389648438,26.389999389648438,3151000
2021-01-05,26.399999618530273,27.219999313354492,26.280000686645508,27.020000457763672,27.020000457763672,3128900
2021-01-06,27.350000381469727,29.639999389648438,27.350000381469727,29.5,29.5,5369700
2021-01-07,29.450000762939453,30.3700008392334,29.25,29.829999923706055,29.829999923706055,5017800
2021-01-08,29.84000015258789,30.229999542236328,29.040000915527344,30.15999984741211,30.15999984741211,4372800
2021-01-11,29.940000534057617,30.739999771118164,29.5,30.59000015258789,30.59000015258789,4707700
2021-01-12,30.75,30.920000076293945,30.34000015258789,30.56999969482422,30.56999969482422,4833000
2021-01-13,30.06999969482422,31.84000015258789,30.0,31.75,31.75,5668300
2021-01-14,32.029998779296875,33.18000030517578,31.440000534057617,32.5099983215332,32.5099983215332,7559000
2021-01-15,32.189998626708984,32.97999954223633,32.0,32.349998474121094,32.349998474121094,5044600
2021-01-19,31.809999465942383,32.209999084472656,31.440000534057617,31.850000381469727,31.850000381469727,3898600
2021-01-20,31.639999389648438,32.380001068115234,31.639999389648438,32.29999923706055,32.29999923706055,4131200
2021-01-21,32.5099983215332,32.939998626708984,32.150001525878906,32.40999984741211,32.40999984741211,4370800
2021-01-22,32.09000015258789,33.04999923706055,31.760000228881836,32.88999938964844,32.88999938964844,3040800
2021-01-25,32.689998626708984,34.900001525878906,32.34000015258789,34.15999984741211,34.15999984741211,5761600
2021-01-26,34.459999084472656,35.540000915527344,34.13999938964844,35.400001525878906,35.400001525878906,6194400
2021-01-27,35.0,38.0,33.0,33.470001220703125,33.470001220703125,24749800
2021-01-28,33.47999954223633,34.970001220703125,33.439998626708984,34.91999816894531,34.91999816894531,15132200
2021-01-29,35.0,37.16999816894531,34.72999954223633,35.029998779296875,35.029998779296875,16057600
2021-02-01,34.84000015258789,35.27000045776367,33.959999084472656,35.0,35.0,6618500
2021-02-02,35.119998931884766,35.119998931884766,33.7400016784668,34.099998474121094,34.099998474121094,6271000
2021-02-03,34.310001373291016,35.2599983215332,34.099998474121094,34.9900016784668,34.9900016784668,5837800
2021-02-04,35.099998474121094,35.41999816894531,34.56999969482422,34.900001525878906,34.900001525878906,5338600
2021-02-05,35.08000183105469,36.630001068115234,34.84000015258789,36.41999816894531,36.41999816894531,4127200
2021-02-08,36.40999984741211,37.060001373291016,36.29999923706055,37.0,37.0,3973700
2021-02-09,36.97999954223633,37.209999084472656,36.20000076293945,37.20000076293945,37.20000076293945,4789900
2021-02-10,37.459999084472656,38.68000030517578,37.0,38.43000030517578,38.43000030517578,5100000
2021-02-11,38.150001525878906,39.040000915527344,37.939998626708984,39.0,39.0,4216200
2021-02-12,39.119998931884766,40.77000045776367,38.97999954223633,40.75,40.75,3192900
2021-02-16,41.290000915527344,41.290000915527344,40.34000015258789,40.5,40.5,3145500
2021-02-17,40.529998779296875,41.810001373291016,40.09000015258789,41.619998931884766,41.619998931884766,3875300
2021-02-18,41.54999923706055,42.58000183105469,41.5,41.939998626708984,41.939998626708984,4876300
2021-02-19,42.27000045776367,43.0099983215332,42.09000015258789,42.79999923706055,42.79999923706055,4184100
2021-02-22,43.900001525878906,46.59000015258789,43.04999923706055,46.0,46.0,5944100
2021-02-23,45.2400016784668,45.61000061035156,42.34000015258789,44.13999938964844,44.13999938964844,10081800
2021-02-24,41.810001373291016,43.66999816894531,41.54999923706055,43.529998779296875,43.529998779296875,9410500
2021-02-25,44.130001068115234,45.0,43.130001068115234,43.4900016784668,43.4900016784668,4779400
2021-02-26,43.41999816894531,45.560001373291016,43.150001525878906,45.0,45.0,7432500
2021-03-01,45.790000915527344,48.599998474121094,45.279998779296875,48.310001373291016,48.310001373291016,5240100
2021-03-02,48.5,49.380001068115234,47.79999923706055,49.04999923706055,49.04999923706055,4617400
2021-03-03,49.099998474121094,51.099998474121094,48.81999969482422,50.400001525878906,50.400001525878906,4747700
2021-03-04,50.400001525878906,51.83000183105469,49.77000045776367,51.439998626708984,51.439998626708984,7560200
2021-03-05,52.279998779296875,53.72999954223633,51.81999969482422,53.0,53.0,10176100
2021-03-08,53.720001220703125,55.22999954223633,53.08000183105469,55.0,55.0,12656200
2021-03-09,54.63999938964844,54.970001220703125,51.349998474121094,52.970001220703125,52.970001220703125,15386600
2021-03-10,53.56999969482422,56.63999938964844,52.84000015258789,56.0099983215332,56.0099983215332,17277800
2021-03-11,56.029998779296875,58.119998931884766,55.529998779296875,56.86000061035156,56.86000061035156,14319700
2021-03-12,56.83000183105469,60.099998474121094,56.599998474121094,59.70000076293945,59.70000076293945,10710100
2021-03-15,59.970001220703125,61.61000061035156,59.56999969482422,60.88999938964844,60.88999938964844,7158400
2021-03-16,60.4900016784668,62.790000915527344,60.34000015258789,62.36000061035156,62.36000061035156,11065100
2021-03-17,61.220001220703125,63.02000045776367,60.189998626708984,62.77000045776367,62.77000045776367,12747300
2021-03-18,61.5,64.25,60.31999969482422,64.08000183105469,64.08000183105469,17678100
2021-03-19,63.58000183105469,66.5,63.04999923706055,66.0,66.0,10279000
2021-03-22,66.56999969482422,66.69999694824219,64.30000305175781,64.73999786376953,64.73999786376953,11377000
2021-03-23,61.68000030517578,63.099998474121094,59.619998931884766,62.9900016784668,62.9900016784668,15822300
2021-03-24,62.5099983215332,63.4900016784668,54.439998626708984,54.540000915527344,54.540000915527344,8993400
2021-03-25,51.689998626708984,54.65999984741211,49.9900016784668,51.040000915527344,51.040000915527344,8451300
2021-03-26,51.31999969482422,51.36000061035156,30.989999771118164,35.959999084472656,35.959999084472656,43899300
2021-03-29,35.9900016784668,37.33000183105469,33.66999816894531,35.119998931884766,35.119998931884766,41910600
2021-03-30,36.38999938964844,38.529998779296875,35.65999984741211,37.0099983215332,37.0099983215332,28761900
2021-03-31,37.45000076293945,37.650001525878906,35.709999084472656,36.88999938964844,36.88999938964844,15116300
2021-04-01,37.08000183105469,37.38999938964844,36.15999984741211,37.08000183105469,37.08000183105469,6326300
2021-04-05,37.16999816894531,37.2400016784668,35.529998779296875,36.099998474121094,36.099998474121094,7605800
2021-04-06,36.2599983215332,37.7400016784668,36.119998931884766,36.869998931884766,36.869998931884766,5699400
2021-04-07,37.380001068115234,38.15999984741211,36.0099983215332,37.0,37.0,7106000
2021-04-08,36.970001220703125,37.02000045776367,35.5,35.779998779296875,35.779998779296875,5037600
2021-04-09,35.810001373291016,36.43000030517578,35.5099983215332,35.7400016784668,35.7400016784668,6345900
2021-04-12,35.7599983215332,35.97999954223633,34.93000030517578,35.0099983215332,35.0099983215332,9863100
2021-04-13,35.2599983215332,35.54999923706055,34.38999938964844,34.779998779296875,34.779998779296875,5216900
2021-04-14,32.439998626708984,34.02000045776367,32.439998626708984,33.08000183105469,33.08000183105469,31612800
2021-04-15,33.13999938964844,33.630001068115234,32.2400016784668,32.7400016784668,32.7400016784668,9827000
2021-04-16,32.86000061035156,32.900001525878906,31.920000076293945,32.25,32.25,5086700
2021-04-19,32.27000045776367,32.5,30.81999969482422,31.200000762939453,31.200000762939453,13465200
2021-04-20,31.329999923706055,31.329999923706055,30.030000686645508,30.200000762939453,30.200000762939453,11925100
2021-04-21,29.950000762939453,32.459999084472656,29.520000457763672,32.33000183105469,32.33000183105469,24505700
2021-04-22,32.689998626708984,33.119998931884766,31.90999984741211,32.66999816894531,32.66999816894531,7059600
2021-04-23,32.81999969482422,32.959999084472656,32.0,32.45000076293945,32.45000076293945,3393800
2021-04-26,32.79999923706055,33.06999969482422,31.979999542236328,32.9900016784668,32.9900016784668,4363100
2021-04-27,32.810001373291016,33.4900016784668,32.34000015258789,33.16999816894531,33.16999816894531,3989400
2021-04-28,30.639999389648438,32.439998626708984,30.1299991607666,31.959999084472656,31.959999084472656,8975700
2021-04-29,32.58000183105469,33.04999923706055,31.719999313354492,32.33000183105469,32.33000183105469,3777000
