Date,Open,High,Low,Close,Adj Close,Volume
2020-10-30,147.5800018310547,147.5800018310547,140.91000366210938,144.3000030517578,141.82876586914062,1855300
2020-11-02,146.25999450683594,148.2899932861328,145.0,145.9499969482422,143.45050048828125,1175800
2020-11-03,147.47999572753906,147.91000366210938,145.33999633789062,145.88999938964844,143.3915252685547,1404600
2020-11-04,146.5,151.22999572753906,146.16000366210938,148.00999450683594,145.47520446777344,2445200
2020-11-05,150.52999877929688,151.39999389648438,147.41000366210938,147.50999450683594,144.98377990722656,1874500
2020-11-06,148.33999633789062,148.33999633789062,146.42999267578125,146.67999267578125,144.16798400878906,2211100
2020-11-09,149.8699951171875,150.8300018310547,138.0,138.22000122070312,135.85287475585938,3239100
2020-11-10,138.55999755859375,138.9499969482422,134.4199981689453,135.82000732421875,133.49398803710938,2867600
2020-11-11,138.19000244140625,141.69000244140625,137.27000427246094,140.99000549316406,138.57545471191406,2579100
2020-11-12,141.39999389648438,142.61000061035156,140.14999389648438,141.39999389648438,138.97842407226562,1263300
2020-11-13,142.61000061035156,144.99000549316406,141.00999450683594,144.64999389648438,142.17276000976562,1500900
2020-11-16,145.0,145.14999389648438,140.41000366210938,142.0,139.56814575195312,1875600
2020-11-17,141.86000061035156,143.27999877929688,140.38999938964844,142.4199981689453,139.98095703125,1131600
2020-11-18,142.22999572753906,145.11000061035156,141.66000366210938,142.39999389648438,139.96128845214844,1812200
2020-11-19,141.97000122070312,143.4499969482422,140.41000366210938,143.0,140.551025390625,1229600
2020-11-20,143.0,144.32000732421875,142.00999450683594,142.6999969482422,140.2561492919922,1457800
2020-11-23,142.64999389648438,143.97000122070312,139.72999572753906,139.97000122070312,137.57290649414062,1230700
2020-11-24,139.75,140.44000244140625,131.91000366210938,132.60000610351562,130.32913208007812,3999800
2020-11-25,133.9499969482422,135.94000244140625,132.7100067138672,135.75,133.42518615722656,3046600
2020-11-27,136.27999877929688,136.82000732421875,135.2100067138672,136.72999572753906,134.3883819580078,487100
2020-11-30,137.0,137.07000732421875,134.27000427246094,134.75,132.4423065185547,2116500
2020-12-01,135.83999633789062,137.75,134.7899932861328,135.1300048828125,132.8157958984375,2106100
2020-12-02,134.75,135.22000122070312,132.0800018310547,132.16000366210938,129.89666748046875,1680000
2020-12-03,133.64999389648438,135.35000610351562,133.02000427246094,133.64999389648438,131.36114501953125,1672800
2020-12-04,133.77000427246094,135.8000030517578,132.7100067138672,135.47000122070312,133.1499786376953,1805600
2020-12-07,135.22999572753906,137.55999755859375,134.7899932861328,135.22999572753906,132.91407775878906,1556900
2020-12-08,135.3699951171875,136.38999938964844,133.0800018310547,133.3699951171875,131.0859375,1927900
2020-12-09,133.4499969482422,133.61000061035156,129.72000122070312,129.75,127.5279312133789,2580200
2020-12-10,130.0,131.1699981689453,128.67999267578125,129.66000366210938,127.4394760131836,2774900
2020-12-11,129.22000122070312,130.8800048828125,128.0,130.27000427246094,128.03903198242188,1767000
2020-12-14,129.16000366210938,131.05999755859375,128.0,128.08999633789062,126.98815155029297,1847600
2020-12-15,128.27000427246094,129.1999969482422,126.79000091552734,128.8000030517578,127.69204711914062,2529300
2020-12-16,129.24000549316406,130.77999877929688,128.0399932861328,129.5800018310547,128.46533203125,1494600
2020-12-17,130.1999969482422,134.91000366210938,130.1999969482422,133.92999267578125,132.7779083251953,2303000
2020-12-18,134.07000732421875,134.9499969482422,132.19000244140625,134.02000427246094,132.8671417236328,5403600
2020-12-21,131.97999572753906,134.74000549316406,131.27999877929688,134.64999389648438,133.49171447753906,2065700
2020-12-22,134.33999633789062,138.60000610351562,134.19000244140625,138.5399932861328,137.34825134277344,2023300
2020-12-23,139.22999572753906,139.9600067138672,136.7899932861328,136.7899932861328,135.61331176757812,1959300
2020-12-24,136.8800048828125,138.1699981689453,136.52999877929688,137.42999267578125,136.247802734375,460100
2020-12-28,137.72000122070312,138.8800048828125,137.3699951171875,138.61000061035156,137.41766357421875,1140600
2020-12-29,139.0,139.57000732421875,137.72000122070312,138.0,136.81289672851562,1009200
2020-12-30,138.2100067138672,139.77999877929688,137.72000122070312,138.35000610351562,137.15989685058594,1032800
2020-12-31,138.19000244140625,139.72000122070312,137.0,139.50999450683594,138.30990600585938,1019000
2021-01-04,139.99000549316406,139.99000549316406,135.08999633789062,135.2899932861328,134.12620544433594,1858100
2021-01-05,135.42999267578125,136.27999877929688,132.8800048828125,132.9600067138672,131.81626892089844,1614000
2021-01-06,132.1300048828125,132.82000732421875,130.05999755859375,132.11000061035156,130.97357177734375,1823800
2021-01-07,131.89999389648438,134.16000366210938,131.60000610351562,133.61000061035156,132.46066284179688,2187100
2021-01-08,133.50999450683594,134.89999389648438,132.00999450683594,133.60000610351562,132.4507598876953,2341500
2021-01-11,133.17999267578125,133.3699951171875,129.57000732421875,131.27000427246094,130.14080810546875,1917500
2021-01-12,130.99000549316406,131.9199981689453,130.0500030517578,131.50999450683594,130.37872314453125,1748700
2021-01-13,131.75,133.60000610351562,131.75,133.14999389648438,132.00462341308594,1272800
2021-01-14,132.94000244140625,134.2100067138672,131.6300048828125,133.4499969482422,132.3020477294922,1442200
2021-01-15,133.10000610351562,136.64999389648438,132.6999969482422,136.47999572753906,135.30596923828125,1762600
2021-01-19,139.1999969482422,139.25999450683594,137.0800018310547,137.99000549316406,136.80299377441406,1622100
2021-01-20,137.99000549316406,141.4199981689453,137.13999938964844,140.72000122070312,139.50950622558594,1814000
2021-01-21,140.00999450683594,141.5399932861328,139.13999938964844,141.22000122070312,140.0052032470703,1459500
2021-01-22,140.6699981689453,142.0399932861328,140.14999389648438,140.4600067138672,139.2517547607422,1109700
2021-01-25,141.0399932861328,143.75,140.61000061035156,142.6300048828125,141.403076171875,1651800
2021-01-26,142.2899932861328,146.0,141.86000061035156,145.85000610351562,144.5953826904297,1167100
2021-01-27,145.36000061035156,149.69000244140625,144.0,149.1699981689453,147.88681030273438,2866100
2021-01-28,147.1199951171875,149.08999633789062,144.6999969482422,144.8699951171875,143.62380981445312,3027600
2021-01-29,143.8300018310547,147.3800048828125,141.85000610351562,143.9499969482422,142.7117156982422,3433600
2021-02-01,144.39999389648438,148.25,143.38999938964844,148.2100067138672,146.93508911132812,1954200
2021-02-02,149.0,150.42999267578125,147.89999389648438,148.61000061035156,147.33163452148438,1231100
2021-02-03,148.36000061035156,148.36000061035156,145.99000549316406,147.32000732421875,146.052734375,1283000
2021-02-04,147.13999938964844,147.33999633789062,142.86000061035156,145.0500030517578,143.80226135253906,2725400
2021-02-05,145.0500030517578,147.0,144.64999389648438,145.55999755859375,144.30787658691406,1478600
2021-02-08,145.02000427246094,146.66000366210938,144.2100067138672,146.3699951171875,145.11090087890625,1025400
2021-02-09,146.3699951171875,148.35000610351562,145.80999755859375,148.24000549316406,146.96482849121094,1220800
2021-02-10,149.5,149.9600067138672,146.05999755859375,147.52999877929688,146.26092529296875,801900
2021-02-11,147.19000244140625,148.75,143.94000244140625,144.82000732421875,143.57424926757812,1521700
2021-02-12,144.0,145.0,138.35000610351562,140.05999755859375,138.8551788330078,1957100
2021-02-16,140.8300018310547,140.86000061035156,135.8000030517578,137.1999969482422,136.01979064941406,2529600
2021-02-17,136.9199981689453,138.66000366210938,136.72999572753906,138.27999877929688,137.0904998779297,1203100
2021-02-18,137.66000366210938,139.0,137.1300048828125,137.94000244140625,136.75341796875,1011900
2021-02-19,138.05999755859375,139.4600067138672,136.41000366210938,136.4499969482422,135.27622985839844,1446600
2021-02-22,135.5500030517578,138.05999755859375,134.5,137.60000610351562,136.41635131835938,1647200
2021-02-23,138.36000061035156,138.85000610351562,135.83999633789062,137.3000030517578,136.11892700195312,1776700
2021-02-24,136.72999572753906,137.63999938964844,134.6999969482422,135.14999389648438,133.98741149902344,1243500
2021-02-25,135.0,137.2100067138672,133.1699981689453,134.3699951171875,133.21412658691406,1386600
2021-02-26,134.92999267578125,138.0,134.50999450683594,134.72999572753906,133.57102966308594,2722100
2021-03-01,135.58999633789062,137.02000427246094,132.3000030517578,132.9600067138672,131.81626892089844,1930900
2021-03-02,132.8800048828125,133.80999755859375,129.8800048828125,131.1199951171875,129.99208068847656,1761900
2021-03-03,130.5,131.0,125.12000274658203,125.66000366210938,124.57905578613281,2075700
2021-03-04,126.1500015258789,131.0399932861328,124.6500015258789,129.0,127.89031982421875,2956200
2021-03-05,129.0,132.58999633789062,126.33000183105469,132.0,130.86451721191406,2783300
2021-03-08,131.97000122070312,135.0,130.02999877929688,132.17999267578125,131.04296875,2053600
2021-03-09,133.5399932861328,137.4499969482422,133.25,135.0800018310547,133.91802978515625,1728900
2021-03-10,135.6199951171875,136.77999877929688,134.27999877929688,135.35000610351562,134.18569946289062,1811900
2021-03-11,135.64999389648438,137.22999572753906,134.38999938964844,134.85000610351562,133.69000244140625,1648800
2021-03-12,131.60000610351562,134.32000732421875,130.22000122070312,134.19000244140625,134.19000244140625,2864000
2021-03-15,134.5800018310547,135.64999389648438,134.08999633789062,135.07000732421875,135.07000732421875,2388700
2021-03-16,135.5,136.41000366210938,135.11000061035156,135.67999267578125,135.67999267578125,1729400
2021-03-17,135.25,135.72999572753906,134.02999877929688,134.67999267578125,134.67999267578125,1763600
2021-03-18,133.67999267578125,135.05999755859375,132.25999450683594,134.16000366210938,134.16000366210938,1174300
2021-03-19,134.16000366210938,137.58999633789062,133.39999389648438,133.50999450683594,133.50999450683594,2353000
2021-03-22,133.83999633789062,136.80999755859375,133.50999450683594,136.5500030517578,136.5500030517578,1422300
2021-03-23,137.1300048828125,140.1999969482422,136.5800018310547,140.0,140.0,1629100
2021-03-24,139.19000244140625,141.08999633789062,138.11000061035156,140.08999633789062,140.08999633789062,2166100
2021-03-25,140.07000732421875,140.72999572753906,137.77000427246094,138.36000061035156,138.36000061035156,1763100
2021-03-26,138.27000427246094,143.10000610351562,137.63999938964844,142.91000366210938,142.91000366210938,1867300
2021-03-29,142.9499969482422,145.0500030517578,141.07000732421875,144.5500030517578,144.5500030517578,1270500
2021-03-30,143.6699981689453,144.1199951171875,140.75999450683594,141.24000549316406,141.24000549316406,1322800
2021-03-31,140.6699981689453,142.3699951171875,138.6999969482422,140.83999633789062,140.83999633789062,1600700
2021-04-01,141.66000366210938,143.3699951171875,140.5500030517578,143.25,143.25,1334100
2021-04-05,143.5399932861328,145.8699951171875,142.72000122070312,145.77000427246094,145.77000427246094,1268000
2021-04-06,145.41000366210938,145.64999389648438,143.07000732421875,144.6699981689453,144.6699981689453,1266600
2021-04-07,145.25999450683594,145.35000610351562,142.52000427246094,142.89999389648438,142.89999389648438,1726700
2021-04-08,144.0500030517578,145.80999755859375,141.66000366210938,141.8800048828125,141.8800048828125,1510700
2021-04-09,142.0,142.0500030517578,140.32000732421875,141.25999450683594,141.25999450683594,1385000
2021-04-12,141.49000549316406,143.6699981689453,140.2899932861328,143.52000427246094,143.52000427246094,974400
2021-04-13,143.60000610351562,146.4600067138672,143.33999633789062,146.19000244140625,146.19000244140625,1288800
2021-04-14,145.75,146.2899932861328,143.4199981689453,143.6199951171875,143.6199951171875,725000
2021-04-15,144.47999572753906,147.39999389648438,144.41000366210938,147.24000549316406,147.24000549316406,965800
2021-04-16,147.55999755859375,147.77999877929688,145.50999450683594,145.9600067138672,145.9600067138672,1292200
2021-04-19,146.1999969482422,147.97999572753906,145.39999389648438,147.75999450683594,147.75999450683594,774500
2021-04-20,148.00999450683594,151.77999877929688,148.00999450683594,150.94000244140625,150.94000244140625,1382100
2021-04-21,151.92999267578125,152.3000030517578,150.3000030517578,150.82000732421875,150.82000732421875,1434100
2021-04-22,150.30999755859375,150.66000366210938,148.97000122070312,149.0500030517578,149.0500030517578,1066500
2021-04-23,148.8800048828125,149.82000732421875,147.72000122070312,149.0399932861328,149.0399932861328,697400
2021-04-26,149.50999450683594,149.50999450683594,147.74000549316406,148.22999572753906,148.22999572753906,1345800
2021-04-27,148.89999389648438,148.89999389648438,146.69000244140625,147.92999267578125,147.92999267578125,1082500
2021-04-28,148.38999938964844,148.5,146.58999633789062,147.1699981689453,147.1699981689453,1151600
2021-04-29,147.52999877929688,149.0399932861328,145.27000427246094,149.0399932861328,149.0399932861328,1656100
