Date,Open,High,Low,Close,Adj Close,Volume
2020-10-30,185.63999938964844,188.30999755859375,181.25,183.58999633789062,182.7821807861328,1159000
2020-11-02,186.58999633789062,192.5800018310547,186.58999633789062,188.85000610351562,188.01904296875,941500
2020-11-03,191.05999755859375,194.27000427246094,189.66000366210938,192.61000061035156,191.7624969482422,966500
2020-11-04,192.97999572753906,194.8699951171875,190.1300048828125,191.88999938964844,191.045654296875,837100
2020-11-05,195.25,198.02000427246094,194.44000244140625,196.4199981689453,195.55572509765625,917400
2020-11-06,198.49000549316406,200.82000732421875,196.7100067138672,199.38999938964844,198.51266479492188,914800
2020-11-09,210.0,220.2100067138672,208.85000610351562,216.89999389648438,215.9456024169922,2693800
2020-11-10,219.47000122070312,220.61000061035156,210.8300018310547,212.22999572753906,211.29615783691406,1829300
2020-11-11,213.39999389648438,213.8800048828125,207.72000122070312,209.8300018310547,208.90672302246094,1077900
2020-11-12,209.8800048828125,209.8800048828125,201.11000061035156,203.47999572753906,202.58465576171875,1180500
2020-11-13,205.22999572753906,208.7100067138672,204.9600067138672,208.42999267578125,207.5128631591797,1081700
2020-11-16,210.27000427246094,215.02000427246094,209.55999755859375,213.3800048828125,212.4411163330078,839600
2020-11-17,211.33999633789062,212.99000549316406,209.89999389648438,212.27000427246094,211.33599853515625,874000
2020-11-18,213.1300048828125,213.38999938964844,209.44000244140625,209.44000244140625,208.51844787597656,828300
2020-11-19,208.8800048828125,212.58999633789062,207.60000610351562,210.92999267578125,210.0018768310547,802700
2020-11-20,210.39999389648438,212.33999633789062,209.75,210.66000366210938,209.73306274414062,847000
2020-11-23,212.77999877929688,215.5,212.00999450683594,213.9199981689453,212.97872924804688,730500
2020-11-24,216.38999938964844,221.72000122070312,216.38999938964844,219.30999755859375,218.3450164794922,979600
2020-11-25,218.39999389648438,220.47999572753906,216.91000366210938,218.02999877929688,217.07064819335938,757800
2020-11-27,219.4499969482422,225.3800048828125,218.8300018310547,224.80999755859375,223.82081604003906,792700
2020-11-30,222.89999389648438,224.6999969482422,219.4600067138672,222.14999389648438,221.17251586914062,2060500
2020-12-01,224.97000122070312,226.32000732421875,221.58999633789062,224.02000427246094,223.03428649902344,997000
2020-12-02,223.38999938964844,224.5399932861328,218.9499969482422,219.13999938964844,218.17576599121094,898600
2020-12-03,219.1699981689453,223.80999755859375,219.00999450683594,219.75,218.7830810546875,992700
2020-12-04,221.1999969482422,225.86000061035156,221.1999969482422,225.61000061035156,224.61729431152344,781200
2020-12-07,224.8699951171875,225.02999877929688,221.75999450683594,222.74000549316406,221.7599334716797,794600
2020-12-08,222.60000610351562,224.60000610351562,221.9499969482422,224.41000366210938,223.4225616455078,712700
2020-12-09,225.22999572753906,226.55999755859375,222.9600067138672,225.89999389648438,224.90602111816406,734200
2020-12-10,225.22999572753906,227.2899932861328,222.66000366210938,223.0800018310547,222.0984344482422,924000
2020-12-11,221.92999267578125,224.5,220.27999877929688,221.25,220.27647399902344,734500
2020-12-14,222.24000549316406,222.7899932861328,216.6199951171875,217.0,216.51490783691406,758300
2020-12-15,219.4499969482422,224.08999633789062,218.0800018310547,222.9499969482422,222.45159912109375,942100
2020-12-16,222.1300048828125,223.33999633789062,219.92999267578125,220.00999450683594,219.51817321777344,751600
2020-12-17,221.39999389648438,222.60000610351562,219.7899932861328,220.61000061035156,220.11683654785156,925500
2020-12-18,221.05999755859375,221.33999633789062,216.8699951171875,218.5800018310547,218.09136962890625,2178300
2020-12-21,215.5800018310547,215.89999389648438,210.7899932861328,215.80999755859375,215.3275604248047,1241600
2020-12-22,216.27999877929688,217.60000610351562,214.3800048828125,215.2100067138672,214.72891235351562,946900
2020-12-23,216.69000244140625,219.2100067138672,213.27999877929688,213.32000732421875,212.8431396484375,510600
2020-12-24,213.22000122070312,216.36000061035156,212.05999755859375,216.1199951171875,215.63687133789062,279200
2020-12-28,217.35000610351562,218.66000366210938,214.27000427246094,214.6999969482422,214.2200469970703,729600
2020-12-29,216.00999450683594,216.92999267578125,213.3699951171875,214.47000122070312,213.9905548095703,395100
2020-12-30,215.6699981689453,218.38999938964844,214.77000427246094,215.24000549316406,214.7588348388672,477300
2020-12-31,215.25,216.83999633789062,214.72999572753906,216.36000061035156,215.87632751464844,752300
2021-01-04,218.0,220.4499969482422,213.11000061035156,214.30999755859375,213.83091735839844,1459900
2021-01-05,214.27000427246094,216.85000610351562,212.42999267578125,216.55999755859375,216.0758819580078,721700
2021-01-06,219.50999450683594,227.17999267578125,217.9199981689453,225.42999267578125,224.92605590820312,1310800
2021-01-07,227.42999267578125,227.97000122070312,224.27000427246094,225.74000549316406,225.23536682128906,814200
2021-01-08,224.9499969482422,226.47999572753906,218.61000061035156,221.75,221.25428771972656,981500
2021-01-11,219.83999633789062,221.97000122070312,218.86000061035156,221.05999755859375,220.56582641601562,673200
2021-01-12,221.07000732421875,223.67999267578125,220.0,223.1300048828125,222.63121032714844,595100
2021-01-13,222.47999572753906,223.25999450683594,216.13999938964844,216.9600067138672,216.47500610351562,1058800
2021-01-14,217.55999755859375,219.02999877929688,212.1300048828125,212.42999267578125,211.95510864257812,814300
2021-01-15,213.1699981689453,213.97999572753906,209.7899932861328,210.77000427246094,210.298828125,1155500
2021-01-19,212.3800048828125,216.69000244140625,211.02000427246094,215.91000366210938,215.42733764648438,1003500
2021-01-20,217.3000030517578,219.42999267578125,216.33999633789062,218.3800048828125,217.89181518554688,702300
2021-01-21,218.30999755859375,220.0,213.92999267578125,214.00999450683594,213.53158569335938,724900
2021-01-22,213.80999755859375,213.9499969482422,210.75,212.38999938964844,211.9152069091797,856000
2021-01-25,212.1699981689453,213.0,208.0,211.25999450683594,210.78773498535156,743600
2021-01-26,211.27000427246094,212.0399932861328,209.07000732421875,209.3300018310547,208.86204528808594,875900
2021-01-27,206.72999572753906,209.0,201.5500030517578,207.3699951171875,206.9064178466797,1123700
2021-01-28,210.05999755859375,217.1199951171875,207.10000610351562,211.10000610351562,210.6280975341797,1203000
2021-01-29,209.3000030517578,211.55999755859375,203.6699981689453,204.50999450683594,204.0528106689453,1115100
2021-02-01,205.33999633789062,209.11000061035156,204.69000244140625,208.42999267578125,207.96405029296875,1125700
2021-02-02,209.9199981689453,211.49000549316406,208.16000366210938,210.27999877929688,209.80992126464844,920400
2021-02-03,209.82000732421875,210.94000244140625,207.0800018310547,208.97000122070312,208.5028533935547,876100
2021-02-04,209.55999755859375,210.60000610351562,205.7899932861328,208.1300048828125,207.66473388671875,993100
2021-02-05,210.89999389648438,214.07000732421875,210.8800048828125,212.77999877929688,212.30433654785156,818300
2021-02-08,214.07000732421875,217.3000030517578,213.14999389648438,217.0500030517578,216.56478881835938,754100
2021-02-09,217.30999755859375,217.67999267578125,215.1199951171875,215.55999755859375,215.078125,922100
2021-02-10,217.4600067138672,217.97000122070312,215.27000427246094,215.64999389648438,215.16790771484375,581100
2021-02-11,215.7100067138672,218.5800018310547,214.47000122070312,216.39999389648438,215.91624450683594,911400
2021-02-12,215.69000244140625,220.0,215.3300018310547,219.8800048828125,219.3884735107422,1001500
2021-02-16,219.8000030517578,220.0,210.5,210.91000366210938,210.4385223388672,1091800
2021-02-17,209.60000610351562,210.63999938964844,205.6999969482422,208.7899932861328,208.3232421875,953500
2021-02-18,206.85000610351562,211.07000732421875,206.2100067138672,209.8000030517578,209.33099365234375,783800
2021-02-19,210.24000549316406,211.4600067138672,208.00999450683594,208.0800018310547,207.61483764648438,856000
2021-02-22,207.0500030517578,207.88999938964844,206.0,206.5399932861328,206.07827758789062,955000
2021-02-23,207.22000122070312,211.8800048828125,205.5,211.16000366210938,210.68795776367188,1149000
2021-02-24,212.2899932861328,217.4199981689453,212.27999877929688,216.19000244140625,215.7067108154297,1004200
2021-02-25,215.69000244140625,216.16000366210938,210.92999267578125,211.9600067138672,211.48617553710938,960200
2021-02-26,212.05999755859375,213.16000366210938,209.13999938964844,209.36000061035156,208.89198303222656,1117600
2021-03-01,210.8000030517578,212.97000122070312,210.57000732421875,211.22000122070312,210.74781799316406,1080100
2021-03-02,211.74000549316406,213.82000732421875,210.22999572753906,211.5399932861328,211.06710815429688,702600
2021-03-03,211.0800018310547,212.2100067138672,208.17999267578125,208.32000732421875,207.85430908203125,1097700
2021-03-04,208.4499969482422,210.47000122070312,201.36000061035156,204.57000732421875,204.11270141601562,1282900
2021-03-05,206.42999267578125,208.72999572753906,201.14999389648438,207.91000366210938,207.44522094726562,1601900
2021-03-08,210.02000427246094,214.50999450683594,208.8300018310547,211.58999633789062,211.1169891357422,1041500
2021-03-09,213.60000610351562,216.8800048828125,212.4199981689453,214.47999572753906,214.0005340576172,1114500
2021-03-10,215.02000427246094,218.6999969482422,212.8000030517578,216.97000122070312,216.48497009277344,765700
2021-03-11,216.50999450683594,218.5,214.08999633789062,214.39999389648438,213.92071533203125,790900
2021-03-12,214.58999633789062,216.0800018310547,213.6300048828125,214.72000122070312,214.24000549316406,619000
2021-03-15,213.47999572753906,215.77000427246094,213.1199951171875,215.3699951171875,215.3699951171875,581800
2021-03-16,215.5399932861328,216.86000061035156,211.9600067138672,212.9499969482422,212.9499969482422,625200
2021-03-17,212.86000061035156,212.94000244140625,208.30999755859375,209.17999267578125,209.17999267578125,1220500
2021-03-18,209.67999267578125,211.4199981689453,206.07000732421875,209.5500030517578,209.5500030517578,1388800
2021-03-19,209.35000610351562,210.97000122070312,206.27999877929688,207.5800018310547,207.5800018310547,2000900
2021-03-22,207.77000427246094,209.88999938964844,205.6199951171875,208.07000732421875,208.07000732421875,1842900
2021-03-23,206.99000549316406,211.57000732421875,206.39999389648438,207.91000366210938,207.91000366210938,1384200
2021-03-24,208.5399932861328,211.0,203.42999267578125,208.4600067138672,208.4600067138672,1474300
2021-03-25,207.47000122070312,209.5399932861328,203.6300048828125,208.80999755859375,208.80999755859375,1336300
2021-03-26,210.39999389648438,213.4600067138672,209.1199951171875,213.3300018310547,213.3300018310547,925500
2021-03-29,213.0800018310547,215.6699981689453,210.42999267578125,214.52999877929688,214.52999877929688,1097800
2021-03-30,218.32000732421875,219.83999633789062,214.55999755859375,215.0,215.0,1098400
2021-03-31,213.75,216.0,213.47999572753906,214.07000732421875,214.07000732421875,1061100
2021-04-01,215.25,216.89999389648438,213.7100067138672,216.85000610351562,216.85000610351562,702000
2021-04-05,218.88999938964844,219.97999572753906,217.6999969482422,218.8800048828125,218.8800048828125,738400
2021-04-06,218.67999267578125,221.35000610351562,218.3800048828125,220.8300018310547,220.8300018310547,1023900
2021-04-07,219.97999572753906,221.32000732421875,213.97000122070312,214.66000366210938,214.66000366210938,696700
2021-04-08,214.0,215.97999572753906,214.0,215.97000122070312,215.97000122070312,652800
2021-04-09,217.02999877929688,219.5399932861328,216.77000427246094,219.44000244140625,219.44000244140625,860400
2021-04-12,219.10000610351562,220.19000244140625,218.55999755859375,219.74000549316406,219.74000549316406,543900
2021-04-13,218.5399932861328,219.6999969482422,217.32000732421875,217.94000244140625,217.94000244140625,613000
2021-04-14,217.67999267578125,219.7100067138672,217.5,218.38999938964844,218.38999938964844,635000
2021-04-15,219.22999572753906,220.55999755859375,219.0,219.89999389648438,219.89999389648438,704300
2021-04-16,221.3000030517578,223.49000549316406,221.07000732421875,223.14999389648438,223.14999389648438,725600
2021-04-19,223.67999267578125,224.1699981689453,219.5,220.30999755859375,220.30999755859375,868800
2021-04-20,219.7100067138672,222.55999755859375,219.6699981689453,220.83999633789062,220.83999633789062,1200700
2021-04-21,222.13999938964844,224.36000061035156,221.94000244140625,223.97999572753906,223.97999572753906,726300
2021-04-22,224.0,224.6199951171875,220.83999633789062,221.52999877929688,221.52999877929688,912600
2021-04-23,222.6300048828125,227.72000122070312,222.11000061035156,226.77999877929688,226.77999877929688,830800
2021-04-26,227.22999572753906,229.0500030517578,226.8000030517578,226.80999755859375,226.80999755859375,995600
2021-04-27,222.44000244140625,224.99000549316406,217.30999755859375,218.41000366210938,218.41000366210938,1178500
2021-04-28,219.0399932861328,223.4600067138672,217.0,222.07000732421875,222.07000732421875,982400
2021-04-29,223.39999389648438,225.07000732421875,222.6999969482422,224.75,224.75,612700
