Date,Open,High,Low,Close,Adj Close,Volume
2020-10-30,39.720001220703125,40.25,39.459999084472656,39.88999938964844,39.151493072509766,7071700
2020-11-02,40.5099983215332,40.97999954223633,39.939998626708984,40.959999084472656,40.20168685913086,5063600
2020-11-03,42.720001220703125,42.9900016784668,41.619998931884766,42.470001220703125,41.6837272644043,6441800
2020-11-04,42.689998626708984,42.939998626708984,41.650001525878906,42.220001220703125,41.43836212158203,8022000
2020-11-05,42.459999084472656,43.36000061035156,42.310001373291016,43.06999969482422,42.272621154785156,7379200
2020-11-06,42.939998626708984,43.16999816894531,42.61000061035156,42.84000015258789,42.046878814697266,8848200
2020-11-09,44.40999984741211,46.02000045776367,43.11000061035156,43.31999969482422,42.51799392700195,8128000
2020-11-10,43.27000045776367,43.66999816894531,42.91999816894531,42.9900016784668,42.19410705566406,10019900
2020-11-11,43.20000076293945,43.849998474121094,42.880001068115234,43.84000015258789,43.02836608886719,5882700
2020-11-12,43.45000076293945,43.630001068115234,42.38999938964844,42.70000076293945,41.90947341918945,5418000
2020-11-13,42.70000076293945,42.95000076293945,42.5099983215332,42.88999938964844,42.476951599121094,3668300
2020-11-16,43.209999084472656,43.5099983215332,42.630001068115234,43.34000015258789,42.9226188659668,4110900
2020-11-17,42.880001068115234,43.540000915527344,42.810001373291016,43.06999969482422,42.65522003173828,4676100
2020-11-18,43.189998626708984,43.380001068115234,42.68000030517578,42.70000076293945,42.28878402709961,5759400
2020-11-19,42.470001220703125,42.58000183105469,41.779998779296875,42.349998474121094,41.9421501159668,5376700
2020-11-20,42.2400016784668,42.560001373291016,41.779998779296875,41.869998931884766,41.466773986816406,4069900
2020-11-23,42.290000915527344,42.29999923706055,41.400001525878906,41.56999969482422,41.1696662902832,4373700
2020-11-24,42.060001373291016,42.810001373291016,41.869998931884766,42.75,42.33830261230469,4810600
2020-11-25,42.459999084472656,42.560001373291016,41.779998779296875,42.220001220703125,41.81340789794922,3368900
2020-11-27,42.2400016784668,42.310001373291016,41.59000015258789,41.7400016784668,41.33802795410156,1723400
2020-11-30,41.47999954223633,41.52000045776367,40.91999816894531,41.06999969482422,40.67448043823242,9445700
2020-12-01,41.31999969482422,41.880001068115234,41.099998474121094,41.25,40.852745056152344,5704800
2020-12-02,41.119998931884766,41.61000061035156,40.720001220703125,41.56999969482422,41.1696662902832,5152700
2020-12-03,41.29999923706055,41.650001525878906,40.79999923706055,41.04999923706055,40.65467071533203,4361400
2020-12-04,41.29999923706055,41.34000015258789,40.529998779296875,40.93000030517578,40.53582763671875,3546300
2020-12-07,40.70000076293945,41.45000076293945,40.65999984741211,41.20000076293945,40.80323028564453,3235700
2020-12-08,41.16999816894531,41.38999938964844,40.61000061035156,41.31999969482422,40.92207336425781,4130700
2020-12-09,41.279998779296875,41.470001220703125,40.970001220703125,41.09000015258789,40.69428634643555,4392400
2020-12-10,41.2599983215332,41.380001068115234,40.54999923706055,41.20000076293945,40.80323028564453,4396100
2020-12-11,40.83000183105469,41.290000915527344,40.709999084472656,41.189998626708984,40.7933235168457,3532400
2020-12-14,41.47999954223633,42.09000015258789,41.029998779296875,41.060001373291016,40.66457748413086,4025600
2020-12-15,41.439998626708984,42.83000183105469,41.279998779296875,42.720001220703125,42.308589935302734,8301200
2020-12-16,42.79999923706055,43.11000061035156,42.18000030517578,42.439998626708984,42.03128433227539,7583500
2020-12-17,42.61000061035156,43.119998931884766,42.61000061035156,42.650001525878906,42.23926544189453,5229600
2020-12-18,42.689998626708984,43.029998779296875,42.34000015258789,42.56999969482422,42.1600341796875,9169900
2020-12-21,42.209999084472656,42.209999084472656,41.11000061035156,41.5099983215332,41.1102409362793,4402700
2020-12-22,41.59000015258789,41.970001220703125,41.47999954223633,41.7599983215332,41.35783386230469,3120600
2020-12-23,41.93000030517578,42.43000030517578,41.650001525878906,41.709999084472656,41.30831527709961,3322900
2020-12-24,41.95000076293945,41.95000076293945,41.40999984741211,41.83000183105469,41.427162170410156,1476700
2020-12-28,42.15999984741211,42.630001068115234,41.9900016784668,42.209999084472656,41.80350112915039,2545100
2020-12-29,42.220001220703125,42.439998626708984,41.66999816894531,41.83000183105469,41.427162170410156,2647900
2020-12-30,41.779998779296875,42.25,41.720001220703125,41.93000030517578,41.52619934082031,2531500
2020-12-31,41.95000076293945,42.279998779296875,41.709999084472656,42.220001220703125,41.81340789794922,3248400
2021-01-04,42.41999816894531,42.540000915527344,40.849998474121094,41.16999816894531,40.77351379394531,5033600
2021-01-05,41.209999084472656,41.470001220703125,40.84000015258789,41.11000061035156,40.71409606933594,3968300
2021-01-06,41.400001525878906,42.810001373291016,41.31999969482422,42.45000076293945,42.04119110107422,6310600
2021-01-07,42.45000076293945,42.560001373291016,41.72999954223633,42.029998779296875,41.6252326965332,5223100
2021-01-08,42.0099983215332,42.40999984741211,41.900001525878906,42.209999084472656,41.80350112915039,4582800
2021-01-11,42.25,42.560001373291016,41.61000061035156,41.86000061035156,41.456871032714844,5042900
2021-01-12,41.77000045776367,42.18000030517578,41.40999984741211,42.08000183105469,41.67475509643555,5237800
2021-01-13,42.0099983215332,42.95000076293945,41.95000076293945,42.79999923706055,42.3878173828125,4467300
2021-01-14,42.790000915527344,43.0099983215332,42.33000183105469,42.58000183105469,42.16994094848633,4328500
2021-01-15,42.33000183105469,43.47999954223633,42.13999938964844,43.36000061035156,42.94242858886719,5060900
2021-01-19,43.5099983215332,43.63999938964844,42.81999969482422,42.81999969482422,42.40762710571289,4141500
2021-01-20,42.65999984741211,43.119998931884766,42.439998626708984,43.04999923706055,42.63541030883789,4211600
2021-01-21,42.79999923706055,43.279998779296875,42.4900016784668,43.02000045776367,42.6057014465332,3665300
2021-01-22,42.81999969482422,42.95000076293945,42.380001068115234,42.540000915527344,42.13032531738281,4189800
2021-01-25,42.40999984741211,43.400001525878906,42.08000183105469,43.349998474121094,42.93252182006836,6055800
2021-01-26,43.279998779296875,43.279998779296875,42.45000076293945,42.849998474121094,42.43733596801758,4455700
2021-01-27,42.54999923706055,42.83000183105469,40.939998626708984,41.02000045776367,40.624961853027344,7150400
2021-01-28,41.16999816894531,42.84000015258789,41.0,42.040000915527344,41.63513946533203,5317600
2021-01-29,41.61000061035156,41.9900016784668,41.0,41.560001373291016,41.15976333618164,6844100
2021-02-01,41.869998931884766,42.31999969482422,41.220001220703125,42.08000183105469,41.67475509643555,3650200
2021-02-02,42.470001220703125,43.439998626708984,42.08000183105469,42.849998474121094,42.43733596801758,3889300
2021-02-03,42.849998474121094,42.91999816894531,42.18000030517578,42.47999954223633,42.070899963378906,4831400
2021-02-04,42.5,43.68000030517578,42.380001068115234,43.66999816894531,43.24943923950195,4526300
2021-02-05,43.970001220703125,44.040000915527344,43.290000915527344,43.68000030517578,43.25934600830078,3977200
2021-02-08,43.7599983215332,43.970001220703125,43.5099983215332,43.7400016784668,43.31876754760742,4314700
2021-02-09,43.93000030517578,44.0,43.310001373291016,43.56999969482422,43.1504020690918,4407900
2021-02-10,43.83000183105469,43.880001068115234,43.04999923706055,43.31999969482422,42.90281295776367,4259000
2021-02-11,43.45000076293945,43.45000076293945,42.65999984741211,42.7400016784668,42.328399658203125,3455100
2021-02-12,42.619998931884766,42.970001220703125,42.0099983215332,42.209999084472656,41.80350112915039,3442000
2021-02-16,42.150001525878906,42.38999938964844,41.880001068115234,41.97999954223633,41.57571792602539,3210500
2021-02-17,41.93000030517578,42.29999923706055,41.52000045776367,42.16999816894531,41.763885498046875,3163000
2021-02-18,42.13999938964844,42.9900016784668,42.060001373291016,42.70000076293945,42.28878402709961,3492100
2021-02-19,42.0099983215332,42.29999923706055,41.189998626708984,41.380001068115234,40.98149490356445,5333700
2021-02-22,41.189998626708984,41.209999084472656,40.16999816894531,40.599998474121094,40.20900344848633,6255300
2021-02-23,40.849998474121094,41.040000915527344,40.33000183105469,40.79999923706055,40.40707778930664,5108200
2021-02-24,40.029998779296875,41.2599983215332,40.0,40.189998626708984,39.80295181274414,7782700
2021-02-25,39.90999984741211,40.0,38.349998474121094,38.91999816894531,38.54518508911133,9256300
2021-02-26,39.04999923706055,39.47999954223633,38.56999969482422,38.599998474121094,38.22826385498047,8766500
2021-03-01,39.040000915527344,39.880001068115234,39.0,39.310001373291016,38.93143081665039,5351300
2021-03-02,39.290000915527344,39.70000076293945,39.27000045776367,39.310001373291016,38.93143081665039,5770400
2021-03-03,39.11000061035156,39.7400016784668,38.849998474121094,39.529998779296875,39.14931106567383,6195500
2021-03-04,39.7400016784668,40.529998779296875,39.33000183105469,39.77000045776367,39.387001037597656,8105800
2021-03-05,39.529998779296875,39.779998779296875,39.130001068115234,39.63999938964844,39.63999938964844,7839400
2021-03-08,39.59000015258789,41.16999816894531,39.45000076293945,40.689998626708984,40.689998626708984,8934300
2021-03-09,41.02000045776367,41.709999084472656,40.540000915527344,41.529998779296875,41.529998779296875,7141100
2021-03-10,41.68000030517578,42.08000183105469,41.27000045776367,41.86000061035156,41.86000061035156,7559400
2021-03-11,41.790000915527344,42.70000076293945,41.689998626708984,42.029998779296875,42.029998779296875,6022600
2021-03-12,42.36000061035156,42.66999816894531,42.040000915527344,42.59000015258789,42.59000015258789,4769800
2021-03-15,42.869998931884766,43.38999938964844,42.650001525878906,43.36000061035156,43.36000061035156,4998100
2021-03-16,43.099998474121094,43.52000045776367,42.849998474121094,43.36000061035156,43.36000061035156,5557600
2021-03-17,43.4900016784668,43.4900016784668,42.75,42.970001220703125,42.970001220703125,5442400
2021-03-18,42.720001220703125,43.290000915527344,42.52000045776367,42.70000076293945,42.70000076293945,5787700
2021-03-19,42.849998474121094,43.2400016784668,42.189998626708984,42.970001220703125,42.970001220703125,8440900
2021-03-22,42.75,42.9900016784668,42.4900016784668,42.790000915527344,42.790000915527344,5309000
2021-03-23,42.880001068115234,43.13999938964844,42.529998779296875,42.79999923706055,42.79999923706055,4836800
2021-03-24,42.689998626708984,43.439998626708984,42.630001068115234,42.93000030517578,42.93000030517578,4431200
2021-03-25,43.29999923706055,43.58000183105469,42.81999969482422,43.369998931884766,43.369998931884766,4191900
2021-03-26,43.4900016784668,43.650001525878906,43.02000045776367,43.529998779296875,43.529998779296875,3996100
2021-03-29,43.25,43.97999954223633,43.25,43.75,43.75,4392300
2021-03-30,43.529998779296875,43.650001525878906,43.09000015258789,43.5,43.5,4295300
2021-03-31,43.36000061035156,43.88999938964844,43.29999923706055,43.7400016784668,43.7400016784668,6001800
2021-04-01,43.709999084472656,43.97999954223633,43.5099983215332,43.90999984741211,43.90999984741211,4118200
2021-04-05,44.0099983215332,44.75,43.95000076293945,44.47999954223633,44.47999954223633,4461400
2021-04-06,44.36000061035156,44.720001220703125,44.18000030517578,44.560001373291016,44.560001373291016,4047300
2021-04-07,44.68000030517578,45.06999969482422,44.599998474121094,44.95000076293945,44.95000076293945,4601900
2021-04-08,45.060001373291016,45.279998779296875,44.869998931884766,44.900001525878906,44.900001525878906,5962300
2021-04-09,44.869998931884766,45.119998931884766,44.720001220703125,44.83000183105469,44.83000183105469,4405900
2021-04-12,45.0,45.20000076293945,44.619998931884766,44.7400016784668,44.7400016784668,4640000
2021-04-13,44.599998474121094,45.31999969482422,44.5,45.16999816894531,45.16999816894531,5224600
2021-04-14,45.22999954223633,45.459999084472656,45.040000915527344,45.45000076293945,45.45000076293945,3855500
2021-04-15,45.41999816894531,45.849998474121094,45.27000045776367,45.77000045776367,45.77000045776367,5927000
2021-04-16,46.02000045776367,46.369998931884766,45.79999923706055,46.15999984741211,46.15999984741211,4956500
2021-04-19,46.209999084472656,46.279998779296875,45.41999816894531,45.5,45.5,4803700
2021-04-20,45.40999984741211,45.91999816894531,45.40999984741211,45.79999923706055,45.79999923706055,6207300
2021-04-21,45.779998779296875,46.0,45.5,45.68000030517578,45.68000030517578,4801400
2021-04-22,45.720001220703125,45.7400016784668,45.02000045776367,45.08000183105469,45.08000183105469,4498300
2021-04-23,45.13999938964844,45.290000915527344,44.880001068115234,44.90999984741211,44.90999984741211,4343700
2021-04-26,44.900001525878906,44.9900016784668,44.56999969482422,44.650001525878906,44.650001525878906,3090900
2021-04-27,44.65999984741211,44.75,44.38999938964844,44.540000915527344,44.540000915527344,3640900
2021-04-28,44.43000030517578,44.65999984741211,44.22999954223633,44.61000061035156,44.61000061035156,4670900
2021-04-29,44.380001068115234,45.099998474121094,44.380001068115234,44.88999938964844,44.88999938964844,4280100
