Date,Open,High,Low,Close,Adj Close,Volume
2020-10-30,115.58000183105469,116.98999786376953,114.31999969482422,115.94999694824219,114.11565399169922,785300
2020-11-02,116.55000305175781,117.55000305175781,115.13999938964844,115.8499984741211,114.01724243164062,1158500
2020-11-03,116.83000183105469,117.52999877929688,115.5999984741211,116.8499984741211,115.00141143798828,1889500
2020-11-04,117.0,119.62000274658203,116.31999969482422,117.3499984741211,115.4935073852539,1469500
2020-11-05,117.45999908447266,119.02999877929688,113.55000305175781,113.9000015258789,112.09809112548828,1509600
2020-11-06,114.87999725341797,116.04000091552734,112.44999694824219,112.72000122070312,110.93675231933594,1876000
2020-11-09,119.63999938964844,121.06999969482422,106.7699966430664,106.91999816894531,105.228515625,2201900
2020-11-10,106.91999816894531,115.51000213623047,106.33000183105469,115.51000213623047,113.6826171875,1700100
2020-11-11,116.05999755859375,118.12000274658203,114.62999725341797,117.98999786376953,116.12338256835938,1294500
2020-11-12,118.16999816894531,118.30000305175781,114.45999908447266,115.58000183105469,113.75151062011719,603700
2020-11-13,117.56999969482422,117.91999816894531,116.13999938964844,117.72000122070312,115.85765838623047,837700
2020-11-16,119.19999694824219,119.31999969482422,115.05000305175781,117.91000366210938,116.04464721679688,1012800
2020-11-17,117.2300033569336,118.33000183105469,116.2300033569336,117.87000274658203,116.00528717041016,865900
2020-11-18,117.83999633789062,117.91000366210938,113.12000274658203,113.12000274658203,111.33042907714844,697700
2020-11-19,112.83999633789062,113.61000061035156,111.25,112.62000274658203,110.83834075927734,664800
2020-11-20,112.33000183105469,113.01000213623047,111.33999633789062,112.69000244140625,110.90723419189453,685200
2020-11-23,112.8499984741211,113.94000244140625,110.55000305175781,110.88999938964844,109.13570404052734,1024800
2020-11-24,111.63999938964844,111.80999755859375,109.5,110.0,108.2597885131836,1121400
2020-11-25,110.41000366210938,112.2300033569336,109.95999908447266,111.98999786376953,110.21829986572266,727100
2020-11-27,111.87000274658203,111.87000274658203,109.25,110.0,108.2597885131836,253100
2020-11-30,109.63999938964844,112.73999786376953,109.63999938964844,112.7300033569336,110.94660186767578,1072400
2020-12-01,112.93000030517578,114.18000030517578,111.66000366210938,113.66000366210938,111.86189270019531,1044700
2020-12-02,113.2699966430664,114.48999786376953,111.05999755859375,111.41999816894531,109.6573257446289,582400
2020-12-03,111.62999725341797,113.5999984741211,111.29000091552734,113.5,111.70441436767578,876800
2020-12-04,113.72000122070312,114.9000015258789,112.51000213623047,114.3499984741211,112.54096984863281,612200
2020-12-07,113.5999984741211,115.36000061035156,113.5999984741211,115.0,113.1806869506836,1192800
2020-12-08,114.95999908447266,115.0,113.16000366210938,113.58000183105469,111.78314971923828,694900
2020-12-09,113.56999969482422,113.80000305175781,111.30000305175781,112.5,110.72023010253906,653600
2020-12-10,112.06999969482422,113.43000030517578,109.98999786376953,110.0199966430664,108.27946472167969,1072400
2020-12-11,109.93000030517578,111.69000244140625,109.6500015258789,110.4000015258789,108.65345764160156,1067600
2020-12-14,110.56999969482422,112.91000366210938,109.61000061035156,109.87999725341797,109.030517578125,1107000
2020-12-15,110.33999633789062,111.72000122070312,108.52999877929688,111.6500015258789,110.7868423461914,1950400
2020-12-16,111.9800033569336,112.33999633789062,110.1500015258789,111.06999969482422,110.21131896972656,2194600
2020-12-17,112.19000244140625,114.43000030517578,111.75,114.16999816894531,113.287353515625,1076900
2020-12-18,113.79000091552734,114.5,111.76000213623047,112.48999786376953,111.6203384399414,1431900
2020-12-21,112.33999633789062,114.63999938964844,111.55999755859375,114.22000122070312,113.33696746826172,745600
2020-12-22,114.22000122070312,115.5999984741211,113.80000305175781,115.19000244140625,114.29947662353516,635200
2020-12-23,115.69999694824219,115.69999694824219,112.72000122070312,112.83000183105469,111.95771789550781,604800
2020-12-24,113.25,114.44000244140625,112.86000061035156,114.38999938964844,113.50565338134766,123300
2020-12-28,114.80000305175781,114.80000305175781,112.7300033569336,113.80000305175781,112.92021942138672,464000
2020-12-29,114.0,114.83999633789062,112.61000061035156,113.80999755859375,112.93013763427734,362200
2020-12-30,113.98999786376953,115.19999694824219,113.7699966430664,114.70999908447266,113.82318115234375,622300
2020-12-31,114.88999938964844,116.01000213623047,113.26000213623047,115.86000061035156,114.96429443359375,603100
2021-01-04,115.7300033569336,116.1500015258789,110.19999694824219,110.29000091552734,109.4373550415039,772900
2021-01-05,110.05000305175781,111.0,108.5199966430664,108.87999725341797,108.03825378417969,794800
2021-01-06,108.54000091552734,109.4800033569336,106.55999755859375,108.70999908447266,107.86956787109375,948900
2021-01-07,108.41999816894531,109.19000244140625,107.77999877929688,108.97000122070312,108.12755584716797,885000
2021-01-08,109.3499984741211,112.22000122070312,109.2699966430664,112.05000305175781,111.18374633789062,731000
2021-01-11,111.63999938964844,112.01000213623047,110.12999725341797,111.3499984741211,110.4891586303711,504300
2021-01-12,110.97000122070312,112.62999725341797,110.36000061035156,111.9000015258789,111.03490447998047,601300
2021-01-13,111.25,112.95999908447266,111.01000213623047,111.86000061035156,110.9952163696289,946100
2021-01-14,112.16000366210938,112.18000030517578,109.41999816894531,110.27999877929688,109.42742919921875,1021700
2021-01-15,110.56999969482422,112.33999633789062,109.86000061035156,112.18000030517578,111.312744140625,1147900
2021-01-19,112.45999908447266,112.56999969482422,110.93000030517578,111.66000366210938,110.79676818847656,560400
2021-01-20,111.25,115.19000244140625,110.56999969482422,114.80999755859375,113.92240905761719,820100
2021-01-21,113.80000305175781,115.22000122070312,113.44000244140625,114.69000244140625,113.80333709716797,631300
2021-01-22,114.69999694824219,115.94000244140625,113.98999786376953,115.41000366210938,114.51777648925781,960500
2021-01-25,115.25,116.80999755859375,114.19000244140625,115.94999694824219,115.0535888671875,659200
2021-01-26,115.94000244140625,117.45999908447266,115.4800033569336,116.9800033569336,116.07563781738281,818600
2021-01-27,116.43000030517578,117.93000030517578,114.47000122070312,115.12000274658203,114.23001098632812,760900
2021-01-28,115.01000213623047,116.33000183105469,113.2300033569336,113.27999877929688,112.40423583984375,724600
2021-01-29,112.62000274658203,115.29000091552734,111.54000091552734,113.79000091552734,112.91029357910156,1100000
2021-02-01,114.81999969482422,116.69999694824219,112.7300033569336,116.62000274658203,115.71841430664062,775200
2021-02-02,116.58000183105469,117.58000183105469,115.13999938964844,117.12000274658203,116.21455383300781,811200
2021-02-03,116.31999969482422,116.69000244140625,114.5,116.01000213623047,115.1131362915039,569300
2021-02-04,116.58999633789062,118.16999816894531,115.81999969482422,116.94000244140625,116.03594207763672,600300
2021-02-05,117.33999633789062,117.33999633789062,116.18000030517578,116.62000274658203,115.71841430664062,679900
2021-02-08,116.41999816894531,117.25,115.7300033569336,117.18000030517578,116.27408599853516,435200
2021-02-09,117.69000244140625,119.70999908447266,117.29000091552734,119.6500015258789,118.72499084472656,403800
2021-02-10,120.87000274658203,120.98999786376953,117.62999725341797,118.30999755859375,117.39534759521484,537900
2021-02-11,117.62999725341797,118.4000015258789,117.08999633789062,117.7300033569336,116.81983947753906,663100
2021-02-12,117.55000305175781,117.55000305175781,115.87000274658203,116.87999725341797,115.97640228271484,468500
2021-02-16,116.80000305175781,117.93000030517578,115.12999725341797,117.19000244140625,116.28401184082031,939800
2021-02-17,117.2699966430664,118.44000244140625,116.48999786376953,117.77999877929688,116.86944580078125,642100
2021-02-18,117.16999816894531,119.93000030517578,117.16999816894531,118.33000183105469,117.41519927978516,692200
2021-02-19,118.69999694824219,120.37000274658203,117.3499984741211,119.62999725341797,118.70513916015625,2001200
2021-02-22,119.36000061035156,121.83000183105469,118.38999938964844,120.73999786376953,119.80656433105469,1224300
2021-02-23,126.0,131.05999755859375,125.18000030517578,126.5,125.52203369140625,1260300
2021-02-24,126.44000244140625,129.52000427246094,125.94999694824219,127.0999984741211,126.11739349365234,864000
2021-02-25,126.87000274658203,131.58999633789062,126.87000274658203,129.52999877929688,128.5286102294922,941100
2021-02-26,129.19000244140625,130.60000610351562,125.55999755859375,125.69999694824219,124.72821807861328,1144400
2021-03-01,126.81999969482422,128.58999633789062,123.7300033569336,123.79000091552734,122.8329849243164,900400
2021-03-02,124.81999969482422,126.19000244140625,122.86000061035156,124.7300033569336,123.7657241821289,985700
2021-03-03,124.12000274658203,124.86000061035156,122.73999786376953,123.37999725341797,122.42615509033203,854200
2021-03-04,124.27999877929688,125.13999938964844,121.08999633789062,122.0199966430664,121.07666778564453,1075600
2021-03-05,122.80000305175781,124.3499984741211,120.91000366210938,123.80000305175781,122.84291076660156,622300
2021-03-08,124.5,128.0800018310547,123.58999633789062,126.61000061035156,125.63118743896484,625000
2021-03-09,126.23999786376953,129.1699981689453,126.23999786376953,127.7300033569336,126.7425308227539,646000
2021-03-10,128.77000427246094,130.61000061035156,127.56999969482422,129.07000732421875,128.07217407226562,821200
2021-03-11,128.74000549316406,130.64999389648438,128.74000549316406,129.35000610351562,128.35000610351562,842000
2021-03-12,128.58999633789062,131.80999755859375,128.19000244140625,131.7100067138672,131.7100067138672,771200
2021-03-15,132.32000732421875,134.52000427246094,131.83999633789062,133.50999450683594,133.50999450683594,1069600
2021-03-16,133.4600067138672,134.41000366210938,132.67999267578125,133.9499969482422,133.9499969482422,614500
2021-03-17,133.9499969482422,133.9499969482422,130.6999969482422,131.33999633789062,131.33999633789062,746600
2021-03-18,130.8699951171875,132.47999572753906,129.74000549316406,132.10000610351562,132.10000610351562,877100
2021-03-19,130.4600067138672,130.7899932861328,126.04000091552734,126.3499984741211,126.3499984741211,2426300
2021-03-22,126.29000091552734,128.5500030517578,126.05000305175781,128.16000366210938,128.16000366210938,615400
2021-03-23,128.44000244140625,130.88999938964844,127.4800033569336,130.39999389648438,130.39999389648438,1088200
2021-03-24,130.1699981689453,131.57000732421875,130.05999755859375,130.97000122070312,130.97000122070312,1025500
2021-03-25,131.6699981689453,131.6699981689453,128.39999389648438,131.0,131.0,679300
2021-03-26,131.52000427246094,132.63999938964844,129.99000549316406,132.58999633789062,132.58999633789062,629000
2021-03-29,133.02999877929688,134.66000366210938,130.9499969482422,133.1999969482422,133.1999969482422,858600
2021-03-30,133.38999938964844,133.8800048828125,131.9499969482422,133.0,133.0,654800
2021-03-31,132.61000061035156,134.75999450683594,131.07000732421875,132.5500030517578,132.5500030517578,1374300
2021-04-01,133.1199951171875,135.4600067138672,132.99000549316406,135.4499969482422,135.4499969482422,1114800
2021-04-05,135.3699951171875,135.5399932861328,132.99000549316406,135.00999450683594,135.00999450683594,866500
2021-04-06,135.0,137.4499969482422,134.13999938964844,137.16000366210938,137.16000366210938,886100
2021-04-07,137.39999389648438,138.07000732421875,136.4199981689453,137.60000610351562,137.60000610351562,732600
2021-04-08,137.25,139.0399932861328,137.25,137.5800018310547,137.5800018310547,596300
2021-04-09,137.94000244140625,138.89999389648438,137.3300018310547,138.3800048828125,138.3800048828125,464200
2021-04-12,138.8800048828125,139.33999633789062,137.30999755859375,139.27000427246094,139.27000427246094,728700
2021-04-13,139.64999389648438,141.74000549316406,139.30999755859375,141.14999389648438,141.14999389648438,707700
2021-04-14,140.39999389648438,140.72999572753906,138.5800018310547,139.02999877929688,139.02999877929688,924100
2021-04-15,139.9499969482422,142.22000122070312,139.77999877929688,142.17999267578125,142.17999267578125,604100
2021-04-16,142.5500030517578,143.0800018310547,141.42999267578125,142.61000061035156,142.61000061035156,559400
2021-04-19,143.00999450683594,144.1199951171875,141.94000244140625,143.92999267578125,143.92999267578125,623800
2021-04-20,144.4199981689453,148.27999877929688,144.4199981689453,146.38999938964844,146.38999938964844,1084500
2021-04-21,146.57000732421875,147.67999267578125,146.00999450683594,146.3800048828125,146.3800048828125,490500
2021-04-22,146.41000366210938,148.14999389648438,145.80999755859375,147.0,147.0,577700
2021-04-23,146.72999572753906,148.0,146.3300018310547,147.5399932861328,147.5399932861328,556900
2021-04-26,148.35000610351562,148.88999938964844,145.8699951171875,146.58999633789062,146.58999633789062,622800
2021-04-27,146.6699981689453,147.5500030517578,145.52999877929688,147.25999450683594,147.25999450683594,457600
2021-04-28,147.86000061035156,148.30999755859375,145.92999267578125,146.5800018310547,146.5800018310547,540600
2021-04-29,147.1699981689453,149.0399932861328,145.63999938964844,146.82000732421875,146.82000732421875,1259400
