Date,Open,High,Low,Close,Adj Close,Volume
2020-10-30,34.459999084472656,35.029998779296875,33.959999084472656,34.529998779296875,34.529998779296875,13074000
2020-11-02,35.119998931884766,35.380001068115234,34.380001068115234,34.54999923706055,34.54999923706055,14648400
2020-11-03,35.099998474121094,35.9900016784668,34.88999938964844,35.349998474121094,35.349998474121094,11439100
2020-11-04,35.310001373291016,35.77000045776367,34.22999954223633,35.2400016784668,35.2400016784668,14740600
2020-11-05,36.900001525878906,37.25,35.34000015258789,37.13999938964844,37.13999938964844,35075000
2020-11-06,37.5,38.13999938964844,37.0099983215332,37.470001220703125,37.470001220703125,18089200
2020-11-09,38.720001220703125,39.720001220703125,38.630001068115234,38.959999084472656,38.959999084472656,22100800
2020-11-10,39.75,41.59000015258789,39.560001373291016,41.08000183105469,41.08000183105469,26746900
2020-11-11,41.290000915527344,41.77000045776367,40.11000061035156,40.560001373291016,40.560001373291016,19841100
2020-11-12,40.11000061035156,40.2400016784668,38.810001373291016,39.31999969482422,39.31999969482422,20239900
2020-11-13,39.689998626708984,41.31999969482422,39.599998474121094,41.189998626708984,41.189998626708984,15004300
2020-11-16,41.77000045776367,42.150001525878906,40.91999816894531,42.130001068115234,42.130001068115234,16692100
2020-11-17,41.849998474121094,42.540000915527344,41.13999938964844,41.97999954223633,41.97999954223633,16088200
2020-11-18,42.189998626708984,44.130001068115234,42.060001373291016,42.720001220703125,42.720001220703125,27632500
2020-11-19,42.61000061035156,43.189998626708984,42.18000030517578,42.81999969482422,42.81999969482422,17214500
2020-11-20,42.810001373291016,43.31999969482422,42.369998931884766,43.040000915527344,43.040000915527344,16881200
2020-11-23,43.959999084472656,45.15999984741211,43.560001373291016,44.77000045776367,44.77000045776367,22569600
2020-11-24,45.90999984741211,46.709999084472656,45.06999969482422,46.459999084472656,46.459999084472656,20048700
2020-11-25,45.61000061035156,46.060001373291016,44.63999938964844,45.459999084472656,45.459999084472656,16122300
2020-11-27,45.349998474121094,45.59000015258789,44.75,45.060001373291016,45.060001373291016,7528800
2020-11-30,44.959999084472656,45.31999969482422,43.619998931884766,43.84000015258789,43.84000015258789,21600500
2020-12-01,44.779998779296875,45.45000076293945,44.0,44.68000030517578,44.68000030517578,12995000
2020-12-02,44.0,44.599998474121094,43.66999816894531,44.58000183105469,44.58000183105469,11280700
2020-12-03,44.790000915527344,44.869998931884766,43.959999084472656,44.09000015258789,44.09000015258789,13437800
2020-12-04,44.400001525878906,44.7400016784668,44.130001068115234,44.400001525878906,44.400001525878906,11895200
2020-12-07,44.400001525878906,44.400001525878906,43.58000183105469,44.310001373291016,44.310001373291016,9207500
2020-12-08,43.720001220703125,44.18000030517578,43.41999816894531,43.79999923706055,43.79999923706055,10160400
2020-12-09,44.130001068115234,44.54999923706055,43.90999984741211,44.43000030517578,44.43000030517578,12470500
2020-12-10,43.83000183105469,43.880001068115234,42.459999084472656,42.869998931884766,42.869998931884766,18235600
2020-12-11,42.47999954223633,42.68000030517578,41.619998931884766,41.91999816894531,41.91999816894531,15555600
2020-12-14,42.4900016784668,42.540000915527344,41.41999816894531,41.619998931884766,41.619998931884766,9995700
2020-12-15,41.9900016784668,42.15999984741211,41.310001373291016,41.65999984741211,41.65999984741211,12531600
2020-12-16,41.790000915527344,41.869998931884766,40.810001373291016,41.41999816894531,41.41999816894531,15134100
2020-12-17,41.709999084472656,42.029998779296875,41.43000030517578,42.029998779296875,42.029998779296875,12081600
2020-12-18,42.02000045776367,42.04999923706055,40.59000015258789,41.0099983215332,41.0099983215332,21808300
2020-12-21,40.2599983215332,41.5,40.060001373291016,41.209999084472656,41.209999084472656,15533900
2020-12-22,41.349998474121094,41.400001525878906,40.54999923706055,40.900001525878906,40.900001525878906,10559000
2020-12-23,41.18000030517578,42.88999938964844,41.099998474121094,42.45000076293945,42.45000076293945,17573100
2020-12-24,42.060001373291016,42.20000076293945,41.209999084472656,41.58000183105469,41.58000183105469,7825400
2020-12-28,42.0,42.189998626708984,41.630001068115234,41.65999984741211,41.65999984741211,10471400
2020-12-29,41.88999938964844,42.130001068115234,41.369998931884766,41.56999969482422,41.56999969482422,7987700
2020-12-30,41.650001525878906,42.20000076293945,41.56999969482422,41.84000015258789,41.84000015258789,6491900
2020-12-31,41.7599983215332,41.79999923706055,41.20000076293945,41.63999938964844,41.63999938964844,11101300
2021-01-04,41.95000076293945,42.119998931884766,40.13999938964844,40.5099983215332,40.5099983215332,15768100
2021-01-05,40.060001373291016,41.84000015258789,40.040000915527344,41.65999984741211,41.65999984741211,18045800
2021-01-06,41.91999816894531,43.849998474121094,41.86000061035156,42.97999954223633,42.97999954223633,22694900
2021-01-07,43.97999954223633,43.97999954223633,42.959999084472656,43.31999969482422,43.31999969482422,13625700
2021-01-08,43.310001373291016,43.4900016784668,42.31999969482422,43.060001373291016,43.060001373291016,18426200
2021-01-11,43.02000045776367,45.279998779296875,42.630001068115234,45.0099983215332,45.0099983215332,25887300
2021-01-12,46.29999923706055,48.95000076293945,45.650001525878906,47.81999969482422,47.81999969482422,63889300
2021-01-13,50.779998779296875,50.970001220703125,48.060001373291016,48.72999954223633,48.72999954223633,49229700
2021-01-14,49.5,51.869998931884766,49.33000183105469,51.529998779296875,51.529998779296875,36839800
2021-01-15,51.29999923706055,51.400001525878906,49.2599983215332,49.970001220703125,49.970001220703125,25293700
2021-01-19,53.689998626708984,55.13999938964844,52.2599983215332,54.84000015258789,54.84000015258789,64144000
2021-01-20,56.22999954223633,56.599998474121094,54.849998474121094,55.86000061035156,55.86000061035156,47428500
2021-01-21,56.33000183105469,56.970001220703125,54.7599983215332,55.08000183105469,55.08000183105469,39886600
2021-01-22,54.5,55.77000045776367,54.27000045776367,55.400001525878906,55.400001525878906,23895600
2021-01-25,54.95000076293945,55.15999984741211,51.02000045776367,53.38999938964844,53.38999938964844,39844200
2021-01-26,53.38999938964844,53.59000015258789,51.810001373291016,52.040000915527344,52.040000915527344,21648200
2021-01-27,50.79999923706055,50.86000061035156,48.709999084472656,49.34000015258789,49.34000015258789,38315200
2021-01-28,49.880001068115234,53.0,49.560001373291016,51.040000915527344,51.040000915527344,37573400
2021-01-29,50.70000076293945,51.779998779296875,49.959999084472656,50.68000030517578,50.68000030517578,26466800
2021-02-01,51.459999084472656,51.95000076293945,50.439998626708984,51.5099983215332,51.5099983215332,21451300
2021-02-02,52.29999923706055,52.97999954223633,51.959999084472656,52.720001220703125,52.720001220703125,20457400
2021-02-03,53.29999923706055,55.04999923706055,53.189998626708984,54.25,54.25,30706500
2021-02-04,53.34000015258789,54.560001373291016,52.970001220703125,54.130001068115234,54.130001068115234,19243300
2021-02-05,54.81999969482422,55.04999923706055,54.150001525878906,54.40999984741211,54.40999984741211,17180100
2021-02-08,56.0,57.04999923706055,55.66999816894531,56.880001068115234,56.880001068115234,26990000
2021-02-09,56.540000915527344,56.939998626708984,55.7400016784668,56.060001373291016,56.060001373291016,25168800
2021-02-10,55.61000061035156,55.689998626708984,52.5099983215332,54.880001068115234,54.880001068115234,55329800
2021-02-11,53.61000061035156,53.79999923706055,52.349998474121094,53.5,53.5,29846000
2021-02-12,53.0,54.189998626708984,52.959999084472656,53.599998474121094,53.599998474121094,15286300
2021-02-16,53.709999084472656,53.9900016784668,53.220001220703125,53.459999084472656,53.459999084472656,18541600
2021-02-17,52.84000015258789,53.33000183105469,52.08000183105469,52.88999938964844,52.88999938964844,13989700
2021-02-18,52.560001373291016,52.619998931884766,51.599998474121094,52.15999984741211,52.15999984741211,17615900
2021-02-19,52.5,53.290000915527344,52.220001220703125,52.56999969482422,52.56999969482422,15354400
2021-02-22,52.0,52.93000030517578,51.880001068115234,51.97999954223633,51.97999954223633,14501300
2021-02-23,51.0,51.380001068115234,49.349998474121094,51.11000061035156,51.11000061035156,21202700
2021-02-24,51.95000076293945,53.209999084472656,51.290000915527344,52.900001525878906,52.900001525878906,18375000
2021-02-25,52.70000076293945,52.93000030517578,50.54999923706055,50.599998474121094,50.599998474121094,20628900
2021-02-26,50.869998931884766,51.72999954223633,49.91999816894531,51.33000183105469,51.33000183105469,17119300
2021-03-01,52.40999984741211,52.81999969482422,51.81999969482422,52.540000915527344,52.540000915527344,15370300
2021-03-02,52.599998474121094,55.290000915527344,52.189998626708984,54.11000061035156,54.11000061035156,36228700
2021-03-03,54.5,54.880001068115234,52.65999984741211,52.66999816894531,52.66999816894531,19638200
2021-03-04,52.9900016784668,54.18000030517578,50.25,51.83000183105469,51.83000183105469,26167600
2021-03-05,52.59000015258789,53.9900016784668,50.47999954223633,53.75,53.75,25166700
2021-03-08,54.290000915527344,56.20000076293945,53.7400016784668,54.97999954223633,54.97999954223633,24428500
2021-03-09,55.36000061035156,55.43000030517578,54.029998779296875,54.650001525878906,54.650001525878906,17878400
2021-03-10,55.0,56.95000076293945,54.880001068115234,56.83000183105469,56.83000183105469,22746200
2021-03-11,56.869998931884766,57.16999816894531,55.939998626708984,56.33000183105469,56.33000183105469,20213600
2021-03-12,56.0,59.619998931884766,55.70000076293945,59.2599983215332,59.2599983215332,29800400
2021-03-15,59.310001373291016,59.310001373291016,57.209999084472656,57.939998626708984,57.939998626708984,19660100
2021-03-16,58.36000061035156,58.56999969482422,56.79999923706055,57.119998931884766,57.119998931884766,15840800
2021-03-17,57.2400016784668,60.119998931884766,57.150001525878906,60.04999923706055,60.04999923706055,23517500
2021-03-18,60.060001373291016,62.2400016784668,58.880001068115234,59.27000045776367,59.27000045776367,34798000
2021-03-19,59.34000015258789,60.31999969482422,58.18000030517578,59.81999969482422,59.81999969482422,23316200
2021-03-22,58.75,58.93000030517578,56.5099983215332,58.099998474121094,58.099998474121094,30094900
2021-03-23,56.9900016784668,57.7599983215332,55.709999084472656,56.15999984741211,56.15999984741211,21280800
2021-03-24,56.68000030517578,57.47999954223633,55.709999084472656,55.810001373291016,55.810001373291016,20567200
2021-03-25,54.599998474121094,56.81999969482422,54.25,56.599998474121094,56.599998474121094,16178500
2021-03-26,57.0099983215332,57.34000015258789,55.349998474121094,56.52000045776367,56.52000045776367,16354700
2021-03-29,56.08000183105469,57.20000076293945,55.7400016784668,55.939998626708984,55.939998626708984,16058400
2021-03-30,56.599998474121094,58.630001068115234,56.400001525878906,58.5099983215332,58.5099983215332,19606800
2021-03-31,58.279998779296875,58.58000183105469,57.27000045776367,57.459999084472656,57.459999084472656,20761300
2021-04-01,57.91999816894531,58.220001220703125,57.040000915527344,57.79999923706055,57.79999923706055,17783600
2021-04-05,59.0,61.189998626708984,58.75,61.040000915527344,61.040000915527344,24633000
2021-04-06,60.5,63.439998626708984,60.439998626708984,61.939998626708984,61.939998626708984,39518700
2021-04-07,61.86000061035156,61.869998931884766,60.689998626708984,60.83000183105469,60.83000183105469,17167900
2021-04-08,60.36000061035156,60.75,58.810001373291016,60.09000015258789,60.09000015258789,19016300
2021-04-09,59.560001373291016,60.380001068115234,59.41999816894531,60.15999984741211,60.15999984741211,12153600
2021-04-12,60.20000076293945,60.290000915527344,59.290000915527344,59.65999984741211,59.65999984741211,10231000
2021-04-13,59.22999954223633,59.540000915527344,57.88999938964844,58.4900016784668,58.4900016784668,17416600
2021-04-14,58.59000015258789,59.650001525878906,58.25,58.47999954223633,58.47999954223633,14618100
2021-04-15,59.45000076293945,59.529998779296875,58.369998931884766,58.61000061035156,58.61000061035156,14395700
2021-04-16,59.0099983215332,59.310001373291016,58.279998779296875,58.709999084472656,58.709999084472656,11083100
2021-04-19,58.56999969482422,58.7400016784668,57.22999954223633,57.880001068115234,57.880001068115234,12262500
2021-04-20,57.119998931884766,57.279998779296875,54.91999816894531,55.77000045776367,55.77000045776367,23736100
2021-04-21,55.279998779296875,57.5,54.709999084472656,57.4900016784668,57.4900016784668,14648700
2021-04-22,57.540000915527344,57.79999923706055,56.130001068115234,56.65999984741211,56.65999984741211,15822200
2021-04-23,56.77000045776367,57.7400016784668,56.43000030517578,57.529998779296875,57.529998779296875,10803300
2021-04-26,57.86000061035156,58.58000183105469,57.65999984741211,58.209999084472656,58.209999084472656,11553900
2021-04-27,58.27000045776367,59.099998474121094,58.02000045776367,58.970001220703125,58.970001220703125,9293500
2021-04-28,59.0,59.0,58.27000045776367,58.54999923706055,58.54999923706055,10485200
2021-04-29,57.7400016784668,57.75,55.689998626708984,56.56999969482422,56.56999969482422,21302400
