Date,Open,High,Low,Close,Adj Close,Volume
2020-10-30,1667.43994140625,1681.3199462890625,1601.5699462890625,1616.1099853515625,1616.1099853515625,4993900
2020-11-02,1623.5400390625,1658.239990234375,1614.239990234375,1624.3199462890625,1624.3199462890625,2211400
2020-11-03,1630.760009765625,1659.0,1612.1099853515625,1645.6600341796875,1645.6600341796875,1571600
2020-11-04,1705.5799560546875,1770.030029296875,1703.0,1745.8499755859375,1745.8499755859375,3567100
2020-11-05,1770.449951171875,1791.8199462890625,1741.030029296875,1762.5,1762.5,1987900
2020-11-06,1751.3399658203125,1768.5,1736.6800537109375,1759.72998046875,1759.72998046875,1431100
2020-11-09,1795.97998046875,1816.8900146484375,1757.550048828125,1761.4200439453125,1761.4200439453125,2672000
2020-11-10,1729.77001953125,1759.3800048828125,1716.1199951171875,1737.719970703125,1737.719970703125,2151100
2020-11-11,1748.4000244140625,1762.9000244140625,1743.06005859375,1747.22998046875,1747.22998046875,1591900
2020-11-12,1742.0,1764.97998046875,1737.969970703125,1742.8199462890625,1742.8199462890625,1323700
2020-11-13,1748.0,1777.1300048828125,1735.97998046875,1772.260009765625,1772.260009765625,1487200
2020-11-16,1764.1400146484375,1794.3399658203125,1761.3299560546875,1774.030029296875,1774.030029296875,1273400
2020-11-17,1767.8599853515625,1777.1400146484375,1759.489990234375,1761.6600341796875,1761.6600341796875,1065700
2020-11-18,1756.6400146484375,1765.0,1738.5699462890625,1740.6400146484375,1740.6400146484375,1005400
2020-11-19,1733.22998046875,1763.489990234375,1730.02001953125,1758.5699462890625,1758.5699462890625,1005300
2020-11-20,1762.0,1768.3599853515625,1735.0,1736.3800048828125,1736.3800048828125,1384700
2020-11-23,1740.219970703125,1745.989990234375,1710.1800537109375,1727.56005859375,1727.56005859375,1126500
2020-11-24,1727.5,1766.47998046875,1720.72998046875,1763.9000244140625,1763.9000244140625,1399200
2020-11-25,1767.81005859375,1770.3800048828125,1748.3599853515625,1764.1300048828125,1764.1300048828125,980000
2020-11-27,1764.5400390625,1797.010009765625,1764.5400390625,1787.02001953125,1787.02001953125,739500
2020-11-30,1775.6500244140625,1780.3399658203125,1747.8399658203125,1754.4000244140625,1754.4000244140625,1620900
2020-12-01,1766.6600341796875,1821.719970703125,1763.030029296875,1795.3599853515625,1795.3599853515625,1868100
2020-12-02,1795.3599853515625,1832.739990234375,1785.1700439453125,1824.969970703125,1824.969970703125,1471200
2020-12-03,1820.5400390625,1843.8299560546875,1817.0,1821.8399658203125,1821.8399658203125,1236400
2020-12-04,1820.219970703125,1829.5,1813.5899658203125,1823.760009765625,1823.760009765625,1027200
2020-12-07,1815.550048828125,1829.2900390625,1803.0400390625,1817.030029296875,1817.030029296875,1114400
2020-12-08,1808.52001953125,1815.969970703125,1791.280029296875,1811.3299560546875,1811.3299560546875,996800
2020-12-09,1810.3599853515625,1828.3699951171875,1762.0,1777.8599853515625,1777.8599853515625,1586400
2020-12-10,1762.5999755859375,1774.989990234375,1733.530029296875,1767.6500244140625,1767.6500244140625,1434400
2020-12-11,1760.0,1777.31005859375,1752.739990234375,1774.800048828125,1774.800048828125,931400
2020-12-14,1770.719970703125,1789.800048828125,1749.1300048828125,1752.260009765625,1752.260009765625,1652500
2020-12-15,1759.8599853515625,1764.0,1741.6700439453125,1761.0799560546875,1761.0799560546875,1068300
2020-12-16,1769.1099853515625,1769.1099853515625,1749.06005859375,1757.18994140625,1757.18994140625,1233800
2020-12-17,1763.9300537109375,1766.7099609375,1731.1500244140625,1740.510009765625,1740.510009765625,1744000
2020-12-18,1746.1700439453125,1748.3599853515625,1715.0,1726.219970703125,1726.219970703125,4262800
2020-12-21,1709.1300048828125,1737.0,1694.0,1734.56005859375,1734.56005859375,1698700
2020-12-22,1729.3299560546875,1732.6099853515625,1705.780029296875,1720.219970703125,1720.219970703125,1018500
2020-12-23,1723.9300537109375,1744.1099853515625,1721.199951171875,1728.22998046875,1728.22998046875,1148700
2020-12-24,1729.0,1742.4100341796875,1724.3499755859375,1734.1600341796875,1734.1600341796875,465600
2020-12-28,1744.9100341796875,1787.0,1741.8199462890625,1773.9599609375,1773.9599609375,1382500
2020-12-29,1787.22998046875,1788.469970703125,1755.1099853515625,1757.760009765625,1757.760009765625,986300
2020-12-30,1765.0,1767.760009765625,1728.0,1736.25,1736.25,1051300
2020-12-31,1737.27001953125,1757.5,1736.0899658203125,1752.6400146484375,1752.6400146484375,1053500
2021-01-04,1760.0,1762.489990234375,1707.1400146484375,1726.1300048828125,1726.1300048828125,1866200
2021-01-05,1725.0899658203125,1746.8299560546875,1716.9000244140625,1740.050048828125,1740.050048828125,1018000
2021-01-06,1700.260009765625,1743.969970703125,1696.0999755859375,1722.8800048828125,1722.8800048828125,2329400
2021-01-07,1726.760009765625,1777.8199462890625,1726.760009765625,1774.3399658203125,1774.3399658203125,2096800
2021-01-08,1777.1600341796875,1799.3599853515625,1761.219970703125,1797.8299560546875,1797.8299560546875,1774200
2021-01-11,1777.02001953125,1784.3800048828125,1752.1400146484375,1756.2900390625,1756.2900390625,1740600
2021-01-12,1745.3599853515625,1767.9000244140625,1716.3800048828125,1737.4300537109375,1737.4300537109375,1476400
2021-01-13,1727.3199462890625,1756.3900146484375,1727.3199462890625,1747.25,1747.25,1171600
2021-01-14,1748.8699951171875,1767.550048828125,1726.0699462890625,1730.9200439453125,1730.9200439453125,1460600
2021-01-15,1729.02001953125,1747.6199951171875,1711.7099609375,1727.6199951171875,1727.6199951171875,1572200
2021-01-19,1743.0,1803.8399658203125,1732.8299560546875,1784.469970703125,1784.469970703125,2083000
2021-01-20,1826.3699951171875,1899.719970703125,1819.510009765625,1880.0699462890625,1880.0699462890625,3207600
2021-01-21,1893.6500244140625,1932.0799560546875,1879.4100341796875,1884.1500244140625,1884.1500244140625,2933000
2021-01-22,1891.4599609375,1904.3900146484375,1876.5,1892.56005859375,1892.56005859375,1637200
2021-01-25,1912.739990234375,1921.8199462890625,1859.1600341796875,1894.280029296875,1894.280029296875,2529300
2021-01-26,1885.989990234375,1915.75,1876.1300048828125,1907.949951171875,1907.949951171875,1573100
2021-01-27,1874.9100341796875,1880.469970703125,1797.280029296875,1818.93994140625,1818.93994140625,4125600
2021-01-28,1831.0,1887.989990234375,1831.0,1853.199951171875,1853.199951171875,2763900
2021-01-29,1834.02001953125,1847.5400390625,1801.56005859375,1827.3599853515625,1827.3599853515625,2225200
2021-02-01,1844.5899658203125,1915.5400390625,1844.5899658203125,1893.0699462890625,1893.0699462890625,2012600
2021-02-02,1913.1300048828125,1949.3699951171875,1906.3699951171875,1919.1199951171875,1919.1199951171875,3316600
2021-02-03,2065.610107421875,2106.6201171875,2013.550048828125,2058.8798828125,2058.8798828125,4894100
2021-02-04,2060.6201171875,2069.300048828125,2035.0999755859375,2053.6298828125,2053.6298828125,2429800
2021-02-05,2059.56005859375,2095.93994140625,2050.0,2088.830078125,2088.830078125,1489700
2021-02-08,2100.0,2115.0,2063.35009765625,2084.52001953125,2084.52001953125,1441400
2021-02-09,2074.800048828125,2098.510009765625,2070.0,2075.389892578125,2075.389892578125,1094600
2021-02-10,2083.139892578125,2098.8798828125,2052.239990234375,2086.47998046875,2086.47998046875,1255100
2021-02-11,2091.0,2094.0,2068.860107421875,2088.75,2088.75,1021200
2021-02-12,2079.77001953125,2099.5,2073.570068359375,2095.030029296875,2095.030029296875,948500
2021-02-16,2091.75,2145.139892578125,2091.75,2110.699951171875,2110.699951171875,1550200
2021-02-17,2093.97998046875,2122.43994140625,2088.35009765625,2118.6201171875,2118.6201171875,1014700
2021-02-18,2105.0,2121.989990234375,2093.330078125,2105.81005859375,2105.81005859375,1127300
2021-02-19,2107.7900390625,2118.580078125,2083.429931640625,2088.81005859375,2088.81005859375,1896900
2021-02-22,2053.60009765625,2080.330078125,2048.0,2054.260009765625,2054.260009765625,1473300
2021-02-23,2013.989990234375,2072.5,1990.22998046875,2060.1201171875,2060.1201171875,1732900
2021-02-24,2030.0400390625,2088.320068359375,2027.530029296875,2083.81005859375,2083.81005859375,1130400
2021-02-25,2055.929931640625,2083.0,2006.489990234375,2015.949951171875,2015.949951171875,2077400
2021-02-26,2029.949951171875,2056.52001953125,2001.010009765625,2021.9100341796875,2021.9100341796875,2001500
2021-03-01,2048.0,2076.22998046875,2034.4200439453125,2069.659912109375,2069.659912109375,1303000
2021-03-02,2064.840087890625,2094.739990234375,2056.669921875,2064.47998046875,2064.47998046875,1277500
2021-03-03,2051.949951171875,2075.989990234375,1994.0,2011.4100341796875,2011.4100341796875,1692200
2021-03-04,2014.8699951171875,2074.590087890625,2005.4300537109375,2033.9300537109375,2033.9300537109375,2457700
2021-03-05,2061.14990234375,2106.199951171875,2027.780029296875,2097.070068359375,2097.070068359375,2649400
2021-03-08,2084.06005859375,2113.739990234375,2005.18994140625,2007.5,2007.5,1842700
2021-03-09,2049.75,2063.919921875,2035.5999755859375,2040.3599853515625,2040.3599853515625,1693300
2021-03-10,2061.39990234375,2061.39990234375,2019.3299560546875,2036.18994140625,2036.18994140625,1353100
2021-03-11,2058.219970703125,2111.27001953125,2056.449951171875,2100.5400390625,2100.5400390625,1384200
2021-03-12,2076.409912109375,2077.610107421875,2032.4200439453125,2050.0,2050.0,1690000
2021-03-15,2044.97998046875,2054.989990234375,2027.7900390625,2054.43994140625,2054.43994140625,1308400
2021-03-16,2065.989990234375,2113.679931640625,2059.2900390625,2083.889892578125,2083.889892578125,1592800
2021-03-17,2068.469970703125,2099.0,2044.1199951171875,2082.219970703125,2082.219970703125,1292400
2021-03-18,2048.179931640625,2068.75,2019.1800537109375,2021.3399658203125,2021.3399658203125,1585000
2021-03-19,2029.72998046875,2037.0400390625,2002.9300537109375,2026.9599609375,2026.9599609375,2302700
2021-03-22,2027.6300048828125,2048.340087890625,2014.0,2030.68994140625,2030.68994140625,1676800
2021-03-23,2039.949951171875,2064.110107421875,2028.0,2041.3299560546875,2041.3299560546875,1425500
2021-03-24,2051.760009765625,2067.60009765625,2029.0,2032.530029296875,2032.530029296875,1260900
2021-03-25,2029.050048828125,2045.6400146484375,1996.0899658203125,2032.4599609375,2032.4599609375,1780800
2021-03-26,2031.7900390625,2039.3900146484375,2003.8499755859375,2024.72998046875,2024.72998046875,1398300
2021-03-29,2022.1600341796875,2049.2099609375,2005.449951171875,2045.7900390625,2045.7900390625,1324600
2021-03-30,2052.97998046875,2062.669921875,2036.1500244140625,2046.469970703125,2046.469970703125,1365600
2021-03-31,2054.39990234375,2086.260009765625,2047.0,2062.52001953125,2062.52001953125,2128500
2021-04-01,2092.25,2135.75,2091.429931640625,2129.780029296875,2129.780029296875,1994000
2021-04-05,2147.14990234375,2228.989990234375,2145.2099609375,2218.9599609375,2218.9599609375,2425500
2021-04-06,2210.919921875,2228.0,2201.7900390625,2209.260009765625,2209.260009765625,1762000
2021-04-07,2213.10009765625,2244.5,2213.10009765625,2239.030029296875,2239.030029296875,1206700
2021-04-08,2264.0,2271.7900390625,2243.010009765625,2250.429931640625,2250.429931640625,1433200
2021-04-09,2245.43994140625,2273.969970703125,2237.260009765625,2270.669921875,2270.669921875,1304400
2021-04-12,2254.1201171875,2256.889892578125,2227.820068359375,2244.6201171875,2244.6201171875,1251200
2021-04-13,2250.989990234375,2263.469970703125,2243.050048828125,2254.429931640625,2254.429931640625,1284100
2021-04-14,2267.429931640625,2267.429931640625,2236.02001953125,2241.909912109375,2241.909912109375,1050100
2021-04-15,2261.949951171875,2296.0,2251.169921875,2285.25,2285.25,1458700
2021-04-16,2289.239990234375,2294.239990234375,2270.919921875,2282.75,2282.75,1313600
2021-04-19,2270.179931640625,2304.090087890625,2270.179931640625,2289.760009765625,2289.760009765625,1514500
2021-04-20,2297.489990234375,2299.0,2257.1201171875,2279.010009765625,2279.010009765625,1114400
2021-04-21,2272.050048828125,2280.0,2244.820068359375,2278.35009765625,2278.35009765625,1160200
2021-04-22,2275.39990234375,2288.8798828125,2240.320068359375,2252.52001953125,2252.52001953125,1207300
2021-04-23,2267.0,2306.1201171875,2261.25,2299.929931640625,2299.929931640625,1453300
2021-04-26,2304.52001953125,2324.530029296875,2297.320068359375,2309.929931640625,2309.929931640625,1601900
2021-04-27,2317.6298828125,2318.449951171875,2286.159912109375,2290.97998046875,2290.97998046875,2219300
2021-04-28,2392.5,2431.3798828125,2353.219970703125,2359.0400390625,2359.0400390625,4055300
2021-04-29,2389.22998046875,2404.159912109375,2373.85009765625,2392.760009765625,2392.760009765625,2057100
