Date,Open,High,Low,Close,Adj Close,Volume
2020-10-30,11.579999923706055,12.09000015258789,11.479999542236328,12.0600004196167,12.004703521728516,16135900
2020-11-02,12.350000381469727,12.989999771118164,11.979999542236328,12.800000190734863,12.741310119628906,15822600
2020-11-03,13.130000114440918,13.260000228881836,12.760000228881836,12.989999771118164,12.930438995361328,13231800
2020-11-04,12.960000038146973,13.25,12.369999885559082,12.710000038146973,12.65172290802002,19084400
2020-11-05,12.6899995803833,13.029999732971191,12.550000190734863,12.569999694824219,12.512364387512207,11946800
2020-11-06,12.5,12.789999961853027,12.270000457763672,12.279999732971191,12.22369384765625,10871300
2020-11-09,14.199999809265137,15.119999885559082,14.100000381469727,14.380000114440918,14.314064979553223,25174500
2020-11-10,14.229999542236328,14.6899995803833,13.850000381469727,14.380000114440918,14.314064979553223,14627600
2020-11-11,14.569999694824219,14.59000015258789,13.869999885559082,14.180000305175781,14.114982604980469,8998400
2020-11-12,13.899999618530273,14.3100004196167,13.779999732971191,13.920000076293945,13.856173515319824,9915500
2020-11-13,14.020000457763672,14.430000305175781,13.869999885559082,14.329999923706055,14.264294624328613,9683900
2020-11-16,15.039999961853027,15.569999694824219,14.800000190734863,15.460000038146973,15.38911247253418,12832200
2020-11-17,15.09000015258789,15.84000015258789,14.960000038146973,15.8100004196167,15.737508773803711,10451700
2020-11-18,15.850000381469727,16.280000686645508,15.380000114440918,15.390000343322754,15.31943416595459,12951400
2020-11-19,15.210000038146973,16.079999923706055,15.039999961853027,16.0,15.926636695861816,12055800
2020-11-20,15.920000076293945,16.06999969482422,15.569999694824219,15.899999618530273,15.827095031738281,7826600
2020-11-23,16.260000228881836,17.489999771118164,16.149999618530273,17.31999969482422,17.240583419799805,17849200
2020-11-24,18.0,18.280000686645508,17.719999313354492,17.90999984741211,17.827878952026367,15620900
2020-11-25,17.5,17.950000762939453,17.399999618530273,17.860000610351562,17.778108596801758,11051000
2020-11-27,17.65999984741211,17.969999313354492,17.469999313354492,17.559999465942383,17.47948455810547,4548200
2020-11-30,17.360000610351562,17.549999237060547,16.559999465942383,16.59000015258789,16.513933181762695,15727300
2020-12-01,17.239999771118164,17.360000610351562,16.81999969482422,17.079999923706055,17.001684188842773,9604700
2020-12-02,16.899999618530273,18.079999923706055,16.780000686645508,17.610000610351562,17.5755615234375,9738700
2020-12-03,17.790000915527344,18.309999465942383,17.510000228881836,18.020000457763672,17.984758377075195,11624700
2020-12-04,18.610000610351562,19.530000686645508,18.420000076293945,19.43000030517578,19.39200210571289,14895800
2020-12-07,19.40999984741211,19.59000015258789,18.860000610351562,18.969999313354492,18.932899475097656,12267800
2020-12-08,18.549999237060547,19.809999465942383,18.530000686645508,19.760000228881836,19.721355438232422,12226800
2020-12-09,19.829999923706055,20.360000610351562,19.270000457763672,19.510000228881836,19.471845626831055,16962300
2020-12-10,19.0,20.309999465942383,18.920000076293945,19.989999771118164,19.950904846191406,11667800
2020-12-11,19.75,20.0,19.399999618530273,19.829999923706055,19.791217803955078,10482700
2020-12-14,20.1299991607666,20.239999771118164,18.829999923706055,18.959999084472656,18.92291831970215,11775700
2020-12-15,19.350000381469727,20.149999618530273,19.239999771118164,20.06999969482422,20.03074836730957,15822900
2020-12-16,20.010000228881836,20.540000915527344,19.8700008392334,20.139999389648438,20.10061264038086,13388100
2020-12-17,20.34000015258789,20.5,19.790000915527344,20.079999923706055,20.040729522705078,9508600
2020-12-18,20.0,20.290000915527344,19.559999465942383,19.68000030517578,19.641511917114258,15807500
2020-12-21,18.81999969482422,19.600000381469727,18.579999923706055,19.350000381469727,19.312158584594727,8714800
2020-12-22,19.360000610351562,19.520000457763672,19.06999969482422,19.1200008392334,19.08260726928711,6426000
2020-12-23,19.280000686645508,19.979999542236328,19.229999542236328,19.479999542236328,19.44190216064453,9276600
2020-12-24,19.56999969482422,19.59000015258789,18.989999771118164,19.209999084472656,19.17243003845215,2895500
2020-12-28,19.25,19.59000015258789,18.850000381469727,18.889999389648438,18.853055953979492,6525700
2020-12-29,19.0,19.049999237060547,18.329999923706055,18.639999389648438,18.603546142578125,9828800
2020-12-30,18.639999389648438,19.18000030517578,18.559999465942383,19.1200008392334,19.08260726928711,7746500
2020-12-31,19.030000686645508,19.1200008392334,18.829999923706055,18.899999618530273,18.863037109375,6940500
2021-01-04,19.219999313354492,19.469999313354492,18.56999969482422,18.829999923706055,18.793174743652344,8898700
2021-01-05,19.170000076293945,20.989999771118164,19.010000228881836,20.40999984741211,20.370084762573242,15912300
2021-01-06,20.93000030517578,21.040000915527344,20.510000228881836,20.81999969482422,20.779281616210938,16165100
2021-01-07,20.969999313354492,21.209999084472656,20.200000762939453,20.350000381469727,20.31020164489746,13680500
2021-01-08,20.68000030517578,20.68000030517578,19.8700008392334,20.1200008392334,20.080652236938477,8343300
2021-01-11,19.3799991607666,20.690000534057617,19.270000457763672,20.56999969482422,20.52977180480957,11413400
2021-01-12,20.889999389648438,22.229999542236328,20.670000076293945,22.1299991607666,22.086719512939453,15816300
2021-01-13,21.969999313354492,21.989999771118164,21.389999389648438,21.56999969482422,21.527814865112305,10586600
2021-01-14,21.6299991607666,22.190000534057617,21.559999465942383,21.760000228881836,21.717445373535156,10215400
2021-01-15,21.290000915527344,21.450000762939453,20.440000534057617,20.739999771118164,20.699438095092773,12252400
2021-01-19,21.110000610351562,21.350000381469727,20.299999237060547,20.540000915527344,20.49983024597168,16808900
2021-01-20,21.389999389648438,21.389999389648438,19.809999465942383,20.079999923706055,20.040729522705078,13376100
2021-01-21,19.969999313354492,20.389999389648438,19.229999542236328,19.40999984741211,19.372039794921875,12081900
2021-01-22,18.899999618530273,19.290000915527344,18.450000762939453,19.239999771118164,19.20237159729004,14149600
2021-01-25,18.989999771118164,19.139999389648438,18.239999771118164,18.6299991607666,18.593564987182617,12581800
2021-01-26,18.8799991607666,19.1200008392334,18.200000762939453,18.200000762939453,18.16440773010254,9965600
2021-01-27,17.719999313354492,18.229999542236328,17.229999542236328,17.280000686645508,17.246206283569336,16088400
2021-01-28,17.5,18.5,17.5,18.270000457763672,18.234270095825195,11646800
2021-01-29,18.1200008392334,18.309999465942383,17.510000228881836,17.6299991607666,17.59552001953125,11353600
2021-02-01,18.020000457763672,18.18000030517578,17.56999969482422,17.860000610351562,17.825071334838867,8551800
2021-02-02,18.489999771118164,18.6299991607666,18.020000457763672,18.020000457763672,17.984758377075195,8862800
2021-02-03,18.149999618530273,18.84000015258789,18.100000381469727,18.809999465942383,18.773212432861328,9751500
2021-02-04,18.979999542236328,19.139999389648438,18.540000915527344,19.110000610351562,19.072628021240234,8881400
2021-02-05,19.549999237060547,19.670000076293945,18.959999084472656,18.979999542236328,18.942880630493164,12023600
2021-02-08,19.260000228881836,20.110000610351562,19.149999618530273,20.040000915527344,20.000808715820312,9163400
2021-02-09,19.81999969482422,20.09000015258789,19.290000915527344,19.790000915527344,19.751296997070312,14852700
2021-02-10,19.920000076293945,20.309999465942383,19.59000015258789,20.260000228881836,20.220378875732422,9761000
2021-02-11,20.059999465942383,20.06999969482422,19.030000686645508,19.43000030517578,19.39200210571289,9641400
2021-02-12,19.260000228881836,20.270000457763672,19.149999618530273,20.170000076293945,20.13055419921875,9487400
2021-02-16,20.59000015258789,20.899999618530273,20.360000610351562,20.600000381469727,20.55971336364746,10700400
2021-02-17,20.899999618530273,20.950000762939453,20.010000228881836,20.549999237060547,20.509809494018555,9239900
2021-02-18,20.34000015258789,20.3700008392334,19.389999389648438,19.56999969482422,19.531726837158203,11379800
2021-02-19,19.56999969482422,20.299999237060547,19.5,20.200000762939453,20.16049575805664,7533400
2021-02-22,20.200000762939453,21.709999084472656,19.399999618530273,21.1299991607666,21.088674545288086,12612300
2021-02-23,21.260000228881836,21.329999923706055,19.770000457763672,20.940000534057617,20.8990478515625,10620100
2021-02-24,21.059999465942383,22.549999237060547,20.93000030517578,22.270000457763672,22.22644805908203,14926400
2021-02-25,22.549999237060547,22.729999542236328,21.719999313354492,22.030000686645508,21.98691749572754,13896200
2021-02-26,21.81999969482422,22.1299991607666,20.8700008392334,21.829999923706055,21.787307739257812,12612100
2021-03-01,22.329999923706055,23.030000686645508,22.15999984741211,23.010000228881836,22.96500015258789,12624000
2021-03-02,22.8700008392334,23.43000030517578,22.260000228881836,22.280000686645508,22.280000686645508,9701900
2021-03-03,22.5,22.889999389648438,22.15999984741211,22.280000686645508,22.280000686645508,12312700
2021-03-04,22.489999771118164,22.989999771118164,21.079999923706055,22.079999923706055,22.079999923706055,17446200
2021-03-05,22.850000381469727,23.899999618530273,22.049999237060547,23.84000015258789,23.84000015258789,16435200
2021-03-08,23.950000762939453,24.739999771118164,23.75,24.360000610351562,24.360000610351562,14464300
2021-03-09,24.06999969482422,24.329999923706055,23.450000762939453,23.469999313354492,23.469999313354492,11550100
2021-03-10,23.420000076293945,24.280000686645508,23.31999969482422,24.139999389648438,24.139999389648438,8825500
2021-03-11,24.170000076293945,24.700000762939453,23.790000915527344,23.84000015258789,23.84000015258789,9177200
2021-03-12,23.850000381469727,24.260000228881836,23.68000030517578,24.020000457763672,24.020000457763672,7243500
2021-03-15,24.09000015258789,24.43000030517578,23.670000076293945,23.969999313354492,23.969999313354492,8136400
2021-03-16,23.530000686645508,23.530000686645508,22.6299991607666,22.8700008392334,22.8700008392334,11010300
2021-03-17,22.610000610351562,23.43000030517578,22.559999465942383,23.350000381469727,23.350000381469727,11567700
2021-03-18,23.1299991607666,23.399999618530273,22.040000915527344,22.170000076293945,22.170000076293945,11324400
2021-03-19,22.030000686645508,22.420000076293945,21.709999084472656,21.790000915527344,21.790000915527344,23220900
2021-03-22,21.75,21.81999969482422,21.280000686645508,21.540000915527344,21.540000915527344,11003900
2021-03-23,21.0,21.450000762939453,20.56999969482422,20.809999465942383,20.809999465942383,11882500
2021-03-24,21.290000915527344,21.729999542236328,21.15999984741211,21.299999237060547,21.299999237060547,9751800
2021-03-25,20.709999084472656,21.260000228881836,20.030000686645508,21.200000762939453,21.200000762939453,11137300
2021-03-26,21.709999084472656,21.809999465942383,21.229999542236328,21.790000915527344,21.790000915527344,9761900
2021-03-29,21.549999237060547,21.579999923706055,20.8799991607666,21.239999771118164,21.239999771118164,6864200
2021-03-30,21.0,21.68000030517578,20.959999084472656,21.5,21.5,7878500
2021-03-31,21.579999923706055,21.799999237060547,21.280000686645508,21.459999084472656,21.459999084472656,6526800
2021-04-01,21.65999984741211,21.950000762939453,21.260000228881836,21.920000076293945,21.920000076293945,7417700
2021-04-05,21.920000076293945,21.950000762939453,21.110000610351562,21.31999969482422,21.31999969482422,7572700
2021-04-06,21.479999542236328,22.0,21.229999542236328,21.260000228881836,21.260000228881836,7135900
2021-04-07,21.350000381469727,21.600000381469727,21.139999389648438,21.420000076293945,21.420000076293945,5875500
2021-04-08,21.139999389648438,21.489999771118164,20.670000076293945,21.350000381469727,21.350000381469727,7057700
2021-04-09,21.399999618530273,21.6200008392334,20.93000030517578,21.06999969482422,21.06999969482422,4708100
2021-04-12,21.280000686645508,21.5,20.799999237060547,21.020000457763672,21.020000457763672,4839800
2021-04-13,20.979999542236328,21.049999237060547,20.540000915527344,20.68000030517578,20.68000030517578,5474800
2021-04-14,20.979999542236328,21.989999771118164,20.90999984741211,21.65999984741211,21.65999984741211,9667000
2021-04-15,21.84000015258789,21.860000610351562,20.950000762939453,21.079999923706055,21.079999923706055,6516600
2021-04-16,21.260000228881836,21.350000381469727,20.549999237060547,20.690000534057617,20.690000534057617,8429500
2021-04-19,20.6200008392334,21.049999237060547,20.579999923706055,20.670000076293945,20.670000076293945,6721100
2021-04-20,20.5,20.600000381469727,19.579999923706055,19.809999465942383,19.809999465942383,10589300
2021-04-21,18.510000228881836,19.440000534057617,18.350000381469727,19.100000381469727,19.100000381469727,19098900
2021-04-22,19.270000457763672,19.530000686645508,18.90999984741211,19.219999313354492,19.219999313354492,11119100
2021-04-23,19.270000457763672,19.360000610351562,18.889999389648438,19.059999465942383,19.059999465942383,12328900
2021-04-26,19.040000915527344,19.68000030517578,19.030000686645508,19.43000030517578,19.43000030517578,9396600
2021-04-27,19.399999618530273,19.520000457763672,18.639999389648438,19.31999969482422,19.31999969482422,9372500
2021-04-28,19.5,20.239999771118164,19.43000030517578,20.139999389648438,20.139999389648438,9161600
2021-04-29,20.389999389648438,20.610000610351562,19.899999618530273,20.360000610351562,20.360000610351562,9484800
