Date,Open,High,Low,Close,Adj Close,Volume
2020-10-30,398.2200012207031,402.1199951171875,392.489990234375,399.2799987792969,398.01220703125,942600
2020-11-02,404.0,413.0199890136719,398.8699951171875,408.5799865722656,407.28265380859375,1079000
2020-11-03,410.69000244140625,430.44000244140625,409.6700134277344,423.42999267578125,422.08551025390625,971000
2020-11-04,445.010009765625,474.70001220703125,445.010009765625,452.010009765625,450.5747985839844,1982100
2020-11-05,459.989990234375,462.4200134277344,438.9800109863281,440.7900085449219,439.3904113769531,1324400
2020-11-06,439.54998779296875,439.55999755859375,428.260009765625,432.54998779296875,431.1765441894531,681800
2020-11-09,448.05999755859375,453.9599914550781,422.55999755859375,422.989990234375,421.64691162109375,955100
2020-11-10,422.30999755859375,431.3399963378906,408.8900146484375,430.6700134277344,429.30255126953125,1097400
2020-11-11,433.489990234375,434.8699951171875,421.6400146484375,426.0,424.6473693847656,978600
2020-11-12,426.79998779296875,434.8999938964844,423.010009765625,431.79998779296875,430.428955078125,755200
2020-11-13,435.1600036621094,436.3399963378906,427.7799987792969,433.3999938964844,432.02386474609375,702400
2020-11-16,434.6700134277344,437.8699951171875,423.8599853515625,428.5400085449219,427.1793212890625,652300
2020-11-17,425.17999267578125,426.75,418.0400085449219,422.2300109863281,420.88934326171875,571200
2020-11-18,422.739990234375,424.0,413.7200012207031,418.44000244140625,417.1113586425781,545200
2020-11-19,416.6199951171875,419.3299865722656,405.5400085449219,407.1700134277344,405.8771667480469,1489900
2020-11-20,405.5400085449219,410.0,401.6700134277344,406.2099914550781,404.9201965332031,743900
2020-11-23,409.3299865722656,412.57000732421875,404.6700134277344,409.2900085449219,407.9904479980469,1093500
2020-11-24,408.5799865722656,417.989990234375,407.9599914550781,408.19000244140625,406.8939208984375,675200
2020-11-25,410.7699890136719,410.7699890136719,400.05999755859375,401.0400085449219,399.7666320800781,750900
2020-11-27,400.92999267578125,408.239990234375,400.92999267578125,406.489990234375,405.1993103027344,310100
2020-11-30,404.010009765625,406.2900085449219,395.1000061035156,400.5199890136719,399.2482604980469,1336700
2020-12-01,405.010009765625,417.54998779296875,403.010009765625,405.7200012207031,404.4317626953125,1070800
2020-12-02,407.0400085449219,408.6300048828125,403.4200134277344,405.75,404.461669921875,793300
2020-12-03,406.0199890136719,411.6400146484375,401.6400146484375,403.8299865722656,402.5477294921875,701100
2020-12-04,403.80999755859375,413.0400085449219,403.0,412.7799987792969,411.4693603515625,522700
2020-12-07,409.7799987792969,412.79998779296875,398.6700134277344,403.739990234375,402.4580383300781,613600
2020-12-08,402.79998779296875,410.260009765625,401.6199951171875,409.2799987792969,407.9804382324219,731100
2020-12-09,410.0,412.0,404.4700012207031,408.1400146484375,406.8440856933594,1072000
2020-12-10,408.510009765625,408.739990234375,397.2300109863281,397.4800109863281,396.21795654296875,833600
2020-12-11,397.7300109863281,397.92999267578125,388.489990234375,391.1300048828125,389.8880920410156,798000
2020-12-14,393.3599853515625,395.5299987792969,386.4700012207031,388.2300109863281,386.997314453125,1197300
2020-12-15,391.0,395.2099914550781,385.760009765625,392.3299865722656,391.08428955078125,971000
2020-12-16,392.0,396.0899963378906,386.2300109863281,392.760009765625,391.512939453125,762600
2020-12-17,393.6400146484375,398.6600036621094,393.489990234375,396.3399963378906,395.08154296875,769500
2020-12-18,396.1700134277344,397.1300048828125,387.260009765625,391.6199951171875,390.37652587890625,1316400
2020-12-21,386.5799865722656,390.1499938964844,381.239990234375,389.010009765625,387.77484130859375,851000
2020-12-22,388.32000732421875,390.1199951171875,384.4700012207031,388.44000244140625,387.2066345214844,678300
2020-12-23,391.55999755859375,408.04998779296875,391.0,405.0899963378906,403.8037414550781,1638500
2020-12-24,403.8900146484375,407.25,403.0,404.8299865722656,403.5445556640625,271100
2020-12-28,407.7900085449219,412.0,403.5199890136719,410.19000244140625,408.8875732421875,993200
2020-12-29,412.3699951171875,414.0299987792969,406.3800048828125,408.04998779296875,406.7543640136719,591100
2020-12-30,405.8399963378906,410.8999938964844,404.7699890136719,406.1099853515625,405.4414978027344,531800
2020-12-31,407.6000061035156,411.010009765625,403.29998779296875,410.2699890136719,409.59466552734375,558300
2021-01-04,417.82000732421875,417.989990234375,400.489990234375,412.19000244140625,411.51153564453125,1268200
2021-01-05,408.9200134277344,417.010009765625,408.9200134277344,413.17999267578125,412.4998779296875,958400
2021-01-06,405.6000061035156,438.07000732421875,405.5,437.8299865722656,437.10931396484375,1495200
2021-01-07,437.0199890136719,449.2799987792969,435.5,447.69000244140625,446.9530944824219,1421400
2021-01-08,446.510009765625,448.0,432.2200012207031,436.7699890136719,436.0510559082031,962500
2021-01-11,434.5799865722656,438.2900085449219,428.489990234375,433.5400085449219,432.8263854980469,908700
2021-01-12,432.3599853515625,437.55999755859375,421.8299865722656,422.4700012207031,421.77459716796875,1045600
2021-01-13,420.1199951171875,423.75,414.04998779296875,416.0199890136719,415.335205078125,902500
2021-01-14,416.8900146484375,420.6700134277344,404.6199951171875,405.0,404.3333435058594,1020900
2021-01-15,402.95001220703125,407.54998779296875,399.4800109863281,406.80999755859375,406.140380859375,1519400
2021-01-19,410.510009765625,415.8699951171875,404.8599853515625,407.30999755859375,406.6395568847656,903800
2021-01-20,408.0,412.1400146484375,402.0799865722656,411.3399963378906,410.66290283203125,966700
2021-01-21,410.489990234375,418.8399963378906,410.489990234375,414.6000061035156,413.9175720214844,883900
2021-01-22,413.6300048828125,414.04998779296875,405.1700134277344,405.17999267578125,404.5130615234375,865000
2021-01-25,404.1600036621094,411.2900085449219,401.3900146484375,404.0,403.3349914550781,894600
2021-01-26,405.3299865722656,407.07000732421875,395.69000244140625,395.8500061035156,395.19842529296875,1039200
2021-01-27,389.0799865722656,391.5,374.5,377.92999267578125,377.3078918457031,2347300
2021-01-28,381.75,395.7799987792969,380.0,389.7900085449219,389.1484069824219,906100
2021-01-29,388.2900085449219,390.19000244140625,375.1600036621094,383.1099853515625,382.4793701171875,1205600
2021-02-01,386.0899963378906,389.2900085449219,378.6700134277344,379.8999938964844,379.274658203125,947100
2021-02-02,383.30999755859375,391.29998779296875,376.989990234375,376.989990234375,376.36944580078125,1367000
2021-02-03,373.6099853515625,388.54998779296875,373.57000732421875,379.92999267578125,379.30462646484375,1301800
2021-02-04,376.7099914550781,385.3900146484375,373.92999267578125,385.0899963378906,384.45611572265625,1204800
2021-02-05,386.260009765625,388.2200012207031,374.29998779296875,379.29998779296875,378.6756591796875,1672200
2021-02-08,381.8900146484375,382.0,374.6400146484375,378.3399963378906,377.71722412109375,1399800
2021-02-09,378.7799987792969,384.8699951171875,377.0,382.5899963378906,381.9602355957031,1622300
2021-02-10,384.8900146484375,385.55999755859375,376.760009765625,378.0,377.3778076171875,1602300
2021-02-11,379.4800109863281,383.9200134277344,375.010009765625,381.19000244140625,380.56256103515625,1594500
2021-02-12,380.1400146484375,381.42999267578125,377.2799987792969,380.6400146484375,380.0134582519531,1015100
2021-02-16,381.510009765625,382.25,370.2200012207031,375.1499938964844,374.532470703125,2446600
2021-02-17,374.2300109863281,383.239990234375,372.9200134277344,377.5199890136719,376.8985900878906,1007600
2021-02-18,378.9599914550781,380.239990234375,375.3800048828125,378.3299865722656,377.7072448730469,910400
2021-02-19,377.7200012207031,380.0,374.8299865722656,376.9100036621094,376.2895812988281,1006100
2021-02-22,373.5,381.760009765625,371.4599914550781,379.8900146484375,379.26470947265625,1028400
2021-02-23,381.2200012207031,382.4200134277344,374.45001220703125,378.2900085449219,377.6673278808594,982400
2021-02-24,376.9100036621094,385.3299865722656,376.239990234375,381.3999938964844,380.7721862792969,1018200
2021-02-25,380.0,385.57000732421875,377.8399963378906,380.5899963378906,379.9635314941406,815500
2021-02-26,383.6099853515625,390.0299987792969,379.0,379.6499938964844,379.02508544921875,1285000
2021-03-01,381.4700012207031,388.0,381.4700012207031,384.9200134277344,384.2864074707031,942800
2021-03-02,386.29998779296875,388.7200012207031,381.989990234375,386.29998779296875,385.66412353515625,845400
2021-03-03,384.3399963378906,387.1400146484375,382.20001220703125,382.6099853515625,381.9801940917969,548900
2021-03-04,382.1600036621094,396.0899963378906,381.010009765625,388.55999755859375,387.92041015625,1453000
2021-03-05,388.8399963378906,400.7900085449219,388.6400146484375,399.3900146484375,398.73260498046875,1495100
2021-03-08,400.0,407.3900146484375,397.5299987792969,401.07000732421875,400.4098205566406,1101800
2021-03-09,402.3800048828125,409.42999267578125,401.5299987792969,402.8500061035156,402.1868896484375,1029300
2021-03-10,406.29998779296875,408.7699890136719,402.54998779296875,403.010009765625,402.3466491699219,841000
2021-03-11,403.29998779296875,407.7099914550781,401.04998779296875,401.4100036621094,400.749267578125,928100
2021-03-12,401.9200134277344,406.760009765625,401.9200134277344,406.5299987792969,405.86083984375,723200
2021-03-15,408.8399963378906,409.3999938964844,402.3699951171875,406.05999755859375,405.3916015625,637900
2021-03-16,406.0,407.6000061035156,400.3999938964844,403.1199951171875,402.4564514160156,868700
2021-03-17,403.989990234375,408.6000061035156,402.2099914550781,403.1300048828125,402.4664306640625,918500
2021-03-18,402.07000732421875,411.5400085449219,402.07000732421875,407.75,407.0788269042969,1019700
2021-03-19,406.6499938964844,413.75,403.260009765625,409.82000732421875,409.1454162597656,1919000
2021-03-22,404.0,405.3500061035156,397.05999755859375,404.3699951171875,403.7043762207031,1163400
2021-03-23,406.6199951171875,407.82000732421875,402.7200012207031,404.010009765625,403.3450012207031,843200
2021-03-24,403.69000244140625,417.8599853515625,403.69000244140625,414.6600036621094,413.9774475097656,1104400
2021-03-25,413.739990234375,417.82000732421875,408.4599914550781,416.45001220703125,415.7645263671875,763200
2021-03-26,419.4800109863281,423.9700012207031,416.489990234375,423.6000061035156,422.9027404785156,762400
2021-03-29,423.5,429.8500061035156,422.6199951171875,425.2699890136719,424.5699768066406,749400
2021-03-30,424.510009765625,428.4800109863281,423.0,425.7099914550781,425.7099914550781,810900
2021-03-31,424.7699890136719,426.32000732421875,418.8800048828125,419.25,419.25,829400
2021-04-01,418.67999267578125,419.5799865722656,410.6400146484375,412.82000732421875,412.82000732421875,776400
2021-04-05,415.7699890136719,417.989990234375,412.0799865722656,413.1499938964844,413.1499938964844,760800
2021-04-06,412.95001220703125,412.95001220703125,405.3299865722656,407.3299865722656,407.3299865722656,1265700
2021-04-07,408.3399963378906,411.7300109863281,406.7200012207031,411.7300109863281,411.7300109863281,554800
2021-04-08,409.07000732421875,411.2900085449219,406.2799987792969,407.1499938964844,407.1499938964844,913400
2021-04-09,407.79998779296875,417.739990234375,407.79998779296875,417.739990234375,417.739990234375,757200
2021-04-12,418.5,421.9100036621094,412.6499938964844,413.2099914550781,413.2099914550781,790000
2021-04-13,411.54998779296875,420.0,411.54998779296875,417.1099853515625,417.1099853515625,687600
2021-04-14,417.8399963378906,424.739990234375,417.29998779296875,422.75,422.75,640200
2021-04-15,423.9700012207031,437.2300109863281,423.9700012207031,433.94000244140625,433.94000244140625,1151400
2021-04-16,435.7300109863281,436.989990234375,431.94000244140625,435.2799987792969,435.2799987792969,1941000
2021-04-19,435.7900085449219,441.5299987792969,434.2099914550781,439.9200134277344,439.9200134277344,781800
2021-04-20,438.9100036621094,445.19000244140625,437.8699951171875,443.0,443.0,679700
2021-04-21,445.1400146484375,449.20001220703125,443.57000732421875,444.45001220703125,444.45001220703125,885900
2021-04-22,441.75,445.6000061035156,435.9800109863281,444.6600036621094,444.6600036621094,740800
2021-04-23,444.010009765625,450.0,442.1499938964844,448.6400146484375,448.6400146484375,462100
2021-04-26,449.5299987792969,451.6099853515625,446.0,446.1400146484375,446.1400146484375,549400
2021-04-27,443.1199951171875,450.25,441.25,448.79998779296875,448.79998779296875,760400
2021-04-28,443.4200134277344,448.0,435.4700012207031,438.6199951171875,438.6199951171875,1104600
2021-04-29,440.8699951171875,449.75,439.3599853515625,447.6400146484375,447.6400146484375,703300
