Date,Open,High,Low,Close,Adj Close,Volume
2020-10-30,148.2899932861328,150.25999450683594,146.69000244140625,148.25,147.3919677734375,453200
2020-11-02,150.6199951171875,152.5399932861328,149.3000030517578,151.77000427246094,150.89161682128906,500600
2020-11-03,153.27999877929688,157.19000244140625,153.27999877929688,156.14999389648438,155.24624633789062,410500
2020-11-04,158.1300048828125,163.47999572753906,157.66000366210938,162.4199981689453,161.47996520996094,674500
2020-11-05,168.1199951171875,168.1199951171875,152.30999755859375,153.66000366210938,152.7706756591797,1137400
2020-11-06,156.1999969482422,159.6300048828125,154.52000427246094,157.16000366210938,156.25042724609375,555100
2020-11-09,161.97000122070312,165.92999267578125,158.72000122070312,158.8300018310547,157.91075134277344,704100
2020-11-10,158.83999633789062,160.72999572753906,157.72000122070312,160.52000427246094,159.59097290039062,783300
2020-11-11,161.2100067138672,162.8000030517578,159.6300048828125,161.0800018310547,160.14772033691406,426000
2020-11-12,161.0500030517578,161.99000549316406,158.60000610351562,159.85000610351562,158.9248504638672,305200
2020-11-13,161.0800018310547,162.49000549316406,158.82000732421875,161.47999572753906,160.54541015625,328400
2020-11-16,163.1999969482422,163.75,157.75,159.02999877929688,158.10958862304688,458600
2020-11-17,159.16000366210938,159.99000549316406,157.4600067138672,158.85000610351562,157.93063354492188,521400
2020-11-18,159.47999572753906,160.47000122070312,156.9499969482422,158.7100067138672,157.79144287109375,424600
2020-11-19,158.75,163.0,155.74000549316406,161.52000427246094,160.58518981933594,493400
2020-11-20,161.75,162.27999877929688,160.05999755859375,160.1699981689453,159.24298095703125,402400
2020-11-23,160.10000610351562,161.5800018310547,159.47000122070312,159.99000549316406,159.0640411376953,327300
2020-11-24,160.5500030517578,161.0500030517578,157.0399932861328,157.1300048828125,156.22059631347656,732800
2020-11-25,158.27999877929688,159.32000732421875,156.52000427246094,157.8699951171875,156.956298828125,572200
2020-11-27,158.6199951171875,158.99000549316406,156.3699951171875,157.8000030517578,156.88670349121094,270900
2020-11-30,158.36000061035156,162.05999755859375,156.88999938964844,160.86000061035156,159.92898559570312,1348800
2020-12-01,161.2899932861328,162.8800048828125,160.13999938964844,161.33999633789062,160.83615112304688,766000
2020-12-02,161.47999572753906,162.83999633789062,159.22000122070312,159.97999572753906,159.4803924560547,361000
2020-12-03,159.22000122070312,160.13999938964844,156.57000732421875,158.00999450683594,157.5165557861328,500200
2020-12-04,158.8800048828125,160.42999267578125,157.8800048828125,158.47999572753906,157.98507690429688,481100
2020-12-07,157.25,159.97000122070312,157.25,158.49000549316406,157.99505615234375,525400
2020-12-08,158.82000732421875,160.42999267578125,158.1999969482422,160.0,159.50033569335938,748700
2020-12-09,159.6199951171875,159.82000732421875,156.92999267578125,157.0,156.50970458984375,687000
2020-12-10,157.38999938964844,157.77999877929688,153.7100067138672,153.83999633789062,153.3595733642578,612300
2020-12-11,153.25,156.08999633789062,152.77999877929688,155.82000732421875,155.33340454101562,672500
2020-12-14,156.49000549316406,159.0500030517578,156.4199981689453,157.3800048828125,156.88853454589844,584500
2020-12-15,158.0800018310547,158.91000366210938,155.7100067138672,158.60000610351562,158.10472106933594,383500
2020-12-16,158.97000122070312,160.63999938964844,158.6199951171875,159.1699981689453,158.6729278564453,491400
2020-12-17,160.3300018310547,163.05999755859375,158.77999877929688,162.75999450683594,162.25172424316406,603100
2020-12-18,163.75999450683594,165.33999633789062,160.72999572753906,161.6300048828125,161.12525939941406,1168800
2020-12-21,159.05999755859375,159.52000427246094,154.5399932861328,158.2100067138672,157.7159423828125,547700
2020-12-22,157.88999938964844,157.88999938964844,154.24000549316406,154.72000122070312,154.23683166503906,490600
2020-12-23,156.85000610351562,157.99000549316406,154.97999572753906,155.92999267578125,155.4430389404297,473800
2020-12-24,155.89999389648438,158.4499969482422,155.64999389648438,157.69000244140625,157.1975555419922,202800
2020-12-28,158.6300048828125,160.6199951171875,157.85000610351562,159.7100067138672,159.2112579345703,340500
2020-12-29,160.0399932861328,161.10000610351562,159.05999755859375,159.27999877929688,158.7825927734375,315200
2020-12-30,158.75,159.67999267578125,158.11000061035156,158.75,158.25424194335938,305200
2020-12-31,158.92999267578125,162.16000366210938,158.02000427246094,161.99000549316406,161.484130859375,428700
2021-01-04,161.72999572753906,163.24000549316406,155.82000732421875,158.66000366210938,158.16453552246094,747700
2021-01-05,158.66000366210938,159.7100067138672,155.4499969482422,159.11000061035156,158.61312866210938,427800
2021-01-06,157.41000366210938,162.1300048828125,156.8300018310547,161.49000549316406,160.98568725585938,594900
2021-01-07,162.80999755859375,165.97999572753906,162.4499969482422,164.94000244140625,164.42491149902344,567200
2021-01-08,165.5,167.49000549316406,164.66000366210938,166.9499969482422,166.4286346435547,483900
2021-01-11,167.99000549316406,169.22999572753906,164.47999572753906,164.97999572753906,164.46478271484375,582500
2021-01-12,164.2899932861328,164.2899932861328,160.00999450683594,160.38999938964844,159.88912963867188,607900
2021-01-13,160.8000030517578,161.47999572753906,157.67999267578125,157.88999938964844,157.3969268798828,400600
2021-01-14,158.36000061035156,159.55999755859375,153.7100067138672,153.9600067138672,153.47921752929688,442900
2021-01-15,153.9199981689453,155.80999755859375,152.8800048828125,154.5500030517578,154.06736755371094,415300
2021-01-19,156.1199951171875,156.41000366210938,154.4499969482422,155.80999755859375,155.32342529296875,455800
2021-01-20,156.30999755859375,158.36000061035156,154.7100067138672,154.75999450683594,154.27670288085938,518100
2021-01-21,155.4499969482422,156.97000122070312,153.0,153.10000610351562,152.6219024658203,518100
2021-01-22,153.47000122070312,153.6999969482422,150.72999572753906,151.5,151.02688598632812,933900
2021-01-25,152.60000610351562,153.07000732421875,148.72999572753906,152.5,152.0237579345703,713500
2021-01-26,152.2100067138672,155.75999450683594,151.82000732421875,154.8699951171875,154.3863525390625,430400
2021-01-27,154.42999267578125,157.2899932861328,148.83999633789062,149.64999389648438,149.1826629638672,535700
2021-01-28,150.82000732421875,152.6199951171875,148.82000732421875,148.82000732421875,148.35525512695312,483800
2021-01-29,148.19000244140625,148.69000244140625,144.0,144.7899932861328,144.33782958984375,540800
2021-02-01,147.4199981689453,149.33999633789062,146.80999755859375,148.47999572753906,148.0163116455078,433900
2021-02-02,148.72999572753906,152.61000061035156,148.02999877929688,151.27999877929688,150.8075714111328,485000
2021-02-03,151.91000366210938,152.10000610351562,149.1699981689453,149.44000244140625,148.97332763671875,374300
2021-02-04,150.9600067138672,153.47999572753906,149.8800048828125,153.38999938964844,152.91098022460938,493200
2021-02-05,153.6300048828125,154.5500030517578,152.07000732421875,152.91000366210938,152.43247985839844,556100
2021-02-08,153.49000549316406,158.77999877929688,153.00999450683594,158.2100067138672,157.7159423828125,1147600
2021-02-09,148.89999389648438,150.72999572753906,141.64999389648438,149.50999450683594,149.0430908203125,2052500
2021-02-10,149.47000122070312,152.86000061035156,148.11000061035156,148.77000427246094,148.305419921875,1091500
2021-02-11,150.05999755859375,153.00999450683594,147.7899932861328,148.63999938964844,148.17581176757812,882000
2021-02-12,150.35000610351562,150.4199981689453,145.02000427246094,145.63999938964844,145.1851806640625,663900
2021-02-16,146.38999938964844,147.9499969482422,143.61000061035156,146.24000549316406,145.78330993652344,1158000
2021-02-17,145.16000366210938,149.74000549316406,145.16000366210938,148.8800048828125,148.41506958007812,694100
2021-02-18,147.27999877929688,152.72999572753906,147.27999877929688,152.7100067138672,152.2331085205078,720100
2021-02-19,152.80999755859375,153.77999877929688,150.27000427246094,150.88999938964844,150.41879272460938,1057100
2021-02-22,149.8699951171875,153.72999572753906,149.3300018310547,152.86000061035156,152.3826446533203,727000
2021-02-23,152.55999755859375,153.77999877929688,149.11000061035156,149.30999755859375,148.84371948242188,881800
2021-02-24,149.32000732421875,152.82000732421875,147.1699981689453,151.63999938964844,151.16644287109375,1036300
2021-02-25,151.0500030517578,153.85000610351562,150.4499969482422,151.32000732421875,150.8474578857422,677400
2021-02-26,151.3800048828125,152.9199981689453,147.9499969482422,148.44000244140625,147.9764404296875,1113200
2021-03-01,148.92999267578125,152.55999755859375,148.92999267578125,152.11000061035156,151.63497924804688,508200
2021-03-02,152.89999389648438,154.32000732421875,150.33999633789062,151.6699981689453,151.19635009765625,595200
2021-03-03,151.2899932861328,154.27000427246094,149.9499969482422,152.2899932861328,151.8144073486328,605100
2021-03-04,152.11000061035156,152.1999969482422,146.22999572753906,147.3000030517578,146.8400115966797,1030700
2021-03-05,148.0,152.82000732421875,146.3699951171875,151.77999877929688,151.77999877929688,853500
2021-03-08,152.19000244140625,155.0,150.22000122070312,151.0,151.0,572300
2021-03-09,152.5,153.99000549316406,148.75,148.88999938964844,148.88999938964844,523900
2021-03-10,148.55999755859375,151.02999877929688,147.75999450683594,149.47000122070312,149.47000122070312,353700
2021-03-11,150.17999267578125,151.49000549316406,148.3000030517578,148.66000366210938,148.66000366210938,385400
2021-03-12,148.75,150.82000732421875,148.27999877929688,150.69000244140625,150.69000244140625,406800
2021-03-15,151.0,151.75,149.75999450683594,151.57000732421875,151.57000732421875,324300
2021-03-16,152.10000610351562,152.11000061035156,149.8000030517578,151.07000732421875,151.07000732421875,336700
2021-03-17,151.0,151.22000122070312,148.99000549316406,150.74000549316406,150.74000549316406,317000
2021-03-18,149.75,150.17999267578125,147.57000732421875,148.39999389648438,148.39999389648438,478900
2021-03-19,147.5800018310547,149.99000549316406,146.61000061035156,148.1300048828125,148.1300048828125,1073500
2021-03-22,148.86000061035156,150.5,146.10000610351562,149.22999572753906,149.22999572753906,402600
2021-03-23,149.1300048828125,152.83999633789062,149.1300048828125,151.8300018310547,151.8300018310547,416300
2021-03-24,151.52999877929688,155.6699981689453,151.52999877929688,153.9199981689453,153.9199981689453,593100
2021-03-25,154.5500030517578,154.80999755859375,151.55999755859375,152.77999877929688,152.77999877929688,561400
2021-03-26,152.02000427246094,155.33999633789062,150.82000732421875,155.19000244140625,155.19000244140625,676700
2021-03-29,153.99000549316406,158.97999572753906,153.99000549316406,156.41000366210938,156.41000366210938,540900
2021-03-30,155.72000122070312,156.24000549316406,153.0800018310547,153.39999389648438,153.39999389648438,574200
2021-03-31,152.9499969482422,154.5399932861328,151.50999450683594,151.72000122070312,151.72000122070312,509900
2021-04-01,152.2100067138672,154.99000549316406,151.6300048828125,154.58999633789062,154.58999633789062,383300
2021-04-05,154.17999267578125,157.2899932861328,154.0500030517578,157.25,157.25,411400
2021-04-06,156.17999267578125,157.3699951171875,154.75,155.32000732421875,155.32000732421875,346300
2021-04-07,155.83999633789062,156.52999877929688,153.9499969482422,154.22000122070312,154.22000122070312,305200
2021-04-08,154.02999877929688,156.5,154.02999877929688,155.5500030517578,155.5500030517578,248500
2021-04-09,156.25999450683594,156.5,154.80999755859375,155.72000122070312,155.72000122070312,284800
2021-04-12,155.52000427246094,156.11000061035156,154.41000366210938,155.75999450683594,155.75999450683594,363300
2021-04-13,155.30999755859375,157.24000549316406,155.30999755859375,155.8300018310547,155.8300018310547,385900
2021-04-14,155.05999755859375,155.3300018310547,152.47999572753906,153.80999755859375,153.80999755859375,507700
2021-04-15,154.2100067138672,157.35000610351562,154.0800018310547,156.39999389648438,156.39999389648438,489700
2021-04-16,157.3800048828125,160.11000061035156,156.5399932861328,158.83999633789062,158.83999633789062,766200
2021-04-19,159.0800018310547,161.47000122070312,158.67999267578125,161.14999389648438,161.14999389648438,678800
2021-04-20,162.0399932861328,165.24000549316406,161.60000610351562,163.85000610351562,163.85000610351562,719200
2021-04-21,164.25,166.5500030517578,163.9499969482422,166.08999633789062,166.08999633789062,681000
2021-04-22,166.05999755859375,168.52000427246094,164.8300018310547,167.2100067138672,167.2100067138672,714800
2021-04-23,167.8800048828125,170.36000061035156,167.52000427246094,169.58999633789062,169.58999633789062,522100
2021-04-26,169.00999450683594,169.69000244140625,167.77999877929688,168.19000244140625,168.19000244140625,442000
2021-04-27,168.8000030517578,169.5800018310547,163.1699981689453,163.50999450683594,163.50999450683594,531400
2021-04-28,165.05999755859375,165.1199951171875,163.42999267578125,163.57000732421875,163.57000732421875,335000
2021-04-29,165.0,165.97999572753906,163.61000061035156,164.13999938964844,164.13999938964844,500700
