Date,Open,High,Low,Close,Adj Close,Volume
2020-10-30,11.75,11.899999618530273,11.609999656677246,11.899999618530273,11.506016731262207,17063200
2020-11-02,12.029999732971191,12.069999694824219,11.779999732971191,11.890000343322754,11.49634838104248,13369000
2020-11-03,12.039999961853027,12.140000343322754,11.930000305175781,11.989999771118164,11.593036651611328,12182900
2020-11-04,12.109999656677246,12.270000457763672,11.779999732971191,11.829999923706055,11.438334465026855,14333400
2020-11-05,11.829999923706055,12.1899995803833,11.829999923706055,11.899999618530273,11.506016731262207,13630100
2020-11-06,11.90999984741211,12.079999923706055,11.449999809265137,11.479999542236328,11.099921226501465,14255400
2020-11-09,12.34000015258789,12.710000038146973,12.09000015258789,12.300000190734863,11.89277458190918,31595700
2020-11-10,12.470000267028809,12.890000343322754,12.270000457763672,12.890000343322754,12.463240623474121,21224100
2020-11-11,13.069999694824219,13.079999923706055,12.859999656677246,13.029999732971191,12.598605155944824,22495800
2020-11-12,12.899999618530273,13.079999923706055,12.579999923706055,12.710000038146973,12.289199829101562,20115100
2020-11-13,12.859999656677246,13.220000267028809,12.779999732971191,13.130000114440918,12.695295333862305,13552100
2020-11-16,13.739999771118164,13.819999694824219,13.390000343322754,13.670000076293945,13.217415809631348,22637800
2020-11-17,13.449999809265137,14.050000190734863,13.420000076293945,14.029999732971191,13.565496444702148,19219700
2020-11-18,14.020000457763672,14.229999542236328,13.760000228881836,13.760000228881836,13.304436683654785,20243100
2020-11-19,13.699999809265137,14.399999618530273,13.609999656677246,14.399999618530273,13.923247337341309,27429000
2020-11-20,14.399999618530273,14.420000076293945,14.170000076293945,14.25,13.778213500976562,20405300
2020-11-23,14.399999618530273,14.670000076293945,14.300000190734863,14.619999885559082,14.135963439941406,20103200
2020-11-24,14.989999771118164,15.119999885559082,14.869999885559082,14.970000267028809,14.474376678466797,17315200
2020-11-25,14.899999618530273,15.050000190734863,14.649999618530273,14.850000381469727,14.358349800109863,13157100
2020-11-27,14.720000267028809,14.859999656677246,14.649999618530273,14.75,14.261659622192383,6336200
2020-11-30,14.529999732971191,14.680000305175781,14.300000190734863,14.380000114440918,13.903910636901855,36296700
2020-12-01,14.670000076293945,14.680000305175781,14.029999732971191,14.100000381469727,13.633180618286133,20050500
2020-12-02,14.0600004196167,14.550000190734863,14.0,14.34000015258789,13.865234375,22358300
2020-12-03,14.4399995803833,14.65999984741211,14.300000190734863,14.489999771118164,14.010268211364746,17671200
2020-12-04,14.680000305175781,15.100000381469727,14.670000076293945,14.930000305175781,14.435700416564941,17456100
2020-12-07,14.899999618530273,14.979999542236328,14.569999694824219,14.800000190734863,14.310004234313965,16745700
2020-12-08,14.6899995803833,15.0,14.649999618530273,14.760000228881836,14.271328926086426,18874200
2020-12-09,14.819999694824219,14.9399995803833,14.420000076293945,14.609999656677246,14.12629508972168,23780900
2020-12-10,14.649999618530273,14.880000114440918,14.600000381469727,14.789999961853027,14.300335884094238,24039100
2020-12-11,14.649999618530273,14.75,14.520000457763672,14.75,14.261659622192383,13666300
2020-12-14,14.859999656677246,14.970000267028809,14.1899995803833,14.3100004196167,13.836227416992188,26295700
2020-12-15,14.420000076293945,14.9399995803833,14.350000381469727,14.770000457763672,14.280997276306152,21182000
2020-12-16,14.75,14.760000228881836,14.510000228881836,14.600000381469727,14.116625785827637,18690400
2020-12-17,14.579999923706055,14.65999984741211,14.270000457763672,14.300000190734863,13.826558113098145,19338100
2020-12-18,14.329999923706055,14.420000076293945,14.100000381469727,14.210000038146973,13.739538192749023,33134700
2020-12-21,13.979999542236328,14.130000114440918,13.789999961853027,13.989999771118164,13.526822090148926,20343500
2020-12-22,13.979999542236328,14.0,13.779999732971191,13.779999732971191,13.323774337768555,14876200
2020-12-23,13.9399995803833,14.079999923706055,13.819999694824219,13.829999923706055,13.372118949890137,16017400
2020-12-24,13.829999923706055,13.859999656677246,13.6899995803833,13.829999923706055,13.372118949890137,5520100
2020-12-28,13.869999885559082,14.0,13.600000381469727,13.640000343322754,13.188409805297852,13949100
2020-12-29,13.739999771118164,13.75,13.470000267028809,13.569999694824219,13.120726585388184,14819200
2020-12-30,13.5600004196167,13.800000190734863,13.529999732971191,13.569999694824219,13.120726585388184,11570300
2020-12-31,13.529999732971191,13.720000267028809,13.470000267028809,13.670000076293945,13.217415809631348,15013400
2021-01-04,13.75,13.859999656677246,13.479999542236328,13.5600004196167,13.111058235168457,17131700
2021-01-05,13.680000305175781,14.130000114440918,13.649999618530273,13.899999618530273,13.439801216125488,18693000
2021-01-06,14.100000381469727,14.470000267028809,14.020000457763672,14.359999656677246,13.884571075439453,22181300
2021-01-07,14.430000305175781,14.65999984741211,14.279999732971191,14.600000381469727,14.116625785827637,17189100
2021-01-08,14.600000381469727,14.680000305175781,14.300000190734863,14.489999771118164,14.010268211364746,18581700
2021-01-11,14.210000038146973,14.880000114440918,14.1899995803833,14.739999771118164,14.25199031829834,24839100
2021-01-12,14.630000114440918,15.229999542236328,14.619999885559082,15.210000038146973,14.706430435180664,24215900
2021-01-13,15.229999542236328,15.4399995803833,15.109999656677246,15.3100004196167,14.803119659423828,18002100
2021-01-14,15.399999618530273,15.75,15.350000381469727,15.640000343322754,15.122194290161133,18079800
2021-01-15,15.520000457763672,15.609999656677246,15.170000076293945,15.489999771118164,14.97715950012207,16167600
2021-01-19,15.600000381469727,15.770000457763672,15.460000038146973,15.550000190734863,15.035173416137695,17338800
2021-01-20,15.569999694824219,15.65999984741211,15.40999984741211,15.59000015258789,15.07384967803955,14227800
2021-01-21,16.0,16.020000457763672,15.050000190734863,15.260000228881836,14.754775047302246,18794900
2021-01-22,15.029999732971191,15.369999885559082,14.829999923706055,15.319999694824219,14.812788009643555,18001800
2021-01-25,15.25,15.539999961853027,15.020000457763672,15.260000228881836,14.754775047302246,16633800
2021-01-26,15.369999885559082,15.569999694824219,15.100000381469727,15.220000267028809,14.71609878540039,16016000
2021-01-27,15.100000381469727,15.25,14.779999732971191,14.819999694824219,14.329341888427734,24717700
2021-01-28,14.930000305175781,15.010000228881836,14.5600004196167,14.6899995803833,14.203645706176758,24464600
2021-01-29,14.319999694824219,14.5,14.010000228881836,14.079999923706055,13.862018585205078,26327100
2021-02-01,14.170000076293945,14.220000267028809,13.899999618530273,14.020000457763672,13.802947998046875,20579300
2021-02-02,14.329999923706055,14.34000015258789,13.75,13.8100004196167,13.596199035644531,31201200
2021-02-03,13.84000015258789,14.300000190734863,13.84000015258789,14.239999771118164,14.019540786743164,19336900
2021-02-04,14.300000190734863,14.390000343322754,14.010000228881836,14.029999732971191,13.81279182434082,19973700
2021-02-05,14.25,14.25,14.079999923706055,14.149999618530273,13.930933952331543,18451500
2021-02-08,14.260000228881836,14.800000190734863,14.220000267028809,14.729999542236328,14.501955032348633,16736800
2021-02-09,14.729999542236328,14.75,14.4399995803833,14.569999694824219,14.34443187713623,10091400
2021-02-10,14.640000343322754,14.800000190734863,14.510000228881836,14.789999961853027,14.561026573181152,12685900
2021-02-11,14.75,14.800000190734863,14.449999809265137,14.6899995803833,14.462574005126953,11482700
2021-02-12,14.600000381469727,14.880000114440918,14.5600004196167,14.84000015258789,14.610252380371094,13136500
2021-02-16,15.069999694824219,15.199999809265137,14.9399995803833,15.039999961853027,14.80715560913086,17247800
2021-02-17,15.149999618530273,15.210000038146973,14.84000015258789,15.130000114440918,14.89576244354248,13642700
2021-02-18,15.130000114440918,15.130000114440918,14.760000228881836,14.779999732971191,14.551180839538574,11542500
2021-02-19,14.84000015258789,14.979999542236328,14.8100004196167,14.960000038146973,14.728394508361816,10571700
2021-02-22,15.0,15.3100004196167,14.989999771118164,15.170000076293945,14.93514347076416,13651400
2021-02-23,15.390000343322754,15.40999984741211,14.859999656677246,15.289999961853027,15.053285598754883,19578200
2021-02-24,15.329999923706055,15.75,15.279999732971191,15.720000267028809,15.476628303527832,16478800
2021-02-25,15.84000015258789,15.859999656677246,15.229999542236328,15.289999961853027,15.053285598754883,17384400
2021-02-26,15.15999984741211,15.199999809265137,14.619999885559082,14.699999809265137,14.472419738769531,24163400
2021-03-01,14.859999656677246,15.199999809265137,14.859999656677246,15.039999961853027,14.80715560913086,14881900
2021-03-02,15.039999961853027,15.229999542236328,15.010000228881836,15.09000015258789,14.856382369995117,13686700
2021-03-03,15.100000381469727,15.619999885559082,15.069999694824219,15.170000076293945,14.93514347076416,16925200
2021-03-04,15.270000457763672,15.829999923706055,15.199999809265137,15.6899995803833,15.447092056274414,29909200
2021-03-05,15.960000038146973,16.049999237060547,15.59000015258789,15.869999885559082,15.624305725097656,23236500
2021-03-08,16.0,16.329999923706055,15.880000114440918,16.219999313354492,15.968887329101562,20079900
2021-03-09,16.030000686645508,16.200000762939453,15.640000343322754,15.670000076293945,15.42740249633789,20807100
2021-03-10,15.779999732971191,16.31999969482422,15.6899995803833,16.239999771118164,15.988577842712402,17181600
2021-03-11,16.25,16.420000076293945,16.15999984741211,16.200000762939453,15.949197769165039,12960200
2021-03-12,16.299999237060547,16.3700008392334,16.149999618530273,16.350000381469727,16.09687614440918,12013300
2021-03-15,16.420000076293945,16.530000686645508,16.1299991607666,16.329999923706055,16.077184677124023,12527000
2021-03-16,16.18000030517578,16.209999084472656,15.869999885559082,15.920000076293945,15.673532485961914,14167100
2021-03-17,15.890000343322754,16.280000686645508,15.859999656677246,16.219999313354492,15.968887329101562,16785200
2021-03-18,16.139999389648438,16.25,15.6899995803833,15.760000228881836,15.516009330749512,13032000
2021-03-19,15.829999923706055,16.110000610351562,15.729999542236328,15.920000076293945,15.673532485961914,22905300
2021-03-22,15.9399995803833,15.970000267028809,15.75,15.779999732971191,15.535698890686035,13118600
2021-03-23,15.579999923706055,15.989999771118164,15.5,15.680000305175781,15.437248229980469,20958900
2021-03-24,15.800000190734863,16.350000381469727,15.800000190734863,16.190000534057617,15.939352989196777,17619700
2021-03-25,16.09000015258789,16.420000076293945,15.770000457763672,16.360000610351562,16.106719970703125,16449400
2021-03-26,16.520000457763672,16.809999465942383,16.389999389648438,16.799999237060547,16.539907455444336,15209500
2021-03-29,16.799999237060547,16.8700008392334,16.520000457763672,16.75,16.49068260192871,12293400
2021-03-30,16.579999923706055,16.75,16.520000457763672,16.6200008392334,16.362695693969727,14643600
2021-03-31,16.610000610351562,16.729999542236328,16.489999771118164,16.649999618530273,16.392230987548828,17557100
2021-04-01,16.65999984741211,16.84000015258789,16.489999771118164,16.84000015258789,16.579288482666016,13316800
2021-04-05,16.84000015258789,16.889999389648438,16.520000457763672,16.65999984741211,16.402074813842773,11057300
2021-04-06,16.709999084472656,16.84000015258789,16.6299991607666,16.700000762939453,16.441457748413086,11344200
2021-04-07,16.770000457763672,16.969999313354492,16.670000076293945,16.93000030517578,16.667896270751953,11090900
2021-04-08,16.75,16.829999923706055,16.6299991607666,16.829999923706055,16.56944465637207,11098400
2021-04-09,16.729999542236328,16.799999237060547,16.469999313354492,16.530000686645508,16.274089813232422,11636400
2021-04-12,16.600000381469727,16.670000076293945,16.40999984741211,16.5,16.244552612304688,12844400
2021-04-13,16.450000762939453,16.610000610351562,16.329999923706055,16.489999771118164,16.23470687866211,12560500
2021-04-14,16.579999923706055,16.799999237060547,16.520000457763672,16.649999618530273,16.392230987548828,12013600
2021-04-15,16.610000610351562,16.75,16.520000457763672,16.719999313354492,16.461145401000977,11580700
2021-04-16,16.799999237060547,16.81999969482422,16.469999313354492,16.540000915527344,16.283933639526367,11634500
2021-04-19,16.610000610351562,16.68000030517578,16.450000762939453,16.6200008392334,16.362695693969727,11098300
2021-04-20,16.6299991607666,16.649999618530273,16.34000015258789,16.549999237060547,16.293777465820312,12133600
2021-04-21,16.40999984741211,16.790000915527344,16.389999389648438,16.690000534057617,16.431612014770508,17281000
2021-04-22,16.690000534057617,16.84000015258789,16.299999237060547,16.360000610351562,16.106719970703125,26474300
2021-04-23,16.489999771118164,16.850000381469727,16.389999389648438,16.780000686645508,16.520217895507812,15779500
2021-04-26,16.850000381469727,17.1299991607666,16.799999237060547,16.90999984741211,16.648204803466797,14780700
2021-04-27,16.989999771118164,17.15999984741211,16.90999984741211,17.0,16.736812591552734,17613200
2021-04-28,17.15999984741211,17.520000457763672,17.110000610351562,17.440000534057617,17.170000076293945,20631600
2021-04-29,17.31999969482422,17.479999542236328,17.110000610351562,17.290000915527344,17.290000915527344,18164700
