Date,Open,High,Low,Close,Adj Close,Volume
2020-10-30,47.189998626708984,48.400001525878906,46.959999084472656,48.060001373291016,48.060001373291016,5208900
2020-11-02,48.709999084472656,49.650001525878906,48.18000030517578,49.16999816894531,49.16999816894531,5287000
2020-11-03,49.63999938964844,50.13999938964844,48.84000015258789,49.02000045776367,49.02000045776367,4207500
2020-11-04,48.900001525878906,51.11000061035156,48.45000076293945,49.90999984741211,49.90999984741211,4409400
2020-11-05,50.02000045776367,52.79999923706055,49.939998626708984,52.599998474121094,52.599998474121094,8837100
2020-11-06,52.2400016784668,53.25,51.41999816894531,52.97999954223633,52.97999954223633,5059500
2020-11-09,59.970001220703125,60.880001068115234,55.83000183105469,57.869998931884766,57.869998931884766,16292100
2020-11-10,58.349998474121094,59.400001525878906,57.06999969482422,58.56999969482422,58.56999969482422,8732600
2020-11-11,58.90999984741211,58.90999984741211,56.61000061035156,56.95000076293945,56.95000076293945,6309100
2020-11-12,55.63999938964844,56.959999084472656,55.11000061035156,55.560001373291016,55.560001373291016,5679500
2020-11-13,55.77000045776367,58.349998474121094,55.279998779296875,58.279998779296875,58.279998779296875,5944100
2020-11-16,59.97999954223633,60.20000076293945,58.13999938964844,58.380001068115234,58.380001068115234,7886600
2020-11-17,57.630001068115234,58.279998779296875,56.79999923706055,57.5,57.5,3541800
2020-11-18,57.369998931884766,58.38999938964844,56.79999923706055,57.33000183105469,57.33000183105469,2885000
2020-11-19,57.349998474121094,58.779998779296875,56.79999923706055,58.560001373291016,58.560001373291016,3631900
2020-11-20,58.029998779296875,58.349998474121094,55.849998474121094,55.900001525878906,55.900001525878906,7507200
2020-11-23,56.06999969482422,57.0,54.869998931884766,56.689998626708984,56.689998626708984,5985000
2020-11-24,57.91999816894531,58.86000061035156,57.349998474121094,58.08000183105469,58.08000183105469,5015700
2020-11-25,57.900001525878906,58.20000076293945,56.36000061035156,56.540000915527344,56.540000915527344,6092300
2020-11-27,56.59000015258789,57.16999816894531,56.45000076293945,56.59000015258789,56.59000015258789,1816900
2020-11-30,56.25,56.369998931884766,54.900001525878906,55.709999084472656,55.709999084472656,4883600
2020-12-01,56.59000015258789,57.34000015258789,56.09000015258789,56.619998931884766,56.619998931884766,3580800
2020-12-02,56.470001220703125,58.16999816894531,56.20000076293945,57.61000061035156,57.61000061035156,4799400
2020-12-03,58.58000183105469,59.75,58.099998474121094,58.65999984741211,58.65999984741211,5297900
2020-12-04,59.15999984741211,60.119998931884766,58.849998474121094,60.11000061035156,60.11000061035156,4913500
2020-12-07,59.869998931884766,59.900001525878906,58.54999923706055,58.939998626708984,58.939998626708984,3949500
2020-12-08,58.25,59.5,58.209999084472656,58.58000183105469,58.58000183105469,2739300
2020-12-09,58.72999954223633,58.900001525878906,57.36000061035156,57.9900016784668,57.9900016784668,3633100
2020-12-10,57.04999923706055,58.27000045776367,57.04999923706055,57.29999923706055,57.29999923706055,3231300
2020-12-11,57.349998474121094,57.79999923706055,56.310001373291016,56.75,56.75,3393100
2020-12-14,57.540000915527344,57.540000915527344,56.290000915527344,56.529998779296875,56.529998779296875,4643500
2020-12-15,57.27000045776367,58.16999816894531,56.2599983215332,57.869998931884766,57.869998931884766,3877400
2020-12-16,57.849998474121094,57.849998474121094,57.0099983215332,57.63999938964844,57.63999938964844,2814600
2020-12-17,58.34000015258789,58.40999984741211,56.7599983215332,57.34000015258789,57.34000015258789,3471800
2020-12-18,57.29999923706055,57.77000045776367,56.45000076293945,57.43000030517578,57.43000030517578,5737900
2020-12-21,55.68000030517578,57.45000076293945,55.220001220703125,56.880001068115234,56.880001068115234,3325900
2020-12-22,56.65999984741211,56.83000183105469,55.880001068115234,56.25,56.25,2704000
2020-12-23,56.290000915527344,57.70000076293945,56.290000915527344,57.189998626708984,57.189998626708984,2071100
2020-12-24,57.220001220703125,57.4900016784668,56.709999084472656,57.0099983215332,57.0099983215332,898100
2020-12-28,58.04999923706055,59.04999923706055,57.36000061035156,58.97999954223633,58.97999954223633,3956400
2020-12-29,59.349998474121094,59.630001068115234,58.06999969482422,58.11000061035156,58.11000061035156,3076800
2020-12-30,58.400001525878906,59.38999938964844,58.130001068115234,58.7400016784668,58.7400016784668,2179400
2020-12-31,58.86000061035156,59.900001525878906,58.31999969482422,59.599998474121094,59.599998474121094,3255500
2021-01-04,59.79999923706055,60.290000915527344,57.31999969482422,57.95000076293945,57.95000076293945,10089600
2021-01-05,57.790000915527344,59.689998626708984,57.720001220703125,59.439998626708984,59.439998626708984,2879200
2021-01-06,59.04999923706055,60.25,57.97999954223633,58.540000915527344,58.540000915527344,4055100
2021-01-07,58.5,58.93000030517578,57.630001068115234,58.150001525878906,58.150001525878906,4685700
2021-01-08,58.279998779296875,59.790000915527344,57.0099983215332,57.91999816894531,57.91999816894531,6859900
2021-01-11,56.880001068115234,57.0,56.060001373291016,56.40999984741211,56.40999984741211,5149800
2021-01-12,56.900001525878906,57.25,55.75,56.619998931884766,56.619998931884766,5035100
2021-01-13,56.33000183105469,56.54999923706055,54.08000183105469,55.29999923706055,55.29999923706055,8334700
2021-01-14,55.79999923706055,56.16999816894531,54.119998931884766,55.68000030517578,55.68000030517578,7756600
2021-01-15,55.369998931884766,55.72999954223633,53.33000183105469,53.439998626708984,53.439998626708984,9520100
2021-01-19,53.900001525878906,54.709999084472656,52.33000183105469,54.45000076293945,54.45000076293945,8101400
2021-01-20,54.619998931884766,55.36000061035156,54.09000015258789,54.43000030517578,54.43000030517578,5891400
2021-01-21,54.25,55.880001068115234,54.130001068115234,55.380001068115234,55.380001068115234,5027700
2021-01-22,54.4900016784668,54.75,53.52000045776367,54.18000030517578,54.18000030517578,4991400
2021-01-25,53.52000045776367,53.52000045776367,51.619998931884766,52.97999954223633,52.97999954223633,9109100
2021-01-26,52.97999954223633,53.59000015258789,52.38999938964844,52.41999816894531,52.41999816894531,6812700
2021-01-27,51.59000015258789,51.9900016784668,47.5,49.040000915527344,49.040000915527344,14922100
2021-01-28,49.18000030517578,50.650001525878906,47.810001373291016,49.08000183105469,49.08000183105469,14898200
2021-01-29,49.0099983215332,49.34000015258789,47.439998626708984,48.09000015258789,48.09000015258789,11100900
2021-02-01,49.0,49.9900016784668,48.5,49.06999969482422,49.06999969482422,8370900
2021-02-02,49.75,52.689998626708984,49.41999816894531,52.15999984741211,52.15999984741211,10098200
2021-02-03,52.27000045776367,54.34000015258789,52.029998779296875,53.79999923706055,53.79999923706055,13358800
2021-02-04,54.06999969482422,54.29999923706055,52.36000061035156,52.95000076293945,52.95000076293945,6613300
2021-02-05,55.20000076293945,56.619998931884766,54.720001220703125,55.56999969482422,55.56999969482422,13005600
2021-02-08,55.45000076293945,55.58000183105469,54.029998779296875,55.29999923706055,55.29999923706055,8163600
2021-02-09,55.25,55.25,54.11000061035156,54.400001525878906,54.400001525878906,7426600
2021-02-10,54.599998474121094,56.279998779296875,54.540000915527344,55.5099983215332,55.5099983215332,6111900
2021-02-11,55.45000076293945,55.81999969482422,54.54999923706055,55.0,55.0,4048600
2021-02-12,54.45000076293945,56.279998779296875,54.220001220703125,56.02000045776367,56.02000045776367,4967000
2021-02-16,56.65999984741211,57.689998626708984,55.869998931884766,57.459999084472656,57.459999084472656,7314800
2021-02-17,57.130001068115234,59.0,56.650001525878906,57.9900016784668,57.9900016784668,5930100
2021-02-18,57.689998626708984,58.59000015258789,56.790000915527344,58.2400016784668,58.2400016784668,6577300
2021-02-19,58.459999084472656,60.58000183105469,58.40999984741211,60.18000030517578,60.18000030517578,8656000
2021-02-22,61.18000030517578,63.560001373291016,60.869998931884766,61.7400016784668,61.7400016784668,11614700
2021-02-23,64.25,64.94000244140625,60.86000061035156,64.37999725341797,64.37999725341797,15069400
2021-02-24,64.5,64.98999786376953,63.38999938964844,64.80999755859375,64.80999755859375,7553000
2021-02-25,64.7300033569336,65.1500015258789,62.15999984741211,62.54999923706055,62.54999923706055,6352700
2021-02-26,62.5099983215332,63.5,61.529998779296875,62.599998474121094,62.599998474121094,5716000
2021-03-01,64.48999786376953,64.48999786376953,62.7400016784668,63.04999923706055,63.04999923706055,4359700
2021-03-02,63.09000015258789,65.19999694824219,63.04999923706055,64.94999694824219,64.94999694824219,6498100
2021-03-03,66.29000091552734,66.7699966430664,64.63999938964844,65.81999969482422,65.81999969482422,10033400
2021-03-04,65.75,66.13999938964844,61.20000076293945,62.349998474121094,62.349998474121094,10245800
2021-03-05,62.7599983215332,63.18000030517578,59.130001068115234,62.439998626708984,62.439998626708984,10437900
2021-03-08,63.02000045776367,64.38999938964844,62.27000045776367,63.2599983215332,63.2599983215332,5307700
2021-03-09,63.56999969482422,63.59000015258789,61.90999984741211,62.119998931884766,62.119998931884766,6267200
2021-03-10,62.189998626708984,62.84000015258789,61.52000045776367,62.02000045776367,62.02000045776367,4993600
2021-03-11,62.459999084472656,64.29000091552734,61.880001068115234,63.15999984741211,63.15999984741211,4632800
2021-03-12,62.91999816894531,63.61000061035156,62.34000015258789,62.45000076293945,62.45000076293945,3898500
2021-03-15,64.0999984741211,66.22000122070312,63.79999923706055,66.19999694824219,66.19999694824219,7511300
2021-03-16,66.26000213623047,66.62000274658203,64.48999786376953,64.97000122070312,64.97000122070312,4108000
2021-03-17,64.3499984741211,66.0,64.3499984741211,65.93000030517578,65.93000030517578,3119500
2021-03-18,65.9000015258789,66.20999908447266,64.58000183105469,64.7699966430664,64.7699966430664,3274200
2021-03-19,64.58000183105469,65.0199966430664,63.70000076293945,63.7400016784668,63.7400016784668,6572300
2021-03-22,63.58000183105469,63.869998931884766,62.529998779296875,62.869998931884766,62.869998931884766,4208800
2021-03-23,61.79999923706055,62.4900016784668,59.04999923706055,59.349998474121094,59.349998474121094,8803400
2021-03-24,59.720001220703125,61.18000030517578,59.11000061035156,59.15999984741211,59.15999984741211,4988600
2021-03-25,58.470001220703125,60.79999923706055,57.77000045776367,60.720001220703125,60.720001220703125,4241100
2021-03-26,61.0,61.16999816894531,59.349998474121094,61.0,61.0,3662800
2021-03-29,60.619998931884766,61.09000015258789,59.25,59.720001220703125,59.720001220703125,3392800
2021-03-30,59.95000076293945,61.720001220703125,59.779998779296875,61.220001220703125,61.220001220703125,3613700
2021-03-31,61.2400016784668,61.400001525878906,60.279998779296875,60.7599983215332,60.7599983215332,4271500
2021-04-01,61.290000915527344,62.22999954223633,60.90999984741211,61.849998474121094,61.849998474121094,3918400
2021-04-05,62.779998779296875,63.47999954223633,62.52000045776367,62.599998474121094,62.599998474121094,3094700
2021-04-06,62.81999969482422,64.33000183105469,62.650001525878906,63.61000061035156,63.61000061035156,4249600
2021-04-07,63.599998474121094,63.77000045776367,61.7400016784668,62.130001068115234,62.130001068115234,3937300
2021-04-08,62.2599983215332,62.7599983215332,61.7599983215332,62.599998474121094,62.599998474121094,2298100
2021-04-09,62.029998779296875,62.29999923706055,61.279998779296875,61.939998626708984,61.939998626708984,3230100
2021-04-12,61.72999954223633,61.880001068115234,61.16999816894531,61.61000061035156,61.61000061035156,2716200
2021-04-13,60.70000076293945,61.40999984741211,59.72999954223633,61.0,61.0,3954800
2021-04-14,61.040000915527344,62.119998931884766,60.84000015258789,61.310001373291016,61.310001373291016,3587100
2021-04-15,61.459999084472656,61.90999984741211,60.95000076293945,61.290000915527344,61.290000915527344,2550600
2021-04-16,61.70000076293945,62.16999816894531,60.81999969482422,61.0,61.0,4127000
2021-04-19,61.27000045776367,61.43000030517578,60.310001373291016,60.619998931884766,60.619998931884766,3050300
2021-04-20,60.349998474121094,60.349998474121094,58.150001525878906,59.040000915527344,59.040000915527344,5960000
2021-04-21,59.61000061035156,61.189998626708984,58.790000915527344,60.7599983215332,60.7599983215332,5542300
2021-04-22,58.27000045776367,60.060001373291016,57.75,58.33000183105469,58.33000183105469,12097900
2021-04-23,58.70000076293945,59.95000076293945,58.40999984741211,59.7599983215332,59.7599983215332,5583500
2021-04-26,60.13999938964844,60.70000076293945,59.13999938964844,59.29999923706055,59.29999923706055,3317400
2021-04-27,59.29999923706055,61.150001525878906,58.93000030517578,60.72999954223633,60.72999954223633,8873300
2021-04-28,61.0,61.90999984741211,60.34000015258789,61.7400016784668,61.7400016784668,3628600
2021-04-29,62.400001525878906,62.849998474121094,60.349998474121094,61.189998626708984,61.189998626708984,4212600
