Date,Open,High,Low,Close,Adj Close,Volume
2020-10-30,160.5,161.82000732421875,156.3000030517578,158.05999755859375,156.7676544189453,1093300
2020-11-02,160.0,164.77000427246094,159.8800048828125,163.47000122070312,162.1334228515625,1089800
2020-11-03,165.66000366210938,169.27999877929688,165.41000366210938,166.0,164.64273071289062,968100
2020-11-04,166.22999572753906,166.3800048828125,160.19000244140625,160.3300018310547,159.0190887451172,1408200
2020-11-05,163.1300048828125,165.57000732421875,160.52000427246094,160.85000610351562,159.53485107421875,1098200
2020-11-06,162.27000427246094,165.7899932861328,161.1999969482422,164.47999572753906,163.13516235351562,992500
2020-11-09,171.94000244140625,175.7100067138672,169.9199981689453,170.25999450683594,168.86790466308594,1275400
2020-11-10,170.07000732421875,170.66000366210938,165.9600067138672,166.8000030517578,165.4362030029297,979800
2020-11-11,169.0399932861328,170.0,167.24000549316406,169.72999572753906,168.34222412109375,533600
2020-11-12,168.5800018310547,169.72999572753906,166.5,167.52999877929688,166.16021728515625,411100
2020-11-13,169.32000732421875,172.4199981689453,168.6999969482422,170.5,169.10592651367188,493100
2020-11-16,172.36000061035156,173.9199981689453,171.25,173.89999389648438,172.47813415527344,575600
2020-11-17,172.0800018310547,172.92999267578125,169.42999267578125,169.57000732421875,168.1835479736328,769900
2020-11-18,169.9499969482422,170.19000244140625,167.27999877929688,167.4499969482422,166.08087158203125,542800
2020-11-19,166.61000061035156,169.27999877929688,165.38999938964844,169.16000366210938,167.7769012451172,400800
2020-11-20,169.35000610351562,170.5800018310547,166.0,167.3000030517578,165.93211364746094,1254900
2020-11-23,168.08999633789062,169.80999755859375,166.17999267578125,169.3800048828125,167.99510192871094,654900
2020-11-24,170.9600067138672,172.5800018310547,170.47000122070312,171.8699951171875,170.46473693847656,858300
2020-11-25,172.0,175.41000366210938,171.3300018310547,172.1300048828125,170.7226104736328,1198300
2020-11-27,173.6300048828125,174.72999572753906,172.3800048828125,173.4600067138672,172.041748046875,287600
2020-11-30,172.60000610351562,174.6300048828125,170.27000427246094,171.52999877929688,170.1275177001953,1513700
2020-12-01,172.77999877929688,173.44000244140625,169.77999877929688,170.5,169.10592651367188,1202100
2020-12-02,170.6300048828125,171.75,169.02000427246094,171.05999755859375,169.66136169433594,721700
2020-12-03,170.8300018310547,172.5500030517578,168.60000610351562,171.1199951171875,169.7208709716797,776100
2020-12-04,171.58999633789062,172.44000244140625,169.5,170.39999389648438,169.00674438476562,810300
2020-12-07,170.4499969482422,171.9600067138672,169.9199981689453,170.4600067138672,169.06626892089844,457500
2020-12-08,169.32000732421875,172.86000061035156,168.33999633789062,172.47999572753906,171.0697479248047,1262500
2020-12-09,173.44000244140625,175.1999969482422,172.08999633789062,172.89999389648438,171.48631286621094,566700
2020-12-10,173.05999755859375,174.2899932861328,170.64999389648438,171.86000061035156,170.45481872558594,846500
2020-12-11,170.5399932861328,171.30999755859375,166.92999267578125,168.39999389648438,167.02310180664062,2205800
2020-12-14,168.6999969482422,169.80999755859375,165.77000427246094,165.9199981689453,165.26014709472656,1903500
2020-12-15,167.02000427246094,168.8699951171875,166.3000030517578,168.02999877929688,167.36175537109375,1605300
2020-12-16,168.0800018310547,168.83999633789062,164.77000427246094,166.9199981689453,166.25616455078125,1559300
2020-12-17,167.6300048828125,170.38999938964844,166.86000061035156,169.64999389648438,168.97531127929688,1322700
2020-12-18,169.14999389648438,171.02999877929688,168.7100067138672,170.25999450683594,169.5828857421875,1989500
2020-12-21,167.52999877929688,168.36000061035156,163.16000366210938,165.22000122070312,164.56292724609375,954200
2020-12-22,165.05999755859375,167.8800048828125,164.77999877929688,167.4499969482422,166.7840576171875,717900
2020-12-23,168.0500030517578,170.33999633789062,167.9199981689453,168.61000061035156,167.939453125,633000
2020-12-24,169.0,169.19000244140625,167.3699951171875,168.47000122070312,167.8000030517578,239000
2020-12-28,169.9199981689453,170.44000244140625,167.8300018310547,169.41000366210938,168.73626708984375,615200
2020-12-29,170.5399932861328,170.6999969482422,166.3800048828125,166.94000244140625,166.27609252929688,461900
2020-12-30,167.50999450683594,168.86000061035156,166.88999938964844,166.97999572753906,166.31593322753906,561300
2020-12-31,166.67999267578125,170.1699981689453,166.50999450683594,170.05999755859375,169.38368225097656,485400
2021-01-04,170.63999938964844,171.19000244140625,165.60000610351562,167.5,166.8338623046875,991100
2021-01-05,167.8800048828125,168.69000244140625,165.72999572753906,166.61000061035156,165.94740295410156,779100
2021-01-06,166.55999755859375,171.5500030517578,165.6999969482422,170.67999267578125,170.00120544433594,914600
2021-01-07,170.91000366210938,173.4600067138672,170.63999938964844,171.0800018310547,170.39962768554688,746500
2021-01-08,171.3000030517578,174.63999938964844,171.3000030517578,174.5500030517578,173.8558349609375,830300
2021-01-11,173.1699981689453,174.74000549316406,172.75,173.69000244140625,172.99925231933594,627300
2021-01-12,173.6300048828125,175.5399932861328,172.92999267578125,174.24000549316406,173.54705810546875,936200
2021-01-13,173.41000366210938,174.64999389648438,172.50999450683594,174.08999633789062,173.39764404296875,449000
2021-01-14,173.74000549316406,177.0,171.97000122070312,173.47000122070312,172.78012084960938,596900
2021-01-15,173.52999877929688,174.30999755859375,171.11000061035156,173.5500030517578,172.85980224609375,570200
2021-01-19,174.82000732421875,174.82000732421875,171.47999572753906,171.77000427246094,171.08688354492188,1419300
2021-01-20,171.6999969482422,173.2100067138672,170.52000427246094,172.9199981689453,172.2322998046875,610600
2021-01-21,172.72000122070312,173.08999633789062,170.47000122070312,172.2899932861328,171.6048126220703,680600
2021-01-22,172.07000732421875,174.11000061035156,170.8300018310547,173.7100067138672,173.0191650390625,452700
2021-01-25,174.6999969482422,175.1999969482422,172.6699981689453,173.72000122070312,173.0291290283203,503000
2021-01-26,173.6699981689453,174.0399932861328,170.3699951171875,172.5399932861328,171.8538055419922,460200
2021-01-27,171.16000366210938,174.9199981689453,170.22999572753906,171.5399932861328,170.8577880859375,642400
2021-01-28,171.64999389648438,172.8699951171875,169.67999267578125,169.8300018310547,169.15460205078125,861300
2021-01-29,170.9499969482422,173.11000061035156,167.07000732421875,167.5500030517578,166.8836669921875,995400
2021-02-01,168.6699981689453,175.67999267578125,168.6699981689453,174.60000610351562,173.9056396484375,872700
2021-02-02,175.36000061035156,179.8699951171875,174.7100067138672,178.77999877929688,178.06900024414062,888100
2021-02-03,178.9499969482422,180.69000244140625,177.1199951171875,179.4199981689453,178.70645141601562,646300
2021-02-04,179.9499969482422,182.8300018310547,179.02000427246094,182.2100067138672,181.48536682128906,1096700
2021-02-05,182.38999938964844,183.38999938964844,177.3800048828125,182.08999633789062,181.36582946777344,1023800
2021-02-08,182.60000610351562,183.89999389648438,181.11000061035156,182.5399932861328,181.8140411376953,919500
2021-02-09,182.85000610351562,183.92999267578125,181.3800048828125,183.1199951171875,182.39173889160156,701700
2021-02-10,184.0,184.39999389648438,182.52000427246094,183.32000732421875,182.59095764160156,654000
2021-02-11,183.97000122070312,183.97000122070312,181.02999877929688,181.7899932861328,181.06703186035156,690000
2021-02-12,181.75999450683594,182.74000549316406,180.0500030517578,181.07000732421875,180.3498992919922,721600
2021-02-16,182.0500030517578,184.39999389648438,180.49000549316406,183.35000610351562,182.62083435058594,689400
2021-02-17,182.44000244140625,183.14999389648438,181.0500030517578,181.7899932861328,181.06703186035156,454300
2021-02-18,181.24000549316406,183.3300018310547,180.52999877929688,182.9600067138672,182.23239135742188,589600
2021-02-19,183.8000030517578,184.8800048828125,182.5800018310547,182.75,182.02320861816406,579800
2021-02-22,181.49000549316406,182.58999633789062,180.4499969482422,180.5500030517578,179.83197021484375,759300
2021-02-23,181.25999450683594,181.25999450683594,177.2100067138672,178.5500030517578,177.8399200439453,577100
2021-02-24,178.5500030517578,182.47999572753906,178.5500030517578,181.0800018310547,180.35986328125,644300
2021-02-25,181.0,181.6199951171875,179.52000427246094,180.52000427246094,179.80209350585938,594900
2021-02-26,181.0,181.41000366210938,175.47999572753906,175.47999572753906,174.78211975097656,958200
2021-03-01,176.72999572753906,182.9199981689453,176.36000061035156,182.4499969482422,181.7244110107422,778600
2021-03-02,182.1199951171875,182.64999389648438,179.7899932861328,179.83999633789062,179.12478637695312,947100
2021-03-03,179.5399932861328,180.19000244140625,177.52000427246094,178.3300018310547,177.62078857421875,581400
2021-03-04,178.83999633789062,179.1199951171875,173.7899932861328,174.91000366210938,174.2144012451172,939600
2021-03-05,177.08999633789062,179.6199951171875,175.1999969482422,178.8699951171875,178.1586456298828,671300
2021-03-08,178.72999572753906,182.92999267578125,178.00999450683594,179.2100067138672,178.49729919433594,565100
2021-03-09,179.61000061035156,180.42999267578125,176.75999450683594,177.02999877929688,176.32595825195312,697600
2021-03-10,178.72000122070312,179.22000122070312,176.0,177.75999450683594,177.0530548095703,825800
2021-03-11,178.32000732421875,180.52999877929688,177.72000122070312,178.52999877929688,177.8199920654297,532800
2021-03-12,178.60000610351562,179.13999938964844,176.42999267578125,179.11000061035156,179.11000061035156,499800
2021-03-15,179.83999633789062,181.9199981689453,178.32000732421875,181.85000610351562,181.85000610351562,515500
2021-03-16,181.47000122070312,182.5399932861328,179.7899932861328,182.47999572753906,182.47999572753906,483800
2021-03-17,183.0,183.25,180.72999572753906,181.33999633789062,181.33999633789062,812100
2021-03-18,179.25,182.6300048828125,178.82000732421875,181.41000366210938,181.41000366210938,588200
2021-03-19,181.7899932861328,184.52000427246094,180.0800018310547,183.22000122070312,183.22000122070312,1298300
2021-03-22,183.22000122070312,186.6699981689453,182.97999572753906,185.7100067138672,185.7100067138672,1013000
2021-03-23,185.9499969482422,187.39999389648438,182.7100067138672,183.8800048828125,183.8800048828125,907100
2021-03-24,183.2100067138672,185.27000427246094,180.94000244140625,181.0399932861328,181.0399932861328,541700
2021-03-25,181.64999389648438,184.35000610351562,180.85000610351562,184.08999633789062,184.08999633789062,656100
2021-03-26,185.1300048828125,189.72999572753906,184.50999450683594,189.60000610351562,189.60000610351562,606200
2021-03-29,188.02999877929688,190.6199951171875,186.57000732421875,188.8800048828125,188.8800048828125,1577900
2021-03-30,188.35000610351562,188.9499969482422,185.88999938964844,186.61000061035156,186.61000061035156,495500
2021-03-31,187.39999389648438,189.47000122070312,186.61000061035156,188.0500030517578,188.0500030517578,680900
2021-04-01,188.3300018310547,189.4600067138672,187.0,188.36000061035156,188.36000061035156,582000
2021-04-05,189.8699951171875,192.83999633789062,188.75999450683594,191.33999633789062,191.33999633789062,780500
2021-04-06,189.8000030517578,190.38999938964844,187.80999755859375,188.6999969482422,188.6999969482422,634300
2021-04-07,189.36000061035156,191.72000122070312,188.5,189.92999267578125,189.92999267578125,617400
2021-04-08,190.22999572753906,190.7899932861328,188.47000122070312,190.4600067138672,190.4600067138672,598500
2021-04-09,190.80999755859375,191.27000427246094,189.4600067138672,191.05999755859375,191.05999755859375,604200
2021-04-12,189.5800018310547,190.6699981689453,187.10000610351562,187.7899932861328,187.7899932861328,771700
2021-04-13,187.17999267578125,188.8300018310547,185.6999969482422,188.49000549316406,188.49000549316406,698900
2021-04-14,188.80999755859375,188.80999755859375,185.80999755859375,187.35000610351562,187.35000610351562,693000
2021-04-15,187.4499969482422,189.64999389648438,186.97999572753906,188.1699981689453,188.1699981689453,580000
2021-04-16,189.5,189.5,187.8300018310547,188.60000610351562,188.60000610351562,599800
2021-04-19,189.11000061035156,189.11000061035156,187.16000366210938,187.66000366210938,187.66000366210938,572200
2021-04-20,186.07000732421875,186.82000732421875,184.66000366210938,185.27000427246094,185.27000427246094,593400
2021-04-21,185.8000030517578,187.3000030517578,185.22999572753906,186.47999572753906,186.47999572753906,681800
2021-04-22,185.9199981689453,188.49000549316406,185.02999877929688,187.42999267578125,187.42999267578125,513100
2021-04-23,188.88999938964844,190.83999633789062,187.27999877929688,189.97999572753906,189.97999572753906,540600
2021-04-26,189.94000244140625,190.32000732421875,188.19000244140625,190.1999969482422,190.1999969482422,527900
2021-04-27,189.3800048828125,190.83999633789062,188.77000427246094,189.75,189.75,645200
2021-04-28,189.97999572753906,190.97000122070312,188.1300048828125,188.60000610351562,188.60000610351562,524800
2021-04-29,189.22000122070312,190.0500030517578,188.8699951171875,189.22999572753906,189.22999572753906,453500
