Date,Open,High,Low,Close,Adj Close,Volume
2020-10-30,50.0099983215332,50.43000030517578,49.29999923706055,50.34000015258789,50.34000015258789,15955700
2020-11-02,50.790000915527344,50.790000915527344,49.439998626708984,49.709999084472656,49.709999084472656,13103200
2020-11-03,50.130001068115234,51.59000015258789,50.0099983215332,51.08000183105469,51.08000183105469,11429500
2020-11-04,51.72999954223633,52.5,50.93000030517578,51.959999084472656,51.959999084472656,13554400
2020-11-05,52.880001068115234,54.779998779296875,52.779998779296875,54.58000183105469,54.58000183105469,16373600
2020-11-06,54.459999084472656,55.40999984741211,54.33000183105469,55.15999984741211,55.15999984741211,13922600
2020-11-09,56.470001220703125,57.83000183105469,55.869998931884766,55.959999084472656,55.959999084472656,20968500
2020-11-10,55.130001068115234,55.939998626708984,54.36000061035156,55.40999984741211,55.40999984741211,14502100
2020-11-11,55.970001220703125,56.939998626708984,55.849998474121094,56.36000061035156,56.36000061035156,14765500
2020-11-12,56.599998474121094,56.970001220703125,55.88999938964844,56.25,56.25,13785600
2020-11-13,56.790000915527344,58.189998626708984,56.75,57.93000030517578,57.93000030517578,14318800
2020-11-16,59.720001220703125,61.90999984741211,59.61000061035156,61.86000061035156,61.86000061035156,31397200
2020-11-17,61.0,62.20000076293945,60.29999923706055,61.9900016784668,61.9900016784668,17703600
2020-11-18,61.5,62.040000915527344,60.630001068115234,60.7400016784668,60.7400016784668,18734500
2020-11-19,60.040000915527344,61.970001220703125,59.650001525878906,61.83000183105469,61.83000183105469,12723600
2020-11-20,61.47999954223633,62.63999938964844,61.349998474121094,61.400001525878906,61.400001525878906,14115700
2020-11-23,62.61000061035156,64.5,62.29999923706055,64.18000030517578,64.18000030517578,20612600
2020-11-24,64.29000091552734,64.29000091552734,62.88999938964844,63.95000076293945,63.95000076293945,22625600
2020-11-25,63.65999984741211,64.0,62.61000061035156,63.43000030517578,63.43000030517578,12468500
2020-11-27,63.83000183105469,64.80000305175781,63.5099983215332,64.2300033569336,64.2300033569336,7500200
2020-11-30,64.55999755859375,65.25,63.58000183105469,64.08999633789062,64.08999633789062,20373500
2020-12-01,65.25,68.62999725341797,65.13999938964844,67.08000183105469,67.08000183105469,36204100
2020-12-02,67.61000061035156,69.38999938964844,66.76000213623047,69.11000061035156,69.11000061035156,23298900
2020-12-03,70.56999969482422,71.12000274658203,69.55000305175781,69.9000015258789,69.9000015258789,20462300
2020-12-04,71.11000061035156,74.37999725341797,70.54000091552734,73.33999633789062,73.33999633789062,31860800
2020-12-07,73.29000091552734,73.4000015258789,71.4800033569336,72.61000061035156,72.61000061035156,17460600
2020-12-08,72.0,73.55000305175781,71.9800033569336,73.19000244140625,73.19000244140625,15431100
2020-12-09,73.1500015258789,74.61000061035156,70.77999877929688,71.41000366210938,71.41000366210938,18367300
2020-12-10,70.13999938964844,71.94999694824219,69.66999816894531,71.27999877929688,71.27999877929688,15610600
2020-12-11,70.37999725341797,71.31999969482422,69.4000015258789,70.52999877929688,70.52999877929688,15322000
2020-12-14,71.4000015258789,72.19999694824219,71.02999877929688,71.54000091552734,71.54000091552734,13573700
2020-12-15,72.80999755859375,73.37000274658203,72.33000183105469,73.1500015258789,73.1500015258789,11545400
2020-12-16,74.19000244140625,74.3499984741211,72.62999725341797,72.98999786376953,72.98999786376953,13889300
2020-12-17,73.58999633789062,73.73999786376953,71.76000213623047,72.26000213623047,72.26000213623047,11988100
2020-12-18,72.69999694824219,73.44999694824219,71.05999755859375,71.45999908447266,71.45999908447266,23912500
2020-12-21,70.0,71.69999694824219,69.6500015258789,71.47000122070312,71.47000122070312,13180400
2020-12-22,71.51000213623047,71.77999877929688,69.76000213623047,70.44000244140625,70.44000244140625,11154200
2020-12-23,70.47000122070312,71.05999755859375,69.88999938964844,69.94999694824219,69.94999694824219,8524000
2020-12-24,70.30999755859375,70.63999938964844,69.76000213623047,70.58000183105469,70.58000183105469,4848500
2020-12-28,71.79000091552734,72.11000061035156,70.47000122070312,70.66000366210938,70.66000366210938,8345200
2020-12-29,71.0,71.4000015258789,69.13999938964844,70.20999908447266,70.20999908447266,9403400
2020-12-30,70.41999816894531,72.6500015258789,70.37000274658203,71.91999816894531,71.91999816894531,11620300
2020-12-31,72.38999938964844,75.68000030517578,72.37000274658203,75.18000030517578,75.18000030517578,23214500
2021-01-04,76.4800033569336,78.61000061035156,73.75,74.05000305175781,74.05000305175781,31155900
2021-01-05,76.44000244140625,78.69000244140625,76.02999877929688,77.26000213623047,77.26000213623047,33418200
2021-01-06,76.36000061035156,78.44999694824219,76.0999984741211,77.11000061035156,77.11000061035156,22390900
2021-01-07,78.05999755859375,80.08000183105469,78.05000305175781,79.11000061035156,79.11000061035156,27945300
2021-01-08,82.54000091552734,84.16000366210938,77.06999969482422,77.41999816894531,77.41999816894531,51272100
2021-01-11,76.58999633789062,79.79000091552734,76.41999816894531,78.66999816894531,78.66999816894531,19941600
2021-01-12,79.19000244140625,79.62000274658203,77.81999969482422,79.45999908447266,79.45999908447266,18231000
2021-01-13,78.94999694824219,80.38999938964844,78.55000305175781,79.91000366210938,79.91000366210938,15067700
2021-01-14,80.01000213623047,82.20999908447266,79.55000305175781,81.30000305175781,81.30000305175781,17639300
2021-01-15,80.91999816894531,81.87999725341797,79.52999877929688,80.72000122070312,80.72000122070312,14322600
2021-01-19,81.27999877929688,85.68000030517578,80.95999908447266,85.5,85.5,26602500
2021-01-20,85.93000030517578,87.25,83.2300033569336,83.5,83.5,21191700
2021-01-21,84.0,85.0999984741211,82.51000213623047,85.01000213623047,85.01000213623047,14703300
2021-01-22,84.08000183105469,84.94999694824219,82.2300033569336,82.27999877929688,82.27999877929688,14229500
2021-01-25,83.19000244140625,83.5,78.88999938964844,81.27999877929688,81.27999877929688,19283400
2021-01-26,81.79000091552734,81.9800033569336,79.01000213623047,79.51000213623047,79.51000213623047,13678000
2021-01-27,77.33000183105469,77.58999633789062,74.33000183105469,75.08999633789062,75.08999633789062,23513400
2021-01-28,77.19999694824219,80.18000030517578,76.72000122070312,78.38999938964844,78.38999938964844,18351400
2021-01-29,78.36000061035156,79.37000274658203,76.94999694824219,78.2699966430664,78.2699966430664,17927000
2021-02-01,79.58999633789062,81.08999633789062,78.4800033569336,80.43000030517578,80.43000030517578,14900200
2021-02-02,81.26000213623047,81.73999786376953,79.91999816894531,81.62000274658203,81.62000274658203,11386200
2021-02-03,81.8499984741211,82.52999877929688,78.97000122070312,79.11000061035156,79.11000061035156,17456000
2021-02-04,79.1500015258789,81.33999633789062,78.95999908447266,81.25,81.25,11519700
2021-02-05,81.7699966430664,82.0199966430664,80.72000122070312,81.0999984741211,81.0999984741211,10950900
2021-02-08,81.75,84.05999755859375,81.63999938964844,84.01000213623047,84.01000213623047,12394800
2021-02-09,83.3499984741211,84.0,82.4000015258789,83.31999969482422,83.31999969482422,10362500
2021-02-10,84.0,84.44000244140625,81.30000305175781,82.3499984741211,82.3499984741211,9869200
2021-02-11,84.4000015258789,86.63999938964844,84.0,86.4800033569336,86.4800033569336,18710100
2021-02-12,86.11000061035156,88.31999969482422,85.45999908447266,88.01000213623047,88.01000213623047,14256200
2021-02-16,89.22000122070312,89.22000122070312,87.05000305175781,87.73999786376953,87.73999786376953,10312800
2021-02-17,86.69000244140625,87.31999969482422,84.9000015258789,86.05000305175781,86.05000305175781,10033500
2021-02-18,86.5199966430664,88.7300033569336,85.95999908447266,88.54000091552734,88.54000091552734,19168100
2021-02-19,90.25,91.48999786376953,88.80999755859375,90.95999908447266,90.95999908447266,21886500
2021-02-22,89.52999877929688,90.5199966430664,85.91999816894531,86.27999877929688,86.27999877929688,16077000
2021-02-23,85.23999786376953,89.19999694824219,82.44000244140625,88.2300033569336,88.2300033569336,23203200
2021-02-24,88.30000305175781,92.5999984741211,87.7300033569336,92.5199966430664,92.5199966430664,21281700
2021-02-25,91.5199966430664,93.0999984741211,87.58000183105469,88.12000274658203,88.12000274658203,22546200
2021-02-26,89.73999786376953,92.94000244140625,88.2300033569336,91.52999877929688,91.52999877929688,22778300
2021-03-01,94.54000091552734,95.75,92.56999969482422,94.76000213623047,94.76000213623047,19844300
2021-03-02,93.56999969482422,94.9000015258789,90.9000015258789,91.08999633789062,91.08999633789062,18656600
2021-03-03,90.56999969482422,93.33000183105469,88.38999938964844,89.11000061035156,89.11000061035156,26389800
2021-03-04,88.80999755859375,89.75,81.8499984741211,84.33000183105469,84.33000183105469,31852900
2021-03-05,87.52999877929688,89.31999969482422,83.30000305175781,88.93000030517578,88.93000030517578,30305500
2021-03-08,88.56999969482422,89.72000122070312,84.87000274658203,85.05000305175781,85.05000305175781,22688300
2021-03-09,88.0,90.18000030517578,86.30000305175781,89.30000305175781,89.30000305175781,22286300
2021-03-10,90.01000213623047,90.01000213623047,85.30999755859375,85.41000366210938,85.41000366210938,23383100
2021-03-11,87.58999633789062,90.22000122070312,86.8499984741211,89.30999755859375,89.30999755859375,20698400
2021-03-12,87.56999969482422,88.52999877929688,86.43000030517578,87.7699966430664,87.7699966430664,21901300
2021-03-15,87.7699966430664,88.91000366210938,86.13999938964844,88.8499984741211,88.8499984741211,16144400
2021-03-16,90.75,94.68000030517578,90.11000061035156,91.43000030517578,91.43000030517578,28307100
2021-03-17,91.33000183105469,95.48999786376953,90.0999984741211,94.76000213623047,94.76000213623047,24514200
2021-03-18,92.97000122070312,93.4800033569336,89.41000366210938,89.81999969482422,89.81999969482422,27081000
2021-03-19,90.36000061035156,92.68000030517578,88.88999938964844,90.51000213623047,90.51000213623047,24951500
2021-03-22,91.83000183105469,92.41999816894531,89.6500015258789,91.27999877929688,91.27999877929688,19365800
2021-03-23,91.0199966430664,91.2699966430664,84.97000122070312,85.4000015258789,85.4000015258789,32043800
2021-03-24,87.05999755859375,87.1500015258789,82.91999816894531,83.0,83.0,24232800
2021-03-25,81.13999938964844,84.43000030517578,80.48999786376953,84.08999633789062,84.08999633789062,23630200
2021-03-26,84.16000366210938,88.13999938964844,84.02999877929688,87.98999786376953,87.98999786376953,23932600
2021-03-29,87.76000213623047,88.25,85.7699966430664,86.58999633789062,86.58999633789062,21772800
2021-03-30,86.26000213623047,87.22000122070312,85.25,86.54000091552734,86.54000091552734,13897000
2021-03-31,87.44000244140625,89.08000183105469,86.70999908447266,88.20999908447266,88.20999908447266,25372300
2021-04-01,93.0,94.37999725341797,91.25,92.41000366210938,92.41000366210938,39643300
2021-04-05,93.93000030517578,94.66999816894531,92.47000122070312,93.75,93.75,19795100
2021-04-06,93.83999633789062,96.0999984741211,92.66000366210938,93.48999786376953,93.48999786376953,22847000
2021-04-07,94.25,95.06999969482422,92.54000091552734,93.95999908447266,93.95999908447266,17621500
2021-04-08,95.0,96.38999938964844,93.77999877929688,95.29000091552734,95.29000091552734,17815600
2021-04-09,94.33999633789062,95.37999725341797,93.30999755859375,95.30000305175781,95.30000305175781,14066700
2021-04-12,95.19000244140625,96.95999908447266,94.75,95.58999633789062,95.58999633789062,18818300
2021-04-13,96.29000091552734,96.81999969482422,91.4000015258789,92.1500015258789,92.1500015258789,27102100
2021-04-14,91.66000366210938,92.52999877929688,89.51000213623047,90.66999816894531,90.66999816894531,19117400
2021-04-15,91.75,91.95999908447266,89.44999694824219,90.2699966430664,90.2699966430664,16017000
2021-04-16,90.44000244140625,91.33000183105469,90.08000183105469,90.66000366210938,90.66000366210938,12350000
2021-04-19,90.66999816894531,90.68000030517578,86.5199966430664,88.41000366210938,88.41000366210938,21361600
2021-04-20,88.37999725341797,88.94999694824219,86.52999877929688,87.4800033569336,87.4800033569336,17396900
2021-04-21,87.05999755859375,89.55999755859375,86.33000183105469,89.48999786376953,89.48999786376953,14781300
2021-04-22,88.19999694824219,88.36000061035156,83.9000015258789,84.70999908447266,84.70999908447266,34044100
2021-04-23,85.23999786376953,86.45999908447266,84.56999969482422,86.02999877929688,86.02999877929688,18118600
2021-04-26,86.47000122070312,88.30000305175781,86.11000061035156,87.83999633789062,87.83999633789062,14757700
2021-04-27,89.33000183105469,90.19000244140625,88.02999877929688,89.45999908447266,89.45999908447266,17681000
2021-04-28,87.66000366210938,87.76000213623047,85.3499984741211,86.02999877929688,86.02999877929688,19433500
2021-04-29,87.72000122070312,88.08999633789062,85.55000305175781,88.05999755859375,88.05999755859375,16434200
