Date,Open,High,Low,Close,Adj Close,Volume
2020-10-30,82.3499984741211,83.33000183105469,80.0,81.56999969482422,80.68707275390625,1420700
2020-11-02,82.08000183105469,82.86000061035156,80.19000244140625,81.06999969482422,80.1924819946289,982200
2020-11-03,82.12000274658203,82.81999969482422,80.94999694824219,81.76000213623047,80.87501525878906,867400
2020-11-04,81.18000030517578,85.0199966430664,81.18000030517578,82.19999694824219,81.31024932861328,1135900
2020-11-05,82.94999694824219,85.76000213623047,82.66999816894531,84.4800033569336,83.5655746459961,985000
2020-11-06,84.25,85.5999984741211,83.58999633789062,83.79000091552734,82.88304138183594,926100
2020-11-09,86.66999816894531,89.8499984741211,86.66999816894531,87.94000244140625,86.98812103271484,1408600
2020-11-10,88.26000213623047,91.05999755859375,88.05000305175781,90.9000015258789,89.91608428955078,1191600
2020-11-11,90.75,91.87999725341797,89.5,89.58999633789062,88.62025451660156,818000
2020-11-12,89.37999725341797,89.69999694824219,86.72000122070312,87.83999633789062,86.88919830322266,889600
2020-11-13,88.33000183105469,89.9800033569336,88.26000213623047,89.45999908447266,88.49166870117188,682200
2020-11-16,91.01000213623047,91.4000015258789,89.72000122070312,90.44000244140625,89.4610595703125,704400
2020-11-17,89.5999984741211,90.13999938964844,86.72000122070312,86.77999877929688,85.8406753540039,1154000
2020-11-18,87.43000030517578,88.13999938964844,84.5199966430664,84.72000122070312,83.80297088623047,1033600
2020-11-19,84.94999694824219,85.01000213623047,83.25,83.55000305175781,82.64563751220703,773600
2020-11-20,83.33999633789062,84.54000091552734,83.1500015258789,83.25,82.34888458251953,744700
2020-11-23,83.38999938964844,84.7300033569336,83.33000183105469,84.4800033569336,83.5655746459961,661600
2020-11-24,85.01000213623047,86.20999908447266,84.76000213623047,85.77999877929688,84.85150146484375,779600
2020-11-25,85.55000305175781,86.70999908447266,84.87999725341797,86.5199966430664,85.58348846435547,986600
2020-11-27,86.33999633789062,86.33999633789062,83.61000061035156,83.94000244140625,83.03141784667969,289200
2020-11-30,84.0,84.26000213623047,81.36000061035156,81.8499984741211,80.96403503417969,1460400
2020-12-01,82.69999694824219,83.16999816894531,82.20999908447266,82.3499984741211,81.45862579345703,610300
2020-12-02,81.94999694824219,83.12000274658203,81.08000183105469,82.88999938964844,81.99278259277344,657900
2020-12-03,82.88999938964844,82.94999694824219,81.25,81.4000015258789,80.51891326904297,818300
2020-12-04,81.5,82.70999908447266,81.30000305175781,82.41000366210938,81.51798248291016,1231300
2020-12-07,81.79000091552734,83.37999725341797,81.5999984741211,82.58000183105469,81.68614196777344,576900
2020-12-08,82.02999877929688,82.81999969482422,81.58000183105469,81.81999969482422,80.93436431884766,690300
2020-12-09,81.83000183105469,82.31999969482422,80.56999969482422,81.33000183105469,80.44966888427734,1133700
2020-12-10,81.48999786376953,81.83000183105469,80.55000305175781,80.73999786376953,79.86605072021484,895800
2020-12-11,80.58000183105469,81.12999725341797,79.69000244140625,79.72000122070312,78.85709381103516,879800
2020-12-14,80.62000274658203,81.18000030517578,78.9000015258789,79.13999938964844,78.28337097167969,1505800
2020-12-15,79.44999694824219,80.4800033569336,78.75,80.02999877929688,79.16373443603516,1215500
2020-12-16,80.37999725341797,80.80000305175781,78.61000061035156,78.6500015258789,77.79867553710938,766000
2020-12-17,78.80000305175781,80.20999908447266,78.72000122070312,79.31999969482422,78.46142578125,870800
2020-12-18,79.23999786376953,79.75,78.20999908447266,78.6500015258789,77.79867553710938,1319300
2020-12-21,78.0,78.45999908447266,76.4000015258789,77.29000091552734,76.45339965820312,823300
2020-12-22,77.13999938964844,78.16999816894531,76.1500015258789,77.77999877929688,76.93809509277344,894000
2020-12-23,78.38999938964844,79.37000274658203,77.3499984741211,77.4000015258789,76.56221008300781,635300
2020-12-24,77.41999816894531,78.05999755859375,76.72000122070312,77.87000274658203,77.0271224975586,239300
2020-12-28,78.18000030517578,79.20999908447266,77.83999633789062,78.43000030517578,77.5810546875,386700
2020-12-29,78.43000030517578,79.3499984741211,78.43000030517578,79.06999969482422,78.21412658691406,641300
2020-12-30,78.8499984741211,79.61000061035156,78.51000213623047,79.11000061035156,78.25370025634766,561900
2020-12-31,79.05000305175781,80.02999877929688,78.83999633789062,79.94999694824219,79.08460235595703,539300
2021-01-04,80.0,80.75,78.69999694824219,79.08999633789062,78.2339096069336,963500
2021-01-05,79.08999633789062,79.31999969482422,77.33000183105469,77.7300033569336,76.88864135742188,1020300
2021-01-06,78.08000183105469,80.63999938964844,78.0,80.4800033569336,79.60887145996094,852700
2021-01-07,80.4800033569336,80.5199966430664,77.56999969482422,77.94000244140625,77.09636688232422,816400
2021-01-08,77.97000122070312,78.08999633789062,76.95999908447266,77.7699966430664,76.9281997680664,513200
2021-01-11,77.41000366210938,78.11000061035156,76.18000030517578,76.69000244140625,75.85989379882812,637100
2021-01-12,76.75,77.22000122070312,75.8499984741211,76.41999816894531,75.59281158447266,1083500
2021-01-13,76.45999908447266,78.12999725341797,76.19000244140625,77.93000030517578,77.08647155761719,847900
2021-01-14,78.0999984741211,78.20999908447266,76.91000366210938,77.05000305175781,76.21599578857422,584600
2021-01-15,76.94000244140625,78.75,76.1500015258789,78.55000305175781,77.69976043701172,789700
2021-01-19,78.70999908447266,78.80000305175781,77.6500015258789,78.0,77.15571594238281,1131200
2021-01-20,77.58999633789062,78.1500015258789,76.7699966430664,77.94000244140625,77.09636688232422,1188900
2021-01-21,77.7300033569336,77.9000015258789,76.37000274658203,77.52999877929688,76.6907958984375,956300
2021-01-22,77.23999786376953,77.51000213623047,76.45999908447266,77.08999633789062,76.25556182861328,504700
2021-01-25,76.69000244140625,78.45999908447266,76.62000274658203,78.36000061035156,77.5118179321289,855600
2021-01-26,78.4800033569336,78.69000244140625,77.0199966430664,77.5,76.66112518310547,770500
2021-01-27,76.87999725341797,77.37999725341797,75.05000305175781,76.30999755859375,75.48400115966797,1166900
2021-01-28,76.63999938964844,77.88999938964844,76.16999816894531,76.68000030517578,75.8499984741211,1062900
2021-01-29,75.23999786376953,76.05999755859375,74.7300033569336,75.25,75.25,1756900
2021-02-01,75.58000183105469,76.73999786376953,75.05000305175781,76.19999694824219,76.19999694824219,782200
2021-02-02,76.4800033569336,78.25,76.19000244140625,76.69999694824219,76.69999694824219,920100
2021-02-03,76.4000015258789,77.19000244140625,75.91000366210938,76.7300033569336,76.7300033569336,614600
2021-02-04,76.62000274658203,77.2699966430664,76.25,77.05999755859375,77.05999755859375,773200
2021-02-05,77.61000061035156,78.04000091552734,76.86000061035156,77.77999877929688,77.77999877929688,728600
2021-02-08,77.80999755859375,77.94000244140625,76.30000305175781,76.94000244140625,76.94000244140625,806600
2021-02-09,77.05999755859375,77.91999816894531,76.02999877929688,76.66000366210938,76.66000366210938,516500
2021-02-10,77.0,77.5,76.41000366210938,77.12000274658203,77.12000274658203,644500
2021-02-11,77.2300033569336,77.43000030517578,76.31999969482422,76.66000366210938,76.66000366210938,522300
2021-02-12,76.44000244140625,77.05999755859375,75.87000274658203,76.19000244140625,76.19000244140625,592100
2021-02-16,76.12999725341797,76.37999725341797,75.37000274658203,76.0199966430664,76.0199966430664,663100
2021-02-17,76.13999938964844,77.20999908447266,75.87999725341797,77.1500015258789,77.1500015258789,580400
2021-02-18,77.08999633789062,77.91999816894531,77.01000213623047,77.16999816894531,77.16999816894531,741800
2021-02-19,77.1500015258789,77.25,76.1500015258789,76.26000213623047,76.26000213623047,508100
2021-02-22,76.04000091552734,76.18000030517578,73.11000061035156,74.58999633789062,74.58999633789062,1207900
2021-02-23,75.30000305175781,76.08000183105469,74.25,75.5,75.5,998700
2021-02-24,75.25,75.41999816894531,72.52999877929688,73.05999755859375,73.05999755859375,1779500
2021-02-25,72.5,73.76000213623047,72.0999984741211,73.04000091552734,73.04000091552734,1290200
2021-02-26,72.9800033569336,73.69999694824219,69.88999938964844,69.93000030517578,69.93000030517578,1309300
2021-03-01,71.4800033569336,73.5,70.86000061035156,72.30000305175781,72.30000305175781,1436200
2021-03-02,72.30999755859375,74.37000274658203,72.05000305175781,73.72000122070312,73.72000122070312,954500
2021-03-03,73.58999633789062,73.62000274658203,72.06999969482422,72.98999786376953,72.98999786376953,770800
2021-03-04,73.36000061035156,75.52999877929688,72.94999694824219,74.6500015258789,74.6500015258789,1105600
2021-03-05,74.87999725341797,76.69000244140625,74.83999633789062,76.30000305175781,76.30000305175781,1022300
2021-03-08,77.0,78.87000274658203,76.30000305175781,78.25,78.25,1292100
2021-03-09,78.4000015258789,78.83999633789062,77.12000274658203,77.58000183105469,77.58000183105469,873500
2021-03-10,77.37000274658203,78.6500015258789,76.9000015258789,78.45999908447266,78.45999908447266,848500
2021-03-11,78.05999755859375,78.5999984741211,76.7699966430664,76.77999877929688,76.77999877929688,732200
2021-03-12,77.30000305175781,78.54000091552734,76.76000213623047,78.33000183105469,78.33000183105469,721800
2021-03-15,78.52999877929688,80.41999816894531,78.3499984741211,80.41000366210938,80.41000366210938,851800
2021-03-16,78.6500015258789,79.69000244140625,78.6500015258789,79.58000183105469,79.58000183105469,688000
2021-03-17,79.9000015258789,80.52999877929688,79.08000183105469,79.19999694824219,79.19999694824219,675800
2021-03-18,79.1500015258789,79.69000244140625,78.23999786376953,79.58000183105469,79.58000183105469,1278400
2021-03-19,79.80000305175781,81.33999633789062,78.66999816894531,80.79000091552734,80.79000091552734,1770800
2021-03-22,80.16000366210938,80.6500015258789,79.18000030517578,79.7300033569336,79.7300033569336,764600
2021-03-23,79.94000244140625,80.83000183105469,79.29000091552734,79.9000015258789,79.9000015258789,634900
2021-03-24,79.80999755859375,80.37999725341797,79.41000366210938,79.5999984741211,79.5999984741211,799600
2021-03-25,80.05000305175781,80.5999984741211,78.86000061035156,80.2699966430664,80.2699966430664,954200
2021-03-26,80.26000213623047,80.62999725341797,79.51000213623047,80.22000122070312,80.22000122070312,490100
2021-03-29,80.12000274658203,81.9000015258789,80.04000091552734,81.43000030517578,81.43000030517578,676200
2021-03-30,81.04000091552734,81.12000274658203,79.58000183105469,80.72000122070312,80.72000122070312,657900
2021-03-31,80.70999908447266,81.5,80.4000015258789,81.3499984741211,81.3499984741211,716400
2021-04-01,81.23999786376953,81.83000183105469,80.61000061035156,81.80999755859375,81.80999755859375,697100
2021-04-05,81.8499984741211,83.05000305175781,81.80000305175781,83.05000305175781,83.05000305175781,533000
2021-04-06,82.75,83.4000015258789,82.1500015258789,83.33000183105469,83.33000183105469,508200
2021-04-07,83.5,83.79000091552734,82.04000091552734,82.26000213623047,82.26000213623047,735600
2021-04-08,82.06999969482422,82.54000091552734,81.7300033569336,81.81999969482422,81.81999969482422,905300
2021-04-09,82.2300033569336,82.58000183105469,81.5199966430664,81.7699966430664,81.7699966430664,562000
2021-04-12,81.94999694824219,82.77999877929688,81.69999694824219,82.55000305175781,82.55000305175781,556200
2021-04-13,82.0,83.33999633789062,81.98999786376953,83.05000305175781,83.05000305175781,580700
2021-04-14,82.6500015258789,83.55000305175781,82.62000274658203,83.5199966430664,83.5199966430664,426800
2021-04-15,83.5199966430664,84.55000305175781,83.38999938964844,84.47000122070312,84.47000122070312,458600
2021-04-16,84.72000122070312,85.44000244140625,84.48999786376953,84.9000015258789,84.9000015258789,599500
2021-04-19,85.4000015258789,85.52999877929688,83.9000015258789,84.23999786376953,84.23999786376953,864000
2021-04-20,84.25,86.19999694824219,84.22000122070312,85.97000122070312,85.97000122070312,626400
2021-04-21,86.2699966430664,86.80000305175781,84.62999725341797,85.16000366210938,85.16000366210938,686300
2021-04-22,85.16999816894531,85.19999694824219,84.3499984741211,84.45999908447266,84.45999908447266,444300
2021-04-23,84.8499984741211,84.97000122070312,83.69999694824219,83.80999755859375,83.80999755859375,505500
2021-04-26,83.98999786376953,84.05999755859375,83.0999984741211,83.33000183105469,83.33000183105469,610100
2021-04-27,83.01000213623047,83.5,81.86000061035156,82.11000061035156,82.11000061035156,625300
2021-04-28,82.29000091552734,82.52999877929688,81.0999984741211,81.62999725341797,81.62999725341797,649700
2021-04-29,81.75,83.77999877929688,81.7300033569336,83.56999969482422,83.56999969482422,991300
