Date,Open,High,Low,Close,Adj Close,Volume
2020-10-30,229.83999633789062,232.24000549316406,227.2100067138672,229.07000732421875,225.1202850341797,1009300
2020-11-02,231.3300018310547,234.63999938964844,230.1999969482422,232.80999755859375,228.79579162597656,804600
2020-11-03,234.08999633789062,236.3000030517578,232.17999267578125,235.47999572753906,231.41973876953125,719400
2020-11-04,235.3300018310547,240.75,234.77999877929688,235.25999450683594,231.2035369873047,892200
2020-11-05,234.49000549316406,236.2899932861328,228.83999633789062,230.66000366210938,226.682861328125,945200
2020-11-06,231.33999633789062,237.6699981689453,229.8000030517578,231.3300018310547,227.34130859375,668000
2020-11-09,240.74000549316406,240.74000549316406,220.9199981689453,222.0800018310547,218.25079345703125,1464900
2020-11-10,222.22999572753906,234.17999267578125,221.02000427246094,234.0399932861328,230.00457763671875,1035700
2020-11-11,235.35000610351562,237.0,232.32000732421875,235.82000732421875,231.75389099121094,776700
2020-11-12,236.64999389648438,236.64999389648438,228.7899932861328,231.80999755859375,227.81301879882812,580100
2020-11-13,232.6999969482422,235.38999938964844,231.44000244140625,234.0500030517578,230.014404296875,561900
2020-11-16,236.82000732421875,236.82000732421875,228.75,233.69000244140625,229.66061401367188,581600
2020-11-17,232.72999572753906,236.6699981689453,230.83999633789062,234.5399932861328,230.49595642089844,616500
2020-11-18,234.02000427246094,236.66000366210938,229.7899932861328,229.9600067138672,225.99493408203125,920600
2020-11-19,229.75,230.6300048828125,227.19000244140625,228.7899932861328,224.8450927734375,931700
2020-11-20,229.00999450683594,229.17999267578125,223.07000732421875,223.63999938964844,219.7838897705078,1252800
2020-11-23,224.3800048828125,226.6999969482422,218.30999755859375,219.1300048828125,215.35166931152344,1560700
2020-11-24,219.7100067138672,222.72000122070312,217.22999572753906,222.07000732421875,218.24098205566406,1323700
2020-11-25,222.86000061035156,224.55999755859375,221.82000732421875,223.3000030517578,219.4497528076172,596800
2020-11-27,223.3699951171875,223.3699951171875,219.25,220.02999877929688,216.23614501953125,377400
2020-11-30,220.07000732421875,225.60000610351562,219.80999755859375,224.4600067138672,220.5897674560547,1465900
2020-12-01,224.8800048828125,225.94000244140625,222.2100067138672,225.35000610351562,221.46441650390625,614000
2020-12-02,224.36000061035156,228.57000732421875,223.3300018310547,224.52000427246094,220.64874267578125,551300
2020-12-03,224.44000244140625,226.6199951171875,223.6999969482422,226.0399932861328,222.14251708984375,652500
2020-12-04,225.88999938964844,227.30999755859375,223.0800018310547,224.5,220.62905883789062,752700
2020-12-07,224.0,226.52999877929688,223.97000122070312,224.67999267578125,220.8059539794922,641300
2020-12-08,224.77999877929688,224.99000549316406,221.77000427246094,221.8800048828125,218.0542449951172,559300
2020-12-09,222.0399932861328,223.5399932861328,217.5399932861328,219.63999938964844,215.8528594970703,714600
2020-12-10,219.08999633789062,221.0,216.1999969482422,216.5800018310547,212.8456268310547,929800
2020-12-11,216.5500030517578,220.92999267578125,216.5500030517578,220.05999755859375,216.265625,1537900
2020-12-14,226.0,229.74000549316406,222.4600067138672,223.74000549316406,221.89889526367188,2271500
2020-12-15,224.25999450683594,225.17999267578125,219.5500030517578,225.16000366210938,223.3072052001953,1347800
2020-12-16,225.16000366210938,228.0,224.35000610351562,225.9600067138672,224.1006317138672,699300
2020-12-17,227.8000030517578,233.25999450683594,227.0800018310547,232.55999755859375,230.6463165283203,932900
2020-12-18,232.72000122070312,232.94000244140625,227.7100067138672,228.92999267578125,227.04617309570312,1421900
2020-12-21,227.5800018310547,230.1999969482422,226.11000061035156,228.7100067138672,226.8280029296875,707800
2020-12-22,228.97000122070312,232.35000610351562,228.1699981689453,232.19000244140625,230.27935791015625,783100
2020-12-23,231.52999877929688,232.75,226.77000427246094,227.0,225.13206481933594,720800
2020-12-24,227.44000244140625,228.97999572753906,227.07000732421875,228.85000610351562,226.9668426513672,154600
2020-12-28,229.77999877929688,230.60000610351562,227.22000122070312,229.13999938964844,227.25445556640625,569900
2020-12-29,230.08999633789062,231.25999450683594,226.4199981689453,227.8000030517578,225.9254913330078,677400
2020-12-30,227.36000061035156,230.88999938964844,227.36000061035156,228.92999267578125,227.04617309570312,559200
2020-12-31,229.2100067138672,231.0800018310547,226.52000427246094,230.92999267578125,229.02972412109375,495700
2021-01-04,230.32000732421875,231.97000122070312,219.9499969482422,220.1999969482422,218.3880157470703,911800
2021-01-05,219.3300018310547,221.61000061035156,216.14999389648438,217.3699951171875,215.581298828125,1094800
2021-01-06,216.35000610351562,217.89999389648438,212.22000122070312,213.82000732421875,212.06053161621094,1506100
2021-01-07,214.11000061035156,218.52000427246094,213.0500030517578,217.4499969482422,215.66064453125,1224300
2021-01-08,218.49000549316406,223.6300048828125,218.49000549316406,222.6199951171875,220.78810119628906,805500
2021-01-11,221.94000244140625,222.7100067138672,217.8699951171875,221.25,219.42938232421875,738900
2021-01-12,220.1699981689453,222.8699951171875,219.02999877929688,222.24000549316406,220.41123962402344,690200
2021-01-13,222.25,225.6300048828125,222.25,224.7899932861328,222.94024658203125,785400
2021-01-14,224.77000427246094,224.77000427246094,220.83999633789062,221.22999572753906,219.4095458984375,773100
2021-01-15,221.2899932861328,225.3800048828125,220.10000610351562,224.38999938964844,222.54354858398438,1864200
2021-01-19,225.8300018310547,225.8300018310547,219.1300048828125,220.6199951171875,218.8045654296875,1145000
2021-01-20,219.5399932861328,226.0,218.5800018310547,224.97999572753906,223.12869262695312,1326600
2021-01-21,223.2100067138672,225.13999938964844,221.41000366210938,221.97000122070312,220.14346313476562,1284000
2021-01-22,222.85000610351562,223.85000610351562,221.5800018310547,222.7899932861328,220.9567108154297,1079100
2021-01-25,223.44000244140625,226.5,221.94000244140625,225.82000732421875,223.9617919921875,830000
2021-01-26,225.86000061035156,228.69000244140625,225.3300018310547,227.83999633789062,225.96514892578125,825900
2021-01-27,227.3300018310547,228.97999572753906,224.88999938964844,228.0500030517578,226.17343139648438,822000
2021-01-28,228.07000732421875,230.14999389648438,225.4499969482422,227.50999450683594,225.6378631591797,791600
2021-01-29,226.66000366210938,230.08999633789062,224.82000732421875,227.6199951171875,225.74696350097656,1052400
2021-02-01,229.1300048828125,232.77000427246094,226.2899932861328,232.69000244140625,230.77525329589844,763700
2021-02-02,231.85000610351562,232.66000366210938,229.8300018310547,230.3000030517578,228.40492248535156,949800
2021-02-03,229.13999938964844,232.7899932861328,226.8000030517578,231.3000030517578,229.3966827392578,703300
2021-02-04,232.13999938964844,235.97999572753906,230.3000030517578,230.85000610351562,228.9503936767578,1165800
2021-02-05,231.50999450683594,231.50999450683594,228.75,229.33999633789062,227.4528045654297,777100
2021-02-08,228.72999572753906,232.7100067138672,227.55999755859375,232.50999450683594,230.5967254638672,523100
2021-02-09,233.69000244140625,236.74000549316406,232.9499969482422,236.3699951171875,234.42495727539062,680300
2021-02-10,237.63999938964844,237.69000244140625,231.35000610351562,234.10000610351562,232.17364501953125,697100
2021-02-11,232.94000244140625,234.14999389648438,231.61000061035156,233.07000732421875,231.15213012695312,853200
2021-02-12,232.47999572753906,232.9499969482422,229.5,231.86000061035156,229.9520721435547,617500
2021-02-16,231.60000610351562,231.8000030517578,226.5399932861328,229.9499969482422,228.0577850341797,566300
2021-02-17,229.9499969482422,234.5399932861328,229.6300048828125,234.07000732421875,232.14389038085938,879000
2021-02-18,233.3800048828125,236.08999633789062,233.3800048828125,235.0,233.0662384033203,622800
2021-02-19,235.64999389648438,236.8699951171875,233.75999450683594,234.6999969482422,232.76870727539062,761500
2021-02-22,234.58999633789062,238.38999938964844,233.25,237.75999450683594,235.8035125732422,711500
2021-02-23,239.50999450683594,246.2100067138672,239.50999450683594,242.33999633789062,240.34584045410156,794300
2021-02-24,241.80999755859375,244.99000549316406,241.1999969482422,242.61000061035156,240.61361694335938,803200
2021-02-25,243.25999450683594,246.52000427246094,240.25999450683594,243.36000061035156,241.35745239257812,816500
2021-02-26,243.72999572753906,244.8300018310547,233.85000610351562,233.94000244140625,232.0149688720703,1110900
2021-03-01,236.0,238.86000061035156,231.8000030517578,231.97000122070312,230.06117248535156,778500
2021-03-02,231.25999450683594,236.02999877929688,230.22999572753906,234.42999267578125,232.50091552734375,917000
2021-03-03,232.97999572753906,233.97999572753906,230.72000122070312,230.85000610351562,228.9503936767578,1025100
2021-03-04,231.5399932861328,234.44000244140625,229.13999938964844,231.35000610351562,229.44627380371094,1003400
2021-03-05,231.8000030517578,235.52999877929688,229.5,235.0500030517578,233.11582946777344,667900
2021-03-08,236.22999572753906,240.82000732421875,234.52999877929688,238.64999389648438,236.6862030029297,628400
2021-03-09,238.6699981689453,242.30999755859375,238.00999450683594,240.02999877929688,238.05484008789062,584400
2021-03-10,240.66000366210938,240.66000366210938,237.1999969482422,239.83999633789062,237.8664093017578,625700
2021-03-11,238.91000366210938,241.8000030517578,238.4600067138672,238.61000061035156,236.6465301513672,615400
2021-03-12,238.4199981689453,243.16000366210938,238.4199981689453,243.0500030517578,241.0500030517578,599000
2021-03-15,242.32000732421875,243.5800018310547,239.63999938964844,242.47999572753906,242.47999572753906,887300
2021-03-16,243.07000732421875,245.89999389648438,241.66000366210938,245.3300018310547,245.3300018310547,512900
2021-03-17,245.11000061035156,245.11000061035156,239.8300018310547,241.66000366210938,241.66000366210938,751800
2021-03-18,240.4199981689453,242.30999755859375,238.38999938964844,242.00999450683594,242.00999450683594,570900
2021-03-19,242.57000732421875,243.0,233.4600067138672,233.4600067138672,233.4600067138672,1336400
2021-03-22,233.4600067138672,237.7100067138672,233.0,236.6999969482422,236.6999969482422,647100
2021-03-23,237.4199981689453,243.2899932861328,236.72000122070312,242.89999389648438,242.89999389648438,723600
2021-03-24,241.60000610351562,242.8000030517578,240.1699981689453,241.13999938964844,241.13999938964844,656200
2021-03-25,242.38999938964844,242.5,237.52000427246094,241.3000030517578,241.3000030517578,594800
2021-03-26,241.97000122070312,244.8300018310547,239.8300018310547,244.58999633789062,244.58999633789062,836500
2021-03-29,243.94000244140625,250.16000366210938,241.9600067138672,247.99000549316406,247.99000549316406,823200
2021-03-30,248.2899932861328,248.8800048828125,245.92999267578125,247.02999877929688,247.02999877929688,652900
2021-03-31,247.0,249.97000122070312,244.55999755859375,246.75999450683594,246.75999450683594,1105400
2021-04-01,248.27999877929688,252.1199951171875,247.41000366210938,251.94000244140625,251.94000244140625,844300
2021-04-05,251.64999389648438,255.58999633789062,250.5800018310547,255.27000427246094,255.27000427246094,1162300
2021-04-06,254.30999755859375,255.36000061035156,252.0,255.30999755859375,255.30999755859375,744600
2021-04-07,255.5399932861328,256.3299865722656,253.86000061035156,255.72000122070312,255.72000122070312,760700
2021-04-08,255.60000610351562,259.0799865722656,255.60000610351562,256.760009765625,256.760009765625,566800
2021-04-09,257.7900085449219,259.44000244140625,257.4200134277344,257.8800048828125,257.8800048828125,539000
2021-04-12,258.8800048828125,261.29998779296875,257.6199951171875,260.8599853515625,260.8599853515625,524100
2021-04-13,261.5799865722656,267.2699890136719,261.1700134277344,266.95001220703125,266.95001220703125,819400
2021-04-14,266.239990234375,266.239990234375,262.80999755859375,263.69000244140625,263.69000244140625,508500
2021-04-15,265.57000732421875,268.260009765625,264.9599914550781,267.75,267.75,871900
2021-04-16,268.6000061035156,268.739990234375,266.6099853515625,266.79998779296875,266.79998779296875,672500
2021-04-19,266.79998779296875,270.5199890136719,265.5899963378906,270.3800048828125,270.3800048828125,548500
2021-04-20,270.5,276.2900085449219,270.1499938964844,273.3699951171875,273.3699951171875,846400
2021-04-21,274.2200012207031,275.7099914550781,272.19000244140625,273.55999755859375,273.55999755859375,564900
2021-04-22,273.6300048828125,276.989990234375,272.44000244140625,276.5299987792969,276.5299987792969,512000
2021-04-23,276.8299865722656,277.739990234375,275.1099853515625,276.7699890136719,276.7699890136719,489900
2021-04-26,277.75,278.7799987792969,274.2699890136719,275.1199951171875,275.1199951171875,556500
2021-04-27,275.5,275.8699951171875,273.739990234375,275.05999755859375,275.05999755859375,481100
2021-04-28,275.42999267578125,276.4200134277344,273.0299987792969,273.2300109863281,273.2300109863281,526700
2021-04-29,274.57000732421875,279.9200134277344,273.6199951171875,279.4800109863281,279.4800109863281,734300
