Date,Open,High,Low,Close,Adj Close,Volume
2020-10-30,87.75,88.38999938964844,85.62999725341797,86.95999908447266,86.18494415283203,11400700
2020-11-02,87.54000091552734,87.7699966430664,85.44999694824219,85.97000122070312,85.20377349853516,8904900
2020-11-03,86.77999877929688,89.05999755859375,86.18000030517578,88.38999938964844,87.6021957397461,6910400
2020-11-04,88.9000015258789,91.29000091552734,88.73999786376953,89.79000091552734,88.9897232055664,10509400
2020-11-05,90.69000244140625,91.16000366210938,89.9000015258789,90.62000274658203,89.81232452392578,6169700
2020-11-06,90.1500015258789,91.19999694824219,89.77999877929688,90.6500015258789,89.84205627441406,6626100
2020-11-09,97.31999969482422,97.6500015258789,95.63999938964844,95.87999725341797,95.02543640136719,16225800
2020-11-10,93.73999786376953,95.2699966430664,93.13999938964844,93.91999816894531,93.52184295654297,10474700
2020-11-11,94.11000061035156,95.83000183105469,94.0199966430664,95.04000091552734,94.63710021972656,8296500
2020-11-12,94.66000366210938,94.76000213623047,92.66000366210938,93.52999877929688,93.13349914550781,7058400
2020-11-13,94.37999725341797,95.58999633789062,93.69999694824219,95.55999755859375,95.15489196777344,5516100
2020-11-16,96.79000091552734,97.80999755859375,96.0199966430664,97.77999877929688,97.36548614501953,9371300
2020-11-17,97.20999908447266,98.77999877929688,96.80999755859375,98.5999984741211,98.1820068359375,8722300
2020-11-18,98.62999725341797,99.33000183105469,97.91000366210938,97.91000366210938,97.49493408203125,6039500
2020-11-19,97.23999786376953,97.91999816894531,96.86000061035156,97.76000213623047,97.34557342529297,4252300
2020-11-20,97.41999816894531,97.54000091552734,96.94999694824219,97.01000213623047,96.5987548828125,4609700
2020-11-23,97.62000274658203,97.86000061035156,96.41999816894531,96.87999725341797,96.46929931640625,4803200
2020-11-24,97.51000213623047,98.72000122070312,97.4000015258789,98.30000305175781,97.88328552246094,6319900
2020-11-25,98.5,98.54000091552734,97.94000244140625,98.19999694824219,97.78369903564453,4027100
2020-11-27,98.4800033569336,98.9800033569336,98.27999877929688,98.66000366210938,98.24176025390625,2169700
2020-11-30,98.19999694824219,98.29000091552734,96.95999908447266,98.0199966430664,97.60446166992188,5197300
2020-12-01,99.0,99.26000213623047,98.25,98.81999969482422,98.40107727050781,4970000
2020-12-02,98.51000213623047,99.04000091552734,98.20999908447266,98.91000366210938,98.4906997680664,3377900
2020-12-03,99.0199966430664,101.0,98.97000122070312,100.11000061035156,99.68560791015625,6264100
2020-12-04,101.3499984741211,102.94000244140625,101.06999969482422,102.27999877929688,101.84640502929688,6952700
2020-12-07,102.01000213623047,102.22000122070312,100.69000244140625,101.41000366210938,100.9801025390625,4514800
2020-12-08,100.37000274658203,101.56999969482422,100.01000213623047,101.20999908447266,100.78094482421875,3911300
2020-12-09,101.94000244140625,102.20999908447266,100.0999984741211,100.4000015258789,99.97438049316406,6629900
2020-12-10,103.51000213623047,106.08999633789062,102.75,105.38999938964844,104.94322204589844,12939200
2020-12-11,104.41000366210938,104.77999877929688,102.33000183105469,103.0,102.5633544921875,6262600
2020-12-14,103.83000183105469,104.70999908447266,103.25,103.31999969482422,102.88199615478516,5156200
2020-12-15,104.23999786376953,104.86000061035156,103.77999877929688,104.18000030517578,103.73835754394531,5196700
2020-12-16,104.0999984741211,104.80000305175781,102.72000122070312,103.2699966430664,102.83220672607422,6409300
2020-12-17,103.55000305175781,104.04000091552734,102.61000061035156,103.20999908447266,102.77246856689453,4535700
2020-12-18,103.33000183105469,104.11000061035156,102.94999694824219,103.27999877929688,102.84217071533203,10215000
2020-12-21,101.22000122070312,103.1500015258789,100.0199966430664,102.94000244140625,102.50361633300781,7175900
2020-12-22,102.12000274658203,103.16999816894531,101.88999938964844,102.41000366210938,101.97586059570312,4302700
2020-12-23,102.29000091552734,102.69000244140625,101.97000122070312,102.05999755859375,101.6273422241211,3817300
2020-12-24,102.30000305175781,102.36000061035156,101.68000030517578,102.01000213623047,101.57755279541016,1949200
2020-12-28,102.91999816894531,104.37999725341797,102.30999755859375,104.33999633789062,103.89767456054688,5055200
2020-12-29,104.88999938964844,105.77999877929688,104.47000122070312,105.62999725341797,105.18220520019531,4780900
2020-12-30,105.98999786376953,106.62000274658203,105.77999877929688,105.97000122070312,105.52076721191406,3654100
2020-12-31,106.0,107.13999938964844,105.62000274658203,106.9800033569336,106.5264892578125,3565700
2021-01-04,107.66000366210938,107.75,102.13999938964844,103.0999984741211,102.66293334960938,8041500
2021-01-05,102.91999816894531,104.26000213623047,102.80000305175781,103.44000244140625,103.00149536132812,5721900
2021-01-06,102.98999786376953,105.20999908447266,102.91000366210938,104.19000244140625,103.7483139038086,5017200
2021-01-07,104.48999786376953,104.63999938964844,102.94999694824219,103.3499984741211,102.91187286376953,5057000
2021-01-08,103.86000061035156,105.76000213623047,103.41999816894531,105.66999816894531,105.22203826904297,5869700
2021-01-11,105.0999984741211,105.63999938964844,104.2699966430664,104.5999984741211,104.15657043457031,4258000
2021-01-12,104.01000213623047,104.31999969482422,102.30999755859375,102.81999969482422,102.38411712646484,4332600
2021-01-13,102.31999969482422,103.37999725341797,101.48999786376953,102.88999938964844,102.45381927490234,4804500
2021-01-14,103.80000305175781,104.19000244140625,101.70999908447266,101.81999969482422,101.38835906982422,4528300
2021-01-15,101.37999725341797,102.69000244140625,101.20999908447266,102.33000183105469,101.89619445800781,5522900
2021-01-19,102.80000305175781,103.5999984741211,101.33999633789062,102.54000091552734,102.10530853271484,6519600
2021-01-20,102.41000366210938,105.8499984741211,102.19999694824219,105.45999908447266,105.01292419433594,5844300
2021-01-21,105.45999908447266,105.48999786376953,104.44999694824219,104.58000183105469,104.13665771484375,5732900
2021-01-22,104.16000366210938,104.47000122070312,103.05999755859375,103.91000366210938,103.4695053100586,5231600
2021-01-25,103.75,103.94999694824219,102.16999816894531,103.44999694824219,103.01144409179688,5009000
2021-01-26,103.4000015258789,105.20999908447266,103.23999786376953,104.69000244140625,104.2461929321289,7195300
2021-01-27,101.4800033569336,101.77999877929688,96.7300033569336,97.87000274658203,97.45510864257812,18139500
2021-01-28,98.94000244140625,100.52999877929688,98.0999984741211,98.1500015258789,97.73391723632812,8868200
2021-01-29,97.38999938964844,97.79000091552734,95.91999816894531,96.80999755859375,96.39959716796875,8203000
2021-02-01,96.98999786376953,99.62000274658203,96.91999816894531,98.58000183105469,98.16209411621094,7206300
2021-02-02,99.05000305175781,102.4800033569336,98.77999877929688,101.6500015258789,101.21907806396484,6917700
2021-02-03,101.25,102.6500015258789,100.80999755859375,101.0199966430664,100.59174346923828,3934800
2021-02-04,101.36000061035156,104.23999786376953,101.11000061035156,103.63999938964844,103.20064544677734,6926800
2021-02-05,105.08999633789062,107.54000091552734,104.77999877929688,106.4800033569336,106.02861022949219,8072100
2021-02-08,106.41999816894531,106.52999877929688,105.33999633789062,106.26000213623047,105.80953979492188,4836600
2021-02-09,106.0,106.83000183105469,105.22000122070312,106.22000122070312,105.76970672607422,4095200
2021-02-10,106.77999877929688,106.9000015258789,104.93000030517578,105.87000274658203,105.42118835449219,4293200
2021-02-11,106.12000274658203,106.2300033569336,105.02999877929688,105.86000061035156,105.4112319946289,2976000
2021-02-12,105.73999786376953,105.94000244140625,104.72000122070312,105.30000305175781,104.85360717773438,3169800
2021-02-16,104.87999725341797,106.58999633789062,104.69999694824219,106.1500015258789,105.70000457763672,4928100
2021-02-17,105.11000061035156,105.45999908447266,104.1500015258789,104.44000244140625,104.44000244140625,5733800
2021-02-18,103.77999877929688,105.33999633789062,103.41000366210938,104.97000122070312,104.97000122070312,4098700
2021-02-19,104.75,105.27999877929688,103.22000122070312,103.37000274658203,103.37000274658203,4128900
2021-02-22,102.98999786376953,102.98999786376953,101.75,101.80999755859375,101.80999755859375,5211800
2021-02-23,103.33999633789062,103.33999633789062,99.93000030517578,101.37000274658203,101.37000274658203,8740300
2021-02-24,101.16000366210938,104.51000213623047,100.5999984741211,104.37999725341797,104.37999725341797,7542700
2021-02-25,104.0,105.7699966430664,103.11000061035156,103.47000122070312,103.47000122070312,7534000
2021-02-26,104.1500015258789,109.4800033569336,103.68000030517578,108.02999877929688,108.02999877929688,15122900
2021-03-01,108.5999984741211,110.47000122070312,106.54000091552734,106.87000274658203,106.87000274658203,7930300
2021-03-02,107.30999755859375,108.25,105.81999969482422,107.19999694824219,107.19999694824219,5016800
2021-03-03,106.94000244140625,107.95999908447266,106.12000274658203,106.22000122070312,106.22000122070312,5313400
2021-03-04,106.26000213623047,107.16999816894531,103.8499984741211,104.88999938964844,104.88999938964844,7211800
2021-03-05,106.05999755859375,106.05999755859375,102.75,105.19999694824219,105.19999694824219,5559900
2021-03-08,104.80000305175781,106.88999938964844,104.2300033569336,105.02999877929688,105.02999877929688,5119500
2021-03-09,106.27999877929688,107.97000122070312,105.83000183105469,106.55000305175781,106.55000305175781,5510900
2021-03-10,107.22000122070312,109.06999969482422,106.95999908447266,107.77999877929688,107.77999877929688,6077000
2021-03-11,108.41000366210938,108.56999969482422,107.26000213623047,107.31999969482422,107.31999969482422,4670700
2021-03-12,107.41999816894531,107.98999786376953,106.58000183105469,107.80999755859375,107.80999755859375,3356000
2021-03-15,107.88999938964844,108.94999694824219,107.05999755859375,108.9000015258789,108.9000015258789,7107300
2021-03-16,110.56999969482422,112.33999633789062,109.88999938964844,111.33999633789062,111.33999633789062,11376200
2021-03-17,111.30999755859375,111.45999908447266,108.93000030517578,110.45999908447266,110.45999908447266,10128400
2021-03-18,109.27999877929688,110.2699966430664,107.5,107.62000274658203,107.62000274658203,7813400
2021-03-19,108.3499984741211,108.8499984741211,105.83000183105469,106.33999633789062,106.33999633789062,21452000
2021-03-22,106.4000015258789,108.41999816894531,106.0,107.56999969482422,107.56999969482422,7605100
2021-03-23,107.73999786376953,107.94999694824219,105.66999816894531,106.25,106.25,5657800
2021-03-24,106.62999725341797,107.27999877929688,104.94000244140625,104.97000122070312,104.97000122070312,5731300
2021-03-25,105.01000213623047,107.69999694824219,104.05999755859375,107.3499984741211,107.3499984741211,8149000
2021-03-26,107.25,110.0,107.18000030517578,109.9000015258789,109.9000015258789,6167600
2021-03-29,109.01000213623047,110.25,106.58999633789062,109.12999725341797,109.12999725341797,5167100
2021-03-30,108.41999816894531,110.44999694824219,108.27999877929688,110.2699966430664,110.2699966430664,4552900
2021-03-31,110.33000183105469,111.62000274658203,109.19000244140625,109.2699966430664,109.2699966430664,6478400
2021-04-01,110.05999755859375,110.05999755859375,108.19999694824219,109.37999725341797,109.37999725341797,5793000
2021-04-05,109.91000366210938,111.3499984741211,109.87000274658203,111.0199966430664,111.0199966430664,6913100
2021-04-06,111.37999725341797,113.81999969482422,111.0999984741211,113.1500015258789,113.1500015258789,6745200
2021-04-07,112.91000366210938,113.76000213623047,112.6500015258789,113.19000244140625,113.19000244140625,5629600
2021-04-08,113.6500015258789,113.95999908447266,112.68000030517578,113.04000091552734,113.04000091552734,5011300
2021-04-09,112.91000366210938,113.2699966430664,111.97000122070312,113.18000030517578,113.18000030517578,4114300
2021-04-12,113.0199966430664,113.88999938964844,112.7699966430664,113.80999755859375,113.80999755859375,4707800
2021-04-13,113.77999877929688,115.5999984741211,113.68000030517578,115.36000061035156,115.36000061035156,4607400
2021-04-14,115.22000122070312,116.23999786376953,114.72000122070312,115.16000366210938,115.16000366210938,3994600
2021-04-15,115.0999984741211,116.88999938964844,114.77999877929688,116.66000366210938,116.66000366210938,5079100
2021-04-16,117.81999969482422,118.5,116.94000244140625,118.33999633789062,118.33999633789062,5777900
2021-04-19,118.16999816894531,118.9800033569336,117.04000091552734,117.5999984741211,117.5999984741211,4889700
2021-04-20,116.95999908447266,117.26000213623047,115.3499984741211,116.2699966430664,116.2699966430664,5662400
2021-04-21,116.08999633789062,117.26000213623047,115.86000061035156,116.73999786376953,116.73999786376953,4397400
2021-04-22,116.87000274658203,116.87999725341797,115.2300033569336,115.91999816894531,115.91999816894531,5744900
2021-04-23,116.0199966430664,117.9800033569336,115.83999633789062,117.55999755859375,117.55999755859375,4555800
2021-04-26,116.94999694824219,117.25,115.05999755859375,115.91999816894531,115.91999816894531,5924900
2021-04-27,115.66999816894531,116.38999938964844,115.2699966430664,116.1500015258789,116.1500015258789,7260900
2021-04-28,113.44000244140625,114.1500015258789,111.61000061035156,112.4000015258789,112.4000015258789,14790000
2021-04-29,113.20999908447266,115.1500015258789,112.76000213623047,114.62999725341797,114.62999725341797,8934300
