Date,Open,High,Low,Close,Adj Close,Volume
2020-10-30,37.209999084472656,38.650001525878906,36.90999984741211,38.61000061035156,37.35481643676758,6549500
2020-11-02,39.349998474121094,40.29999923706055,38.45000076293945,39.900001525878906,38.60287857055664,4660100
2020-11-03,40.58000183105469,40.689998626708984,38.959999084472656,39.47999954223633,38.196533203125,4003300
2020-11-04,39.5,40.11000061035156,37.880001068115234,38.970001220703125,37.7031135559082,4643600
2020-11-05,39.06999969482422,40.27000045776367,38.900001525878906,39.529998779296875,38.24490737915039,4695000
2020-11-06,39.45000076293945,39.900001525878906,37.97999954223633,38.16999816894531,36.92911911010742,4378700
2020-11-09,44.90999984741211,50.90999984741211,44.900001525878906,50.08000183105469,48.451934814453125,19211600
2020-11-10,51.0,51.060001373291016,48.0,49.959999084472656,48.335838317871094,8816600
2020-11-11,50.209999084472656,50.83000183105469,49.06999969482422,49.790000915527344,48.171363830566406,6325300
2020-11-12,48.72999954223633,49.9900016784668,46.959999084472656,47.279998779296875,45.74296188354492,5754500
2020-11-13,47.86000061035156,51.38999938964844,47.79999923706055,50.91999816894531,49.264625549316406,5714300
2020-11-16,56.0,56.0,52.459999084472656,55.66999816894531,53.860206604003906,9029300
2020-11-17,52.91999816894531,54.290000915527344,51.97999954223633,54.150001525878906,53.32840347290039,5972200
2020-11-18,54.56999969482422,54.70000076293945,51.2400016784668,51.25,50.47240447998047,5562700
2020-11-19,49.849998474121094,51.45000076293945,49.400001525878906,51.209999084472656,50.43301010131836,4768400
2020-11-20,51.15999984741211,51.86000061035156,50.369998931884766,50.81999969482422,50.048927307128906,3000800
2020-11-23,51.79999923706055,56.16999816894531,51.599998474121094,56.09000015258789,55.23896789550781,7368900
2020-11-24,58.130001068115234,59.91999816894531,56.790000915527344,58.4900016784668,57.60255813598633,8712000
2020-11-25,57.41999816894531,57.790000915527344,56.36000061035156,56.43000030517578,55.57381057739258,4372400
2020-11-27,55.93000030517578,57.20000076293945,55.79999923706055,56.619998931884766,55.76092529296875,1755000
2020-11-30,55.70000076293945,56.38999938964844,53.709999084472656,53.77000045776367,52.95417022705078,5482200
2020-12-01,54.900001525878906,55.810001373291016,54.27000045776367,54.400001525878906,53.57461166381836,4157200
2020-12-02,53.689998626708984,58.15999984741211,53.54999923706055,58.06999969482422,57.188926696777344,5276000
2020-12-03,58.209999084472656,59.15999984741211,57.06999969482422,57.90999984741211,57.03135299682617,4011100
2020-12-04,59.16999816894531,61.66999816894531,59.060001373291016,61.27000045776367,60.34037399291992,5207100
2020-12-07,60.65999984741211,60.869998931884766,59.06999969482422,59.459999084472656,58.55783462524414,4660000
2020-12-08,58.5,60.09000015258789,58.349998474121094,58.97999954223633,58.085121154785156,4539900
2020-12-09,60.0,61.31999969482422,57.720001220703125,58.79999923706055,57.90785217285156,4383200
2020-12-10,58.220001220703125,61.470001220703125,58.209999084472656,59.869998931884766,58.96161651611328,3878200
2020-12-11,60.58000183105469,60.58000183105469,58.279998779296875,59.029998779296875,58.134361267089844,3768700
2020-12-14,59.91999816894531,60.04999923706055,56.2400016784668,56.38999938964844,55.53441619873047,4008400
2020-12-15,57.16999816894531,58.33000183105469,56.16999816894531,57.47999954223633,56.607879638671875,3526900
2020-12-16,57.029998779296875,57.869998931884766,56.29999923706055,56.91999816894531,56.056373596191406,5016200
2020-12-17,57.369998931884766,57.45000076293945,55.79999923706055,56.34000015258789,55.48517608642578,4719500
2020-12-18,56.0099983215332,56.31999969482422,54.34000015258789,54.77000045776367,53.938995361328125,10658500
2020-12-21,52.45000076293945,55.04999923706055,51.900001525878906,54.04999923706055,53.22991943359375,5343900
2020-12-22,53.63999938964844,54.7400016784668,53.54999923706055,53.70000076293945,52.885231018066406,4594200
2020-12-23,54.25,55.970001220703125,54.099998474121094,55.790000915527344,54.94352340698242,3282800
2020-12-24,55.540000915527344,55.75,54.560001373291016,55.68000030517578,54.83518981933594,1352000
2020-12-28,56.22999954223633,56.93000030517578,54.880001068115234,55.09000015258789,54.25414276123047,2450600
2020-12-29,55.40999984741211,55.880001068115234,54.529998779296875,55.45000076293945,54.608680725097656,2470800
2020-12-30,55.61000061035156,56.849998474121094,55.400001525878906,56.720001220703125,55.859413146972656,2732100
2020-12-31,56.58000183105469,57.13999938964844,55.959999084472656,56.56999969482422,55.71168518066406,2537300
2021-01-04,57.029998779296875,57.68000030517578,54.779998779296875,55.72999954223633,54.884429931640625,3028300
2021-01-05,56.150001525878906,58.93000030517578,56.08000183105469,57.31999969482422,56.4503059387207,3946300
2021-01-06,58.65999984741211,59.45000076293945,57.25,58.599998474121094,57.71088409423828,5597300
2021-01-07,59.06999969482422,60.0099983215332,58.290000915527344,59.66999816894531,58.7646484375,3040400
2021-01-08,60.189998626708984,60.189998626708984,57.290000915527344,57.709999084472656,56.834388732910156,3913500
2021-01-11,56.310001373291016,59.189998626708984,55.689998626708984,58.63999938964844,57.75027847290039,2885300
2021-01-12,59.220001220703125,59.79999923706055,58.52000045776367,59.5099983215332,58.607078552246094,3634800
2021-01-13,59.349998474121094,59.41999816894531,57.439998626708984,57.70000076293945,56.82454299926758,4434000
2021-01-14,58.099998474121094,61.0099983215332,58.060001373291016,60.27000045776367,59.35554885864258,4459500
2021-01-15,59.56999969482422,59.63999938964844,57.20000076293945,58.29999923706055,57.415435791015625,3710600
2021-01-19,59.0,60.95000076293945,58.72999954223633,60.540000915527344,59.62145233154297,3941400
2021-01-20,60.5099983215332,61.9900016784668,59.5099983215332,60.56999969482422,59.650997161865234,3222800
2021-01-21,59.7599983215332,60.4900016784668,58.5099983215332,58.86000061035156,57.966941833496094,3083900
2021-01-22,57.61000061035156,59.63999938964844,57.20000076293945,59.45000076293945,58.54798889160156,3000100
2021-01-25,58.7400016784668,59.68000030517578,57.86000061035156,59.40999984741211,58.50859451293945,3093800
2021-01-26,59.9900016784668,60.61000061035156,58.150001525878906,58.150001525878906,57.26771545410156,3150300
2021-01-27,57.5,60.560001373291016,56.869998931884766,58.72999954223633,57.83891296386719,4744800
2021-01-28,59.54999923706055,60.540000915527344,57.150001525878906,58.33000183105469,57.444984436035156,4363000
2021-01-29,58.0,59.95000076293945,55.939998626708984,56.43000030517578,55.57381057739258,5512600
2021-02-01,56.939998626708984,57.5,54.84000015258789,56.2400016784668,55.386695861816406,4159400
2021-02-02,57.630001068115234,59.09000015258789,56.5,57.77000045776367,56.89347839355469,3919200
2021-02-03,58.0,61.119998931884766,58.0,60.099998474121094,59.18812561035156,5257300
2021-02-04,60.880001068115234,61.91999816894531,60.130001068115234,61.060001373291016,60.13356399536133,3643600
2021-02-05,62.02000045776367,62.56999969482422,61.27000045776367,61.720001220703125,60.783546447753906,3127500
2021-02-08,62.41999816894531,65.54000091552734,62.34000015258789,64.79000091552734,63.806968688964844,4217700
2021-02-09,64.79000091552734,65.19999694824219,63.38999938964844,64.58999633789062,63.6099967956543,3864900
2021-02-10,63.779998779296875,65.4000015258789,63.38999938964844,65.11000061035156,65.11000061035156,3574100
2021-02-11,64.66999816894531,64.98999786376953,62.880001068115234,64.55000305175781,64.55000305175781,2505400
2021-02-12,63.83000183105469,64.77999877929688,63.79999923706055,64.73999786376953,64.73999786376953,2578100
2021-02-16,66.0,67.7300033569336,65.73999786376953,66.95999908447266,66.95999908447266,4645500
2021-02-17,67.30000305175781,68.58000183105469,66.37000274658203,68.12000274658203,68.12000274658203,3352600
2021-02-18,67.77999877929688,68.41000366210938,66.3499984741211,67.83000183105469,67.83000183105469,3096500
2021-02-19,68.2699966430664,72.1500015258789,68.18000030517578,71.52999877929688,71.52999877929688,5783400
2021-02-22,71.66999816894531,75.37999725341797,71.62000274658203,74.25,74.25,4771800
2021-02-23,75.45999908447266,76.19999694824219,72.77999877929688,75.80999755859375,75.80999755859375,4794700
2021-02-24,76.4000015258789,78.43000030517578,76.25,78.16000366210938,78.16000366210938,4578400
2021-02-25,78.87000274658203,79.45999908447266,77.05000305175781,78.1500015258789,78.1500015258789,6460800
2021-02-26,77.20999908447266,78.02999877929688,73.26000213623047,76.9800033569336,76.9800033569336,5344400
2021-03-01,78.5,79.19999694824219,77.72000122070312,77.80000305175781,77.80000305175781,2974200
2021-03-02,77.69000244140625,78.76000213623047,76.58000183105469,76.62999725341797,76.62999725341797,3458500
2021-03-03,77.41000366210938,79.76000213623047,76.97000122070312,77.52999877929688,77.52999877929688,4145800
2021-03-04,78.0,78.61000061035156,73.80000305175781,76.37000274658203,76.37000274658203,6359300
2021-03-05,78.0,79.05999755859375,74.81999969482422,79.02999877929688,79.02999877929688,4664400
2021-03-08,80.0,82.5999984741211,79.54000091552734,80.55999755859375,80.55999755859375,4834600
2021-03-09,79.75,81.33999633789062,76.51000213623047,76.58000183105469,76.58000183105469,5459600
2021-03-10,77.5999984741211,81.5,77.0999984741211,81.37000274658203,81.37000274658203,4069300
2021-03-11,81.55000305175781,84.38999938964844,81.4800033569336,82.4800033569336,82.4800033569336,4254300
2021-03-12,82.87000274658203,83.73999786376953,81.6500015258789,82.41999816894531,82.41999816894531,2492000
2021-03-15,82.70999908447266,83.23999786376953,80.20999908447266,81.83000183105469,81.83000183105469,2961000
2021-03-16,80.5,80.91999816894531,78.69999694824219,79.31999969482422,79.31999969482422,3793200
2021-03-17,78.68000030517578,79.80000305175781,77.08000183105469,79.13999938964844,79.13999938964844,3556900
2021-03-18,78.69000244140625,78.80999755859375,73.5,73.69999694824219,73.69999694824219,6233000
2021-03-19,74.01000213623047,74.97000122070312,72.6500015258789,73.69999694824219,73.69999694824219,11305400
2021-03-22,73.5199966430664,73.62999725341797,71.43000030517578,72.27999877929688,72.27999877929688,4149100
2021-03-23,70.83000183105469,72.16000366210938,69.72000122070312,70.08000183105469,70.08000183105469,4084700
2021-03-24,71.66999816894531,73.44999694824219,71.37999725341797,71.77999877929688,71.77999877929688,2895500
2021-03-25,70.04000091552734,72.80999755859375,69.05000305175781,72.41999816894531,72.41999816894531,3263000
2021-03-26,73.98999786376953,74.66999816894531,71.80000305175781,73.11000061035156,73.11000061035156,2730800
2021-03-29,72.08999633789062,72.97000122070312,70.72000122070312,71.86000061035156,71.86000061035156,2406200
2021-03-30,71.16000366210938,72.87000274658203,70.8499984741211,71.77999877929688,71.77999877929688,2364700
2021-03-31,71.44999694824219,72.41000366210938,70.94999694824219,71.5999984741211,71.5999984741211,3014500
2021-04-01,72.13999938964844,75.33000183105469,71.30999755859375,75.30000305175781,75.30000305175781,3792700
2021-04-05,76.0999984741211,76.19999694824219,73.0999984741211,74.62000274658203,74.62000274658203,3820200
2021-04-06,75.0999984741211,76.95999908447266,73.31999969482422,74.18000030517578,74.18000030517578,3626100
2021-04-07,74.33000183105469,75.25,73.77999877929688,74.41000366210938,74.41000366210938,2774000
2021-04-08,73.41999816894531,73.77999877929688,71.91000366210938,72.87999725341797,72.87999725341797,4285400
2021-04-09,72.55000305175781,73.2300033569336,70.77999877929688,71.08999633789062,71.08999633789062,3503600
2021-04-12,71.93000030517578,72.81999969482422,70.12000274658203,70.30000305175781,70.30000305175781,3111800
2021-04-13,70.12000274658203,70.86000061035156,69.54000091552734,70.27999877929688,70.27999877929688,3951900
2021-04-14,71.12000274658203,73.51000213623047,70.9800033569336,72.27999877929688,72.27999877929688,3461300
2021-04-15,71.80000305175781,72.19999694824219,70.5999984741211,71.38999938964844,71.38999938964844,2820300
2021-04-16,72.81999969482422,73.80000305175781,70.94000244140625,72.5,72.5,5629600
2021-04-19,72.01000213623047,72.6500015258789,70.16999816894531,70.8499984741211,70.8499984741211,3653900
2021-04-20,70.08000183105469,70.56999969482422,67.61000061035156,68.68000030517578,68.68000030517578,4263100
2021-04-21,67.80000305175781,70.66000366210938,67.43000030517578,70.30000305175781,70.30000305175781,2644600
2021-04-22,70.33999633789062,70.58999633789062,68.12999725341797,68.4800033569336,68.4800033569336,4375000
2021-04-23,69.18000030517578,70.44000244140625,68.4000015258789,70.18000030517578,70.18000030517578,3065700
2021-04-26,70.13999938964844,70.9000015258789,69.69999694824219,70.5199966430664,70.5199966430664,2142700
2021-04-27,70.79000091552734,72.05999755859375,70.5199966430664,71.81999969482422,71.81999969482422,2457900
2021-04-28,72.19000244140625,74.37999725341797,72.19000244140625,74.12000274658203,74.12000274658203,3891500
2021-04-29,75.19999694824219,75.86000061035156,74.19000244140625,74.86000061035156,74.86000061035156,3791000
