Date,Open,High,Low,Close,Adj Close,Volume
2020-10-30,205.92999267578125,211.63999938964844,203.50999450683594,208.36000061035156,208.36000061035156,2829400
2020-11-02,211.13999938964844,211.4499969482422,202.57000732421875,207.4199981689453,207.4199981689453,1877700
2020-11-03,208.9199981689453,214.8800048828125,208.0,211.13999938964844,211.13999938964844,1892000
2020-11-04,218.27000427246094,223.77000427246094,214.22000122070312,215.08999633789062,215.08999633789062,3778600
2020-11-05,220.0800018310547,220.9199981689453,216.22000122070312,219.47999572753906,219.47999572753906,2347200
2020-11-06,219.1199951171875,221.72000122070312,216.36000061035156,220.27999877929688,220.27999877929688,1707900
2020-11-09,224.41000366210938,229.0800018310547,221.5,222.85000610351562,222.85000610351562,2478300
2020-11-10,223.77000427246094,224.74000549316406,215.05999755859375,215.35000610351562,215.35000610351562,1917500
2020-11-11,217.1199951171875,218.8000030517578,213.64999389648438,216.72000122070312,216.72000122070312,1647200
2020-11-12,217.0500030517578,221.32000732421875,216.89999389648438,218.30999755859375,218.30999755859375,2143900
2020-11-13,222.27999877929688,227.27000427246094,219.63999938964844,225.52000427246094,225.52000427246094,1695100
2020-11-16,225.99000549316406,227.36000061035156,221.7899932861328,224.27000427246094,224.27000427246094,1706800
2020-11-17,222.72000122070312,223.42999267578125,218.22999572753906,222.9600067138672,222.9600067138672,1750500
2020-11-18,222.7100067138672,223.77000427246094,216.33999633789062,216.35000610351562,216.35000610351562,2500400
2020-11-19,216.4199981689453,218.13999938964844,211.39999389648438,211.97000122070312,211.97000122070312,2604100
2020-11-20,212.35000610351562,217.22999572753906,210.0399932861328,215.2100067138672,215.2100067138672,2239200
2020-11-23,216.77999877929688,218.2899932861328,214.13999938964844,217.8699951171875,217.8699951171875,1851000
2020-11-24,215.52999877929688,219.47000122070312,215.1300048828125,216.5,216.5,2179600
2020-11-25,217.8699951171875,220.5399932861328,215.83999633789062,218.10000610351562,218.10000610351562,2033300
2020-11-27,219.61000061035156,226.72000122070312,219.61000061035156,226.7100067138672,226.7100067138672,1052800
2020-11-30,231.0,232.1699981689453,224.3000030517578,227.75,227.75,4585300
2020-12-01,227.47000122070312,230.55999755859375,226.02000427246094,230.3000030517578,230.3000030517578,1762000
2020-12-02,230.3000030517578,232.4499969482422,226.32000732421875,226.6999969482422,226.6999969482422,1864200
2020-12-03,226.0,229.0500030517578,224.7100067138672,226.8699951171875,226.8699951171875,1291600
2020-12-04,227.3000030517578,230.2100067138672,225.58999633789062,228.32000732421875,228.32000732421875,948900
2020-12-07,231.0,231.4199981689453,225.1199951171875,227.05999755859375,227.05999755859375,1219700
2020-12-08,228.80999755859375,230.1999969482422,225.39999389648438,229.8300018310547,229.8300018310547,1329800
2020-12-09,230.0,231.0,221.30999755859375,224.3800048828125,224.3800048828125,1992100
2020-12-10,224.80999755859375,224.88999938964844,221.6999969482422,224.0399932861328,224.0399932861328,1462600
2020-12-11,224.10000610351562,224.55999755859375,220.92999267578125,224.1699981689453,224.1699981689453,1476000
2020-12-14,226.7899932861328,233.47000122070312,226.42999267578125,228.1300048828125,228.1300048828125,2220200
2020-12-15,229.6999969482422,230.60000610351562,226.0,228.80999755859375,228.80999755859375,1189800
2020-12-16,229.66000366210938,232.75,228.5500030517578,232.11000061035156,232.11000061035156,1708700
2020-12-17,233.0,237.35000610351562,232.32000732421875,236.9199981689453,236.9199981689453,1992800
2020-12-18,238.5399932861328,239.7100067138672,234.47000122070312,236.72000122070312,236.72000122070312,2929300
2020-12-21,233.02000427246094,235.5800018310547,228.8000030517578,234.5500030517578,234.5500030517578,1567200
2020-12-22,235.00999450683594,235.8000030517578,232.35000610351562,234.89999389648438,234.89999389648438,1127800
2020-12-23,235.39999389648438,238.57000732421875,234.0800018310547,235.83999633789062,235.83999633789062,1012900
2020-12-24,237.1699981689453,237.5,233.47999572753906,234.4600067138672,234.4600067138672,451700
2020-12-28,235.39999389648438,236.47999572753906,232.1999969482422,232.47000122070312,232.47000122070312,903200
2020-12-29,233.94000244140625,236.55999755859375,232.9600067138672,233.49000549316406,233.49000549316406,656600
2020-12-30,235.0,237.00999450683594,232.07000732421875,232.67999267578125,232.67999267578125,819100
2020-12-31,232.35000610351562,237.5,230.3300018310547,236.33999633789062,236.33999633789062,1161100
2021-01-04,237.91000366210938,238.0800018310547,226.27000427246094,229.42999267578125,229.42999267578125,2117700
2021-01-05,228.83999633789062,229.9199981689453,225.08999633789062,228.5800018310547,228.5800018310547,1730500
2021-01-06,225.10000610351562,227.50999450683594,222.30999755859375,226.64999389648438,226.64999389648438,2306700
2021-01-07,227.89999389648438,233.97000122070312,227.1999969482422,232.89999389648438,232.89999389648438,1503800
2021-01-08,233.86000061035156,237.75999450683594,233.00999450683594,237.0,237.0,1231200
2021-01-11,235.5800018310547,236.47000122070312,227.3800048828125,234.63999938964844,234.63999938964844,2263100
2021-01-12,234.8000030517578,238.25999450683594,228.74000549316406,229.3800048828125,229.3800048828125,1816900
2021-01-13,230.1999969482422,231.05999755859375,226.94000244140625,227.10000610351562,227.10000610351562,1809600
2021-01-14,228.22000122070312,228.39999389648438,224.6999969482422,226.1199951171875,226.1199951171875,1727800
2021-01-15,226.58999633789062,227.60000610351562,224.38999938964844,225.5500030517578,225.5500030517578,2241900
2021-01-19,227.0,233.8800048828125,223.30999755859375,231.91000366210938,231.91000366210938,2044800
2021-01-20,233.2899932861328,239.36000061035156,231.17999267578125,236.6999969482422,236.6999969482422,1608800
2021-01-21,237.05999755859375,239.75,232.77999877929688,238.63999938964844,238.63999938964844,1624500
2021-01-22,237.25,241.8300018310547,236.99000549316406,237.58999633789062,237.58999633789062,1258200
2021-01-25,240.99000549316406,242.99000549316406,239.0500030517578,241.30999755859375,241.30999755859375,1828600
2021-01-26,240.42999267578125,241.97999572753906,236.24000549316406,237.63999938964844,237.63999938964844,1629200
2021-01-27,234.0,234.0,224.6999969482422,225.25,225.25,2546200
2021-01-28,226.8000030517578,234.9600067138672,226.57000732421875,230.0399932861328,230.0399932861328,1593500
2021-01-29,229.4499969482422,232.9199981689453,227.55999755859375,229.0800018310547,229.0800018310547,2029500
2021-02-01,231.0,232.3800048828125,226.17999267578125,231.77000427246094,231.77000427246094,1927900
2021-02-02,225.8000030517578,227.89999389648438,216.13999938964844,217.3300018310547,217.3300018310547,6292900
2021-02-03,218.4199981689453,219.08999633789062,210.99000549316406,211.0,211.0,3830200
2021-02-04,213.35000610351562,214.7899932861328,211.64999389648438,213.7100067138672,213.7100067138672,2908100
2021-02-05,214.5,217.5500030517578,212.25999450683594,215.25999450683594,215.25999450683594,2740500
2021-02-08,217.1300048828125,218.22000122070312,213.5399932861328,214.3699951171875,214.3699951171875,2141500
2021-02-09,214.4499969482422,215.58999633789062,212.57000732421875,213.82000732421875,213.82000732421875,1624900
2021-02-10,215.97999572753906,216.3000030517578,212.02000427246094,212.52999877929688,212.52999877929688,1863000
2021-02-11,212.47999572753906,212.88999938964844,209.72000122070312,210.5,210.5,1893700
2021-02-12,210.82000732421875,214.36000061035156,210.22000122070312,213.97999572753906,213.97999572753906,1798200
2021-02-16,213.8000030517578,214.41000366210938,208.61000061035156,210.27000427246094,210.27000427246094,2509700
2021-02-17,209.5800018310547,215.0,208.5,214.85000610351562,214.85000610351562,2086700
2021-02-18,213.55999755859375,213.75999450683594,209.5800018310547,209.8300018310547,209.8300018310547,2126400
2021-02-19,210.0,211.72999572753906,206.7899932861328,207.02000427246094,207.02000427246094,2231200
2021-02-22,206.72000122070312,216.22000122070312,204.6199951171875,214.9600067138672,214.9600067138672,3671900
2021-02-23,215.1999969482422,217.69000244140625,211.6699981689453,216.44000244140625,216.44000244140625,2600900
2021-02-24,215.82000732421875,220.4199981689453,214.72000122070312,217.0399932861328,217.0399932861328,1775800
2021-02-25,215.8000030517578,217.39999389648438,210.5,212.97999572753906,212.97999572753906,1830600
2021-02-26,214.6699981689453,215.5,209.33999633789062,212.5500030517578,212.5500030517578,3083300
2021-03-01,212.67999267578125,213.69000244140625,209.3800048828125,210.3800048828125,210.3800048828125,1845000
2021-03-02,211.80999755859375,214.1300048828125,211.4499969482422,212.05999755859375,212.05999755859375,2491300
2021-03-03,212.0,213.27999877929688,208.05999755859375,208.44000244140625,208.44000244140625,2478400
2021-03-04,207.3000030517578,213.10000610351562,205.85000610351562,207.7899932861328,207.7899932861328,2273300
2021-03-05,208.22999572753906,212.60000610351562,206.38999938964844,211.97999572753906,211.97999572753906,1704700
2021-03-08,212.27000427246094,219.3000030517578,211.75999450683594,213.5800018310547,213.5800018310547,3426600
2021-03-09,217.2899932861328,219.1300048828125,213.86000061035156,214.0399932861328,214.0399932861328,2276700
2021-03-10,217.3000030517578,217.72000122070312,211.55999755859375,214.2899932861328,214.2899932861328,1938600
2021-03-11,214.7100067138672,217.67999267578125,214.30999755859375,215.14999389648438,215.14999389648438,1625500
2021-03-12,214.33999633789062,214.89999389648438,211.25999450683594,214.3300018310547,214.3300018310547,1162600
2021-03-15,213.7100067138672,219.85000610351562,213.47999572753906,219.64999389648438,219.64999389648438,1577700
2021-03-16,220.6300048828125,220.6300048828125,216.72000122070312,218.99000549316406,218.99000549316406,1367500
2021-03-17,217.16000366210938,217.8800048828125,214.14999389648438,217.0800018310547,217.0800018310547,1195500
2021-03-18,214.1300048828125,216.25,212.64999389648438,213.36000061035156,213.36000061035156,1620800
2021-03-19,214.44000244140625,216.92999267578125,213.27999877929688,216.11000061035156,216.11000061035156,2098600
2021-03-22,215.83999633789062,220.3300018310547,215.25,218.82000732421875,218.82000732421875,1934300
2021-03-23,219.8300018310547,219.85000610351562,212.11000061035156,213.58999633789062,213.58999633789062,1620700
2021-03-24,213.61000061035156,214.50999450683594,209.41000366210938,211.5399932861328,211.5399932861328,1522000
2021-03-25,213.16000366210938,213.60000610351562,209.7100067138672,212.36000061035156,212.36000061035156,2292300
2021-03-26,212.5,214.9600067138672,209.22000122070312,214.63999938964844,214.63999938964844,2848400
2021-03-29,213.92999267578125,218.4600067138672,212.2100067138672,216.7100067138672,216.7100067138672,1531500
2021-03-30,214.75,215.5,212.3699951171875,212.99000549316406,212.99000549316406,1272500
2021-03-31,213.3800048828125,216.05999755859375,212.8699951171875,214.88999938964844,214.88999938964844,1523300
2021-04-01,215.88999938964844,216.02000427246094,212.3000030517578,213.0399932861328,213.0399932861328,2071400
2021-04-05,214.3800048828125,215.61000061035156,213.17999267578125,215.32000732421875,215.32000732421875,2050000
2021-04-06,215.5,216.4600067138672,213.14999389648438,215.3000030517578,215.3000030517578,1926000
2021-04-07,215.7100067138672,218.47000122070312,211.6999969482422,212.72000122070312,212.72000122070312,1515400
2021-04-08,214.17999267578125,216.0500030517578,209.9499969482422,210.27999877929688,210.27999877929688,2259400
2021-04-09,210.5,213.82000732421875,209.52999877929688,213.35000610351562,213.35000610351562,1533600
2021-04-12,212.67999267578125,214.4499969482422,211.2100067138672,213.60000610351562,213.60000610351562,1468000
2021-04-13,214.61000061035156,218.6999969482422,214.4600067138672,215.94000244140625,215.94000244140625,1628700
2021-04-14,216.16000366210938,220.25,216.16000366210938,217.1300048828125,217.1300048828125,1564700
2021-04-15,218.52000427246094,222.35000610351562,218.0,221.10000610351562,221.10000610351562,1686500
2021-04-16,222.33999633789062,222.77999877929688,219.24000549316406,219.38999938964844,219.38999938964844,1917500
2021-04-19,220.86000061035156,222.58999633789062,218.14999389648438,219.17999267578125,219.17999267578125,1510900
2021-04-20,218.83999633789062,222.0,218.14999389648438,220.16000366210938,220.16000366210938,1370500
2021-04-21,220.7899932861328,221.47999572753906,217.82000732421875,219.75999450683594,219.75999450683594,1173400
2021-04-22,217.11000061035156,218.92999267578125,214.0,215.97999572753906,215.97999572753906,1777600
2021-04-23,217.07000732421875,218.80999755859375,215.77000427246094,217.89999389648438,217.89999389648438,1205100
2021-04-26,217.74000549316406,218.27999877929688,214.4600067138672,216.97000122070312,216.97000122070312,1303400
2021-04-27,217.10000610351562,218.14999389648438,215.0,215.52999877929688,215.52999877929688,1223900
2021-04-28,215.67999267578125,215.72000122070312,212.80999755859375,213.47999572753906,213.47999572753906,1426800
2021-04-29,213.60000610351562,213.8000030517578,210.27000427246094,211.86000061035156,211.86000061035156,1653500
