Date,Open,High,Low,Close,Adj Close,Volume
2020-10-30,186.39999389648438,189.00999450683594,180.39999389648438,184.9600067138672,182.582275390625,827200
2020-11-02,185.7899932861328,193.08999633789062,185.50999450683594,192.72999572753906,190.25238037109375,587200
2020-11-03,195.3000030517578,199.11000061035156,193.4600067138672,197.77000427246094,195.22760009765625,600800
2020-11-04,197.33999633789062,197.33999633789062,193.0,194.39999389648438,191.90090942382812,579000
2020-11-05,197.11000061035156,201.4199981689453,197.11000061035156,198.75999450683594,196.20484924316406,794400
2020-11-06,199.22000122070312,202.89999389648438,197.7899932861328,201.63999938964844,199.04783630371094,464100
2020-11-09,205.0,206.57000732421875,180.52000427246094,180.69000244140625,178.36715698242188,1137700
2020-11-10,181.50999450683594,185.0,180.1699981689453,183.0500030517578,180.6968231201172,758700
2020-11-11,184.47999572753906,185.25,182.27000427246094,185.1300048828125,182.75009155273438,617000
2020-11-12,185.39999389648438,186.5,181.52000427246094,183.94000244140625,181.57537841796875,630400
2020-11-13,186.0,190.17999267578125,185.49000549316406,188.72999572753906,186.30380249023438,432400
2020-11-16,189.86000061035156,191.02999877929688,185.1999969482422,188.60000610351562,186.17547607421875,832400
2020-11-17,189.2899932861328,192.0,187.16000366210938,191.07000732421875,188.61373901367188,572600
2020-11-18,191.86000061035156,197.3699951171875,191.5800018310547,194.1699981689453,191.6738739013672,645900
2020-11-19,192.0800018310547,194.44000244140625,189.25,192.55999755859375,191.31619262695312,466000
2020-11-20,192.8800048828125,194.47999572753906,191.11000061035156,192.91000366210938,191.6639404296875,536800
2020-11-23,194.2899932861328,199.77999877929688,192.63999938964844,198.67999267578125,197.3966522216797,609400
2020-11-24,201.02999877929688,205.77999877929688,200.10000610351562,200.22000122070312,198.92672729492188,740000
2020-11-25,199.5399932861328,201.8300018310547,197.02999877929688,200.1199951171875,198.82736206054688,522700
2020-11-27,199.99000549316406,201.25,198.22000122070312,200.9600067138672,199.6619415283203,182000
2020-11-30,199.55999755859375,199.8000030517578,192.58999633789062,194.61000061035156,193.3529510498047,710000
2020-12-01,196.39999389648438,198.35000610351562,192.58999633789062,193.8000030517578,192.54818725585938,746900
2020-12-02,193.75,193.92999267578125,183.5,183.77999877929688,182.59291076660156,992100
2020-12-03,186.25999450683594,187.85000610351562,183.4499969482422,186.88999938964844,185.6828155517578,1043100
2020-12-04,186.94000244140625,188.3300018310547,183.0,184.07000732421875,182.88104248046875,697000
2020-12-07,184.07000732421875,189.25,183.1300048828125,188.85000610351562,187.6301727294922,780800
2020-12-08,187.52000427246094,189.63999938964844,184.25999450683594,185.14999389648438,183.9540557861328,551600
2020-12-09,187.07000732421875,188.77999877929688,184.67999267578125,185.0399932861328,183.8447723388672,721100
2020-12-10,183.9600067138672,184.72000122070312,181.08999633789062,182.41000366210938,181.2317657470703,638300
2020-12-11,182.91000366210938,185.4499969482422,182.3300018310547,183.92999267578125,182.74192810058594,604500
2020-12-14,186.3000030517578,187.5,183.9199981689453,184.02999877929688,182.84129333496094,661300
2020-12-15,184.97000122070312,189.42999267578125,183.77000427246094,188.6300048828125,187.41159057617188,600000
2020-12-16,189.38999938964844,191.58999633789062,186.47000122070312,187.08999633789062,185.88153076171875,561300
2020-12-17,189.0,190.75,186.72000122070312,190.75,189.51788330078125,648600
2020-12-18,190.91000366210938,191.6699981689453,186.4499969482422,188.3699951171875,187.15325927734375,1392400
2020-12-21,185.32000732421875,187.4499969482422,182.9499969482422,186.6199951171875,185.41456604003906,500900
2020-12-22,186.0,188.75999450683594,185.39999389648438,187.7899932861328,186.57699584960938,453900
2020-12-23,188.64999389648438,191.08999633789062,187.60000610351562,189.5500030517578,188.3256378173828,434500
2020-12-24,190.1300048828125,193.41000366210938,188.61000061035156,193.1999969482422,191.95205688476562,302600
2020-12-28,193.8699951171875,194.0,185.1199951171875,185.19000244140625,183.99380493164062,571800
2020-12-29,185.1999969482422,186.3300018310547,181.3000030517578,183.1999969482422,182.0166473388672,399200
2020-12-30,184.14999389648438,185.8300018310547,183.69000244140625,184.38999938964844,183.198974609375,373100
2020-12-31,183.92999267578125,183.92999267578125,180.25999450683594,180.49000549316406,179.3241729736328,534400
2021-01-04,182.47999572753906,182.69000244140625,175.3699951171875,176.89999389648438,175.75733947753906,886800
2021-01-05,176.75999450683594,179.02999877929688,171.3300018310547,178.72999572753906,177.57553100585938,1009500
2021-01-06,179.0,181.97999572753906,175.4499969482422,178.6199951171875,177.4662322998047,916100
2021-01-07,178.1300048828125,183.27999877929688,176.66000366210938,182.47000122070312,181.29136657714844,615500
2021-01-08,182.63999938964844,183.5800018310547,176.27999877929688,179.5399932861328,178.3802947998047,816300
2021-01-11,177.63999938964844,182.0,177.44000244140625,180.17999267578125,179.0161590576172,671900
2021-01-12,181.5500030517578,184.6699981689453,179.97000122070312,184.27999877929688,183.0896759033203,1055700
2021-01-13,186.00999450683594,194.92999267578125,185.16000366210938,191.97000122070312,190.73001098632812,1147900
2021-01-14,191.32000732421875,194.22999572753906,189.60000610351562,192.8699951171875,191.6241912841797,1038200
2021-01-15,192.22999572753906,195.22999572753906,190.61000061035156,194.5399932861328,193.2834014892578,732400
2021-01-19,195.0,201.5500030517578,194.67999267578125,198.7100067138672,197.42648315429688,654700
2021-01-20,199.57000732421875,203.08999633789062,194.8699951171875,195.7100067138672,194.44586181640625,869600
2021-01-21,196.00999450683594,197.52000427246094,194.5500030517578,195.0500030517578,193.7901153564453,628300
2021-01-22,193.5,198.32000732421875,191.5399932861328,198.2100067138672,196.92970275878906,599500
2021-01-25,199.57000732421875,210.77999877929688,199.57000732421875,203.02000427246094,201.70863342285156,1150100
2021-01-26,203.02999877929688,208.1999969482422,201.19000244140625,206.4199981689453,205.086669921875,756700
2021-01-27,204.9600067138672,214.67999267578125,204.0,212.39999389648438,211.02804565429688,1765100
2021-01-28,206.27000427246094,206.27000427246094,191.24000549316406,194.60000610351562,193.34303283691406,2464600
2021-01-29,194.60000610351562,195.17999267578125,184.83999633789062,185.08999633789062,183.89443969726562,1511500
2021-02-01,186.02999877929688,188.0800018310547,180.44000244140625,186.55999755859375,185.35494995117188,975400
2021-02-02,187.1699981689453,190.8800048828125,184.14999389648438,190.11000061035156,188.88201904296875,919800
2021-02-03,190.3800048828125,193.5399932861328,187.1300048828125,191.10000610351562,189.86563110351562,695400
2021-02-04,190.69000244140625,192.27000427246094,186.61000061035156,187.89999389648438,186.68629455566406,812300
2021-02-05,189.14999389648438,194.4499969482422,186.50999450683594,193.57000732421875,192.31968688964844,981300
2021-02-08,195.02999877929688,200.8800048828125,193.8800048828125,200.42999267578125,199.13536071777344,756700
2021-02-09,200.4199981689453,201.75,198.6300048828125,199.3000030517578,198.01266479492188,543400
2021-02-10,200.5,201.9199981689453,195.69000244140625,197.6300048828125,196.35345458984375,495600
2021-02-11,197.42999267578125,198.77000427246094,194.22000122070312,196.60000610351562,195.33010864257812,450100
2021-02-12,195.1699981689453,200.36000061035156,195.08999633789062,199.92999267578125,198.63858032226562,464000
2021-02-16,201.3699951171875,201.5,194.91000366210938,196.2100067138672,194.942626953125,602300
2021-02-17,195.22999572753906,195.7100067138672,193.5,193.97000122070312,192.7170867919922,473400
2021-02-18,194.00999450683594,195.1300048828125,189.27999877929688,190.9199981689453,189.68678283691406,597300
2021-02-19,190.92999267578125,197.5800018310547,190.92999267578125,195.33999633789062,194.07823181152344,616400
2021-02-22,194.92999267578125,195.3300018310547,191.25999450683594,192.69000244140625,191.4453582763672,649000
2021-02-23,192.60000610351562,193.35000610351562,186.0,192.80999755859375,191.5645751953125,598600
2021-02-24,192.80999755859375,195.10000610351562,190.72000122070312,193.52000427246094,192.27000427246094,575200
2021-02-25,190.97000122070312,194.22000122070312,185.88999938964844,188.1199951171875,188.1199951171875,598100
2021-02-26,189.69000244140625,192.8699951171875,187.00999450683594,190.0800018310547,190.0800018310547,665800
2021-03-01,193.24000549316406,198.19000244140625,192.66000366210938,197.6999969482422,197.6999969482422,681000
2021-03-02,198.3800048828125,200.3000030517578,194.0,194.02000427246094,194.02000427246094,554300
2021-03-03,194.0500030517578,196.2899932861328,190.00999450683594,190.97999572753906,190.97999572753906,539400
2021-03-04,190.36000061035156,194.0,183.75,186.72000122070312,186.72000122070312,666800
2021-03-05,188.49000549316406,196.22000122070312,184.92999267578125,195.25,195.25,732100
2021-03-08,195.86000061035156,205.99000549316406,195.02999877929688,201.99000549316406,201.99000549316406,964000
2021-03-09,203.69000244140625,206.08999633789062,198.83999633789062,198.83999633789062,198.83999633789062,635000
2021-03-10,200.75999450683594,206.1300048828125,198.0,204.69000244140625,204.69000244140625,626000
2021-03-11,205.94000244140625,208.8699951171875,204.5399932861328,205.60000610351562,205.60000610351562,480800
2021-03-12,205.1699981689453,208.7100067138672,204.05999755859375,207.83999633789062,207.83999633789062,437800
2021-03-15,208.94000244140625,212.99000549316406,206.8300018310547,212.9199981689453,212.9199981689453,552100
2021-03-16,213.10000610351562,215.3800048828125,211.82000732421875,212.1699981689453,212.1699981689453,554800
2021-03-17,210.74000549316406,216.41000366210938,210.4199981689453,216.27999877929688,216.27999877929688,516200
2021-03-18,216.27999877929688,221.49000549316406,214.02000427246094,215.22999572753906,215.22999572753906,637400
2021-03-19,215.63999938964844,220.8000030517578,215.3300018310547,218.4600067138672,218.4600067138672,1628300
2021-03-22,218.3000030517578,222.82000732421875,215.1999969482422,221.5500030517578,221.5500030517578,657600
2021-03-23,218.69000244140625,222.0,212.4600067138672,213.7899932861328,213.7899932861328,464500
2021-03-24,215.22999572753906,217.72000122070312,211.05999755859375,211.05999755859375,211.05999755859375,475100
2021-03-25,211.0399932861328,216.4499969482422,208.39999389648438,216.1199951171875,216.1199951171875,436800
2021-03-26,218.25999450683594,223.30999755859375,215.52999877929688,223.08999633789062,223.08999633789062,328300
2021-03-29,224.02999877929688,225.5,216.83999633789062,216.85000610351562,216.85000610351562,478800
2021-03-30,215.5399932861328,220.4600067138672,215.0,220.24000549316406,220.24000549316406,566100
2021-03-31,221.11000061035156,222.47000122070312,218.25999450683594,220.35000610351562,220.35000610351562,494900
2021-04-01,221.00999450683594,225.6699981689453,219.7100067138672,225.3000030517578,225.3000030517578,728000
2021-04-05,227.60000610351562,234.1699981689453,224.85000610351562,233.50999450683594,233.50999450683594,881700
2021-04-06,234.7100067138672,236.89999389648438,232.00999450683594,234.3699951171875,234.3699951171875,711700
2021-04-07,233.0399932861328,234.97999572753906,229.02000427246094,230.3699951171875,230.3699951171875,508300
2021-04-08,231.0500030517578,235.42999267578125,228.92999267578125,233.9499969482422,233.9499969482422,669200
2021-04-09,234.75,237.22999572753906,233.44000244140625,236.99000549316406,236.99000549316406,368100
2021-04-12,237.72999572753906,238.24000549316406,235.05999755859375,237.52000427246094,237.52000427246094,439900
2021-04-13,236.67999267578125,237.14999389648438,231.10000610351562,233.6999969482422,233.6999969482422,497200
2021-04-14,232.3699951171875,233.8300018310547,231.41000366210938,231.97000122070312,231.97000122070312,430300
2021-04-15,233.49000549316406,233.49000549316406,229.0800018310547,230.88999938964844,230.88999938964844,606800
2021-04-16,232.72999572753906,236.8300018310547,232.52000427246094,234.80999755859375,234.80999755859375,567500
2021-04-19,236.7899932861328,238.16000366210938,233.25999450683594,235.27000427246094,235.27000427246094,542100
2021-04-20,239.24000549316406,240.5,232.83999633789062,236.4499969482422,236.4499969482422,810000
2021-04-21,232.38999938964844,236.85000610351562,231.3300018310547,234.6999969482422,234.6999969482422,1283000
2021-04-22,239.39999389648438,246.24000549316406,229.4600067138672,233.19000244140625,233.19000244140625,1751900
2021-04-23,235.5,241.1999969482422,234.27000427246094,238.94000244140625,238.94000244140625,1251800
2021-04-26,238.66000366210938,239.25999450683594,233.75,236.1199951171875,236.1199951171875,718700
2021-04-27,237.4199981689453,240.32000732421875,236.0,239.36000061035156,239.36000061035156,489300
2021-04-28,239.0,239.0500030517578,234.27000427246094,235.4499969482422,235.4499969482422,475400
2021-04-29,236.6999969482422,238.80999755859375,234.33999633789062,238.32000732421875,238.32000732421875,411800
